2018-02-06 18:58:17: *** Extracting data to the LST 1 km grid ***
2018-02-06 18:58:20:
2018-02-06 18:58:20: Extracting elevation data
2018-02-06 18:58:20: ---
2018-02-06 18:58:20: Loading 1 km square buffers
2018-02-06 18:58:54: Extracting ASTER GDEM2 elevation data
2018-02-06 18:58:54:   Loading data with velox
2018-02-06 19:00:24:   Extracting
2018-02-06 19:01:38:   Saving as GeoTIFF to /media/qnap/Projects/P055.Ian/1.work/spatial/grid_lst_1km/extracts/grid_lst_1km_aster_dem.tif
2018-02-06 19:01:40:   Saving as RDS to /media/qnap/Projects/P055.Ian/1.work/spatial/grid_lst_1km/extracts/grid_lst_1km_aster_dem.rds
2018-02-06 19:01:41: Extracting EU-DEM v1.0 elevation data
2018-02-06 19:01:41:   Loading data with velox
2018-02-06 19:02:59:   Extracting
2018-02-06 19:04:23:   Saving as GeoTIFF to /media/qnap/Projects/P055.Ian/1.work/spatial/grid_lst_1km/extracts/grid_lst_1km_eu_dem_v10.tif
2018-02-06 19:04:24:   Saving as RDS to /media/qnap/Projects/P055.Ian/1.work/spatial/grid_lst_1km/extracts/grid_lst_1km_eu_dem_v10.rds
2018-02-06 19:04:26: Extracting EU-DEM v1.1 elevation data
2018-02-06 19:04:26:   Loading data with velox
2018-02-06 19:05:41:   Extracting
2018-02-06 19:07:04:   Saving as GeoTIFF to /media/qnap/Projects/P055.Ian/1.work/spatial/grid_lst_1km/extracts/grid_lst_1km_eu_dem_v11.tif
2018-02-06 19:07:05:   Saving as RDS to /media/qnap/Projects/P055.Ian/1.work/spatial/grid_lst_1km/extracts/grid_lst_1km_eu_dem_v11.rds
2018-02-06 19:07:07: Extracting IGN BDALTI v2 25m elevation data
2018-02-06 19:07:07:   Loading data with velox
2018-02-06 19:08:52:   Extracting
2018-02-06 19:09:57:   Saving as GeoTIFF to /media/qnap/Projects/P055.Ian/1.work/spatial/grid_lst_1km/extracts/grid_lst_1km_ign_bdalti.tif
2018-02-06 19:09:58:   Saving as RDS to /media/qnap/Projects/P055.Ian/1.work/spatial/grid_lst_1km/extracts/grid_lst_1km_ign_bdalti.rds
2018-02-06 19:10:00: Done
2018-02-06 19:10:03:
2018-02-06 19:10:03: Extracting Corine Land Cover data
2018-02-06 19:10:03: ---
2018-02-06 19:10:03: Loading 1 km square buffers
2018-02-06 19:10:36: Loading CLC 2000 data as a velox object
2018-02-06 19:11:02:   Calculating area for urban_built
2018-02-06 19:12:01:   Calculating area for urban_green
2018-02-06 19:12:58:   Calculating area for mine_dump
2018-02-06 19:14:00:   Calculating area for field
2018-02-06 19:15:01:   Calculating area for shrub
2018-02-06 19:16:01:   Calculating area for forest
2018-02-06 19:17:03:   Calculating area for bare
2018-02-06 19:18:05:   Calculating area for wetland
2018-02-06 19:19:07:   Calculating area for water
2018-02-06 19:20:14:   Saving as GeoTIFF to /media/qnap/Projects/P055.Ian/1.work/spatial/grid_lst_1km/extracts/grid_lst_1km_clc_2000.tif
2018-02-06 19:20:23:   Saving as RDS to /media/qnap/Projects/P055.Ian/1.work/spatial/grid_lst_1km/extracts/grid_lst_1km_clc_2000.rds
2018-02-06 19:20:25: Loading CLC 2006 data as a velox object
2018-02-06 19:20:44:   Calculating area for urban_built
2018-02-06 19:21:33:   Calculating area for urban_green
2018-02-06 19:22:23:   Calculating area for mine_dump
2018-02-06 19:23:14:   Calculating area for field
2018-02-06 19:24:05:   Calculating area for shrub
2018-02-06 19:24:54:   Calculating area for forest
2018-02-06 19:25:45:   Calculating area for bare
2018-02-06 19:26:36:   Calculating area for wetland
2018-02-06 19:27:27:   Calculating area for water
2018-02-06 19:28:18:   Saving as GeoTIFF to /media/qnap/Projects/P055.Ian/1.work/spatial/grid_lst_1km/extracts/grid_lst_1km_clc_2006.tif
2018-02-06 19:28:22:   Saving as RDS to /media/qnap/Projects/P055.Ian/1.work/spatial/grid_lst_1km/extracts/grid_lst_1km_clc_2006.rds
2018-02-06 19:28:24: Loading CLC 2012 data as a velox object
2018-02-06 19:28:44:   Calculating area for urban_built
2018-02-06 19:29:33:   Calculating area for urban_green
2018-02-06 19:30:23:   Calculating area for mine_dump
2018-02-06 19:31:13:   Calculating area for field
2018-02-06 19:32:03:   Calculating area for shrub
2018-02-06 19:32:53:   Calculating area for forest
2018-02-06 19:33:43:   Calculating area for bare
2018-02-06 19:34:31:   Calculating area for wetland
2018-02-06 19:35:21:   Calculating area for water
2018-02-06 19:36:12:   Saving as GeoTIFF to /media/qnap/Projects/P055.Ian/1.work/spatial/grid_lst_1km/extracts/grid_lst_1km_clc_2012.tif
2018-02-06 19:36:15:   Saving as RDS to /media/qnap/Projects/P055.Ian/1.work/spatial/grid_lst_1km/extracts/grid_lst_1km_clc_2012.rds
2018-02-06 19:36:17: Done
2018-02-06 19:36:20:
2018-02-06 19:36:20: Extracting INSEE population
2018-02-06 19:36:20: ---
2018-02-06 19:36:20: Loading 1 km square buffers
2018-02-06 19:36:54: Loading INSEE 50 m gridded population with velox
2018-02-06 19:37:24: Extracting
2018-02-06 19:38:23: Saving as GeoTIFF to /media/qnap/Projects/P055.Ian/1.work/spatial/grid_lst_1km/extracts/grid_lst_1km_insee_pop.tif
2018-02-06 19:38:24: Saving as RDS to /media/qnap/Projects/P055.Ian/1.work/spatial/grid_lst_1km/extracts/grid_lst_1km_insee_pop.rds
2018-02-06 19:38:25: Done
2018-02-06 19:38:27:
2018-02-06 19:38:27: Extracting Meteo France SIM surface model output
2018-02-06 19:38:27: ---
2018-02-06 19:38:27: Loading MODIS reference grid
2018-02-06 19:38:30: Extracting Meteo France SIM model predictions
2018-02-06 19:38:34: Processing 2000
2018-02-06 19:38:34:   Extracting data
2018-02-06 19:39:28:   Combining data for January
2018-02-06 19:39:51:     Saving to /media/qnap/Projects/P055.Ian/1.work/spatial/grid_lst_1km/extracts/2000/grid_lst_1km_sim_2000-01.fst
2018-02-06 19:40:29:   Combining data for February
2018-02-06 19:40:47:     Saving to /media/qnap/Projects/P055.Ian/1.work/spatial/grid_lst_1km/extracts/2000/grid_lst_1km_sim_2000-02.fst
2018-02-06 19:41:24:   Combining data for March
2018-02-06 19:41:44:     Saving to /media/qnap/Projects/P055.Ian/1.work/spatial/grid_lst_1km/extracts/2000/grid_lst_1km_sim_2000-03.fst
2018-02-06 19:42:23:   Combining data for April
2018-02-06 19:42:42:     Saving to /media/qnap/Projects/P055.Ian/1.work/spatial/grid_lst_1km/extracts/2000/grid_lst_1km_sim_2000-04.fst
2018-02-06 19:43:19:   Combining data for May
2018-02-06 19:43:39:     Saving to /media/qnap/Projects/P055.Ian/1.work/spatial/grid_lst_1km/extracts/2000/grid_lst_1km_sim_2000-05.fst
2018-02-06 19:44:17:   Combining data for June
2018-02-06 19:44:37:     Saving to /media/qnap/Projects/P055.Ian/1.work/spatial/grid_lst_1km/extracts/2000/grid_lst_1km_sim_2000-06.fst
2018-02-06 19:45:13:   Combining data for July
2018-02-06 19:45:34:     Saving to /media/qnap/Projects/P055.Ian/1.work/spatial/grid_lst_1km/extracts/2000/grid_lst_1km_sim_2000-07.fst
2018-02-06 19:46:12:   Combining data for August
2018-02-06 19:46:32:     Saving to /media/qnap/Projects/P055.Ian/1.work/spatial/grid_lst_1km/extracts/2000/grid_lst_1km_sim_2000-08.fst
2018-02-06 19:47:09:   Combining data for September
2018-02-06 19:47:30:     Saving to /media/qnap/Projects/P055.Ian/1.work/spatial/grid_lst_1km/extracts/2000/grid_lst_1km_sim_2000-09.fst
2018-02-06 19:48:08:   Combining data for October
2018-02-06 19:48:29:     Saving to /media/qnap/Projects/P055.Ian/1.work/spatial/grid_lst_1km/extracts/2000/grid_lst_1km_sim_2000-10.fst
2018-02-06 19:49:07:   Combining data for November
2018-02-06 19:49:27:     Saving to /media/qnap/Projects/P055.Ian/1.work/spatial/grid_lst_1km/extracts/2000/grid_lst_1km_sim_2000-11.fst
2018-02-06 19:50:05:   Combining data for December
2018-02-06 19:50:26:     Saving to /media/qnap/Projects/P055.Ian/1.work/spatial/grid_lst_1km/extracts/2000/grid_lst_1km_sim_2000-12.fst
2018-02-06 19:51:04: Processing 2001
2018-02-06 19:51:04:   Extracting data
2018-02-06 19:51:47:   Combining data for January
2018-02-06 19:52:09:     Saving to /media/qnap/Projects/P055.Ian/1.work/spatial/grid_lst_1km/extracts/2001/grid_lst_1km_sim_2001-01.fst
2018-02-06 19:52:49:   Combining data for February
2018-02-06 19:53:08:     Saving to /media/qnap/Projects/P055.Ian/1.work/spatial/grid_lst_1km/extracts/2001/grid_lst_1km_sim_2001-02.fst
2018-02-06 19:53:44:   Combining data for March
2018-02-06 19:54:06:     Saving to /media/qnap/Projects/P055.Ian/1.work/spatial/grid_lst_1km/extracts/2001/grid_lst_1km_sim_2001-03.fst
2018-02-06 19:54:46:   Combining data for April
2018-02-06 19:55:07:     Saving to /media/qnap/Projects/P055.Ian/1.work/spatial/grid_lst_1km/extracts/2001/grid_lst_1km_sim_2001-04.fst
2018-02-06 19:55:45:   Combining data for May
2018-02-06 19:56:06:     Saving to /media/qnap/Projects/P055.Ian/1.work/spatial/grid_lst_1km/extracts/2001/grid_lst_1km_sim_2001-05.fst
2018-02-06 19:56:44:   Combining data for June
2018-02-06 19:57:06:     Saving to /media/qnap/Projects/P055.Ian/1.work/spatial/grid_lst_1km/extracts/2001/grid_lst_1km_sim_2001-06.fst
2018-02-06 19:57:42:   Combining data for July
2018-02-06 19:58:04:     Saving to /media/qnap/Projects/P055.Ian/1.work/spatial/grid_lst_1km/extracts/2001/grid_lst_1km_sim_2001-07.fst
2018-02-06 19:58:41:   Combining data for August
2018-02-06 19:59:03:     Saving to /media/qnap/Projects/P055.Ian/1.work/spatial/grid_lst_1km/extracts/2001/grid_lst_1km_sim_2001-08.fst
2018-02-06 19:59:42:   Combining data for September
2018-02-06 20:00:03:     Saving to /media/qnap/Projects/P055.Ian/1.work/spatial/grid_lst_1km/extracts/2001/grid_lst_1km_sim_2001-09.fst
2018-02-06 20:00:40:   Combining data for October
2018-02-06 20:01:02:     Saving to /media/qnap/Projects/P055.Ian/1.work/spatial/grid_lst_1km/extracts/2001/grid_lst_1km_sim_2001-10.fst
2018-02-06 20:01:40:   Combining data for November
2018-02-06 20:02:01:     Saving to /media/qnap/Projects/P055.Ian/1.work/spatial/grid_lst_1km/extracts/2001/grid_lst_1km_sim_2001-11.fst
2018-02-06 20:02:39:   Combining data for December
2018-02-06 20:03:01:     Saving to /media/qnap/Projects/P055.Ian/1.work/spatial/grid_lst_1km/extracts/2001/grid_lst_1km_sim_2001-12.fst
2018-02-06 20:03:40: Processing 2002
2018-02-06 20:03:40:   Extracting data
2018-02-06 20:04:24:   Combining data for January
2018-02-06 20:04:44:     Saving to /media/qnap/Projects/P055.Ian/1.work/spatial/grid_lst_1km/extracts/2002/grid_lst_1km_sim_2002-01.fst
2018-02-06 20:05:23:   Combining data for February
2018-02-06 20:05:41:     Saving to /media/qnap/Projects/P055.Ian/1.work/spatial/grid_lst_1km/extracts/2002/grid_lst_1km_sim_2002-02.fst
2018-02-06 20:06:17:   Combining data for March
2018-02-06 20:06:37:     Saving to /media/qnap/Projects/P055.Ian/1.work/spatial/grid_lst_1km/extracts/2002/grid_lst_1km_sim_2002-03.fst
2018-02-06 20:07:15:   Combining data for April
2018-02-06 20:07:35:     Saving to /media/qnap/Projects/P055.Ian/1.work/spatial/grid_lst_1km/extracts/2002/grid_lst_1km_sim_2002-04.fst
2018-02-06 20:08:13:   Combining data for May
2018-02-06 20:08:33:     Saving to /media/qnap/Projects/P055.Ian/1.work/spatial/grid_lst_1km/extracts/2002/grid_lst_1km_sim_2002-05.fst
2018-02-06 20:09:14:   Combining data for June
2018-02-06 20:09:33:     Saving to /media/qnap/Projects/P055.Ian/1.work/spatial/grid_lst_1km/extracts/2002/grid_lst_1km_sim_2002-06.fst
2018-02-06 20:10:10:   Combining data for July
2018-02-06 20:10:30:     Saving to /media/qnap/Projects/P055.Ian/1.work/spatial/grid_lst_1km/extracts/2002/grid_lst_1km_sim_2002-07.fst
2018-02-06 20:11:10:   Combining data for August
2018-02-06 20:11:30:     Saving to /media/qnap/Projects/P055.Ian/1.work/spatial/grid_lst_1km/extracts/2002/grid_lst_1km_sim_2002-08.fst
2018-02-06 20:12:08:   Combining data for September
2018-02-06 20:12:28:     Saving to /media/qnap/Projects/P055.Ian/1.work/spatial/grid_lst_1km/extracts/2002/grid_lst_1km_sim_2002-09.fst
2018-02-06 20:13:05:   Combining data for October
2018-02-06 20:13:25:     Saving to /media/qnap/Projects/P055.Ian/1.work/spatial/grid_lst_1km/extracts/2002/grid_lst_1km_sim_2002-10.fst
2018-02-06 20:14:03:   Combining data for November
2018-02-06 20:14:23:     Saving to /media/qnap/Projects/P055.Ian/1.work/spatial/grid_lst_1km/extracts/2002/grid_lst_1km_sim_2002-11.fst
2018-02-06 20:15:02:   Combining data for December
2018-02-06 20:15:22:     Saving to /media/qnap/Projects/P055.Ian/1.work/spatial/grid_lst_1km/extracts/2002/grid_lst_1km_sim_2002-12.fst
2018-02-06 20:16:02: Processing 2003
2018-02-06 20:16:02:   Extracting data
2018-02-06 20:16:45:   Combining data for January
2018-02-06 20:17:07:     Saving to /media/qnap/Projects/P055.Ian/1.work/spatial/grid_lst_1km/extracts/2003/grid_lst_1km_sim_2003-01.fst
2018-02-06 20:17:47:   Combining data for February
2018-02-06 20:18:06:     Saving to /media/qnap/Projects/P055.Ian/1.work/spatial/grid_lst_1km/extracts/2003/grid_lst_1km_sim_2003-02.fst
2018-02-06 20:18:41:   Combining data for March
2018-02-06 20:19:02:     Saving to /media/qnap/Projects/P055.Ian/1.work/spatial/grid_lst_1km/extracts/2003/grid_lst_1km_sim_2003-03.fst
2018-02-06 20:19:40:   Combining data for April
2018-02-06 20:20:01:     Saving to /media/qnap/Projects/P055.Ian/1.work/spatial/grid_lst_1km/extracts/2003/grid_lst_1km_sim_2003-04.fst
2018-02-06 20:20:38:   Combining data for May
2018-02-06 20:21:00:     Saving to /media/qnap/Projects/P055.Ian/1.work/spatial/grid_lst_1km/extracts/2003/grid_lst_1km_sim_2003-05.fst
2018-02-06 20:21:39:   Combining data for June
2018-02-06 20:22:00:     Saving to /media/qnap/Projects/P055.Ian/1.work/spatial/grid_lst_1km/extracts/2003/grid_lst_1km_sim_2003-06.fst
2018-02-06 20:22:37:   Combining data for July
2018-02-06 20:22:58:     Saving to /media/qnap/Projects/P055.Ian/1.work/spatial/grid_lst_1km/extracts/2003/grid_lst_1km_sim_2003-07.fst
2018-02-06 20:23:35:   Combining data for August
2018-02-06 20:23:56:     Saving to /media/qnap/Projects/P055.Ian/1.work/spatial/grid_lst_1km/extracts/2003/grid_lst_1km_sim_2003-08.fst
2018-02-06 20:24:34:   Combining data for September
2018-02-06 20:24:54:     Saving to /media/qnap/Projects/P055.Ian/1.work/spatial/grid_lst_1km/extracts/2003/grid_lst_1km_sim_2003-09.fst
2018-02-06 20:25:30:   Combining data for October
2018-02-06 20:25:51:     Saving to /media/qnap/Projects/P055.Ian/1.work/spatial/grid_lst_1km/extracts/2003/grid_lst_1km_sim_2003-10.fst
2018-02-06 20:26:30:   Combining data for November
2018-02-06 20:26:50:     Saving to /media/qnap/Projects/P055.Ian/1.work/spatial/grid_lst_1km/extracts/2003/grid_lst_1km_sim_2003-11.fst
2018-02-06 20:27:27:   Combining data for December
2018-02-06 20:27:48:     Saving to /media/qnap/Projects/P055.Ian/1.work/spatial/grid_lst_1km/extracts/2003/grid_lst_1km_sim_2003-12.fst
2018-02-06 20:28:27: Processing 2004
2018-02-06 20:28:27:   Extracting data
2018-02-06 20:29:12:   Combining data for January
2018-02-06 20:29:32:     Saving to /media/qnap/Projects/P055.Ian/1.work/spatial/grid_lst_1km/extracts/2004/grid_lst_1km_sim_2004-01.fst
2018-02-06 20:30:13:   Combining data for February
2018-02-06 20:30:32:     Saving to /media/qnap/Projects/P055.Ian/1.work/spatial/grid_lst_1km/extracts/2004/grid_lst_1km_sim_2004-02.fst
2018-02-06 20:31:08:   Combining data for March
2018-02-06 20:31:28:     Saving to /media/qnap/Projects/P055.Ian/1.work/spatial/grid_lst_1km/extracts/2004/grid_lst_1km_sim_2004-03.fst
2018-02-06 20:32:09:   Combining data for April
2018-02-06 20:32:29:     Saving to /media/qnap/Projects/P055.Ian/1.work/spatial/grid_lst_1km/extracts/2004/grid_lst_1km_sim_2004-04.fst
2018-02-06 20:33:07:   Combining data for May
2018-02-06 20:33:26:     Saving to /media/qnap/Projects/P055.Ian/1.work/spatial/grid_lst_1km/extracts/2004/grid_lst_1km_sim_2004-05.fst
2018-02-06 20:34:05:   Combining data for June
2018-02-06 20:34:24:     Saving to /media/qnap/Projects/P055.Ian/1.work/spatial/grid_lst_1km/extracts/2004/grid_lst_1km_sim_2004-06.fst
2018-02-06 20:35:01:   Combining data for July
2018-02-06 20:35:21:     Saving to /media/qnap/Projects/P055.Ian/1.work/spatial/grid_lst_1km/extracts/2004/grid_lst_1km_sim_2004-07.fst
2018-02-06 20:35:59:   Combining data for August
2018-02-06 20:36:19:     Saving to /media/qnap/Projects/P055.Ian/1.work/spatial/grid_lst_1km/extracts/2004/grid_lst_1km_sim_2004-08.fst
2018-02-06 20:36:57:   Combining data for September
2018-02-06 20:37:17:     Saving to /media/qnap/Projects/P055.Ian/1.work/spatial/grid_lst_1km/extracts/2004/grid_lst_1km_sim_2004-09.fst
2018-02-06 20:37:53:   Combining data for October
2018-02-06 20:38:13:     Saving to /media/qnap/Projects/P055.Ian/1.work/spatial/grid_lst_1km/extracts/2004/grid_lst_1km_sim_2004-10.fst
2018-02-06 20:38:52:   Combining data for November
2018-02-06 20:39:11:     Saving to /media/qnap/Projects/P055.Ian/1.work/spatial/grid_lst_1km/extracts/2004/grid_lst_1km_sim_2004-11.fst
2018-02-06 20:39:49:   Combining data for December
2018-02-06 20:40:09:     Saving to /media/qnap/Projects/P055.Ian/1.work/spatial/grid_lst_1km/extracts/2004/grid_lst_1km_sim_2004-12.fst
2018-02-06 20:40:49: Processing 2005
2018-02-06 20:40:49:   Extracting data
2018-02-06 20:41:32:   Combining data for January
2018-02-06 20:41:53:     Saving to /media/qnap/Projects/P055.Ian/1.work/spatial/grid_lst_1km/extracts/2005/grid_lst_1km_sim_2005-01.fst
2018-02-06 20:42:35:   Combining data for February
2018-02-06 20:42:53:     Saving to /media/qnap/Projects/P055.Ian/1.work/spatial/grid_lst_1km/extracts/2005/grid_lst_1km_sim_2005-02.fst
2018-02-06 20:43:29:   Combining data for March
2018-02-06 20:43:50:     Saving to /media/qnap/Projects/P055.Ian/1.work/spatial/grid_lst_1km/extracts/2005/grid_lst_1km_sim_2005-03.fst
2018-02-06 20:44:30:   Combining data for April
2018-02-06 20:44:50:     Saving to /media/qnap/Projects/P055.Ian/1.work/spatial/grid_lst_1km/extracts/2005/grid_lst_1km_sim_2005-04.fst
2018-02-06 20:45:28:   Combining data for May
2018-02-06 20:45:49:     Saving to /media/qnap/Projects/P055.Ian/1.work/spatial/grid_lst_1km/extracts/2005/grid_lst_1km_sim_2005-05.fst
2018-02-06 20:46:27:   Combining data for June
2018-02-06 20:46:48:     Saving to /media/qnap/Projects/P055.Ian/1.work/spatial/grid_lst_1km/extracts/2005/grid_lst_1km_sim_2005-06.fst
2018-02-06 20:47:24:   Combining data for July
2018-02-06 20:47:45:     Saving to /media/qnap/Projects/P055.Ian/1.work/spatial/grid_lst_1km/extracts/2005/grid_lst_1km_sim_2005-07.fst
2018-02-06 20:48:23:   Combining data for August
2018-02-06 20:48:43:     Saving to /media/qnap/Projects/P055.Ian/1.work/spatial/grid_lst_1km/extracts/2005/grid_lst_1km_sim_2005-08.fst
2018-02-06 20:49:21:   Combining data for September
2018-02-06 20:49:41:     Saving to /media/qnap/Projects/P055.Ian/1.work/spatial/grid_lst_1km/extracts/2005/grid_lst_1km_sim_2005-09.fst
2018-02-06 20:50:18:   Combining data for October
2018-02-06 20:50:38:     Saving to /media/qnap/Projects/P055.Ian/1.work/spatial/grid_lst_1km/extracts/2005/grid_lst_1km_sim_2005-10.fst
2018-02-06 20:51:17:   Combining data for November
2018-02-06 20:51:37:     Saving to /media/qnap/Projects/P055.Ian/1.work/spatial/grid_lst_1km/extracts/2005/grid_lst_1km_sim_2005-11.fst
2018-02-06 20:52:14:   Combining data for December
2018-02-06 20:52:34:     Saving to /media/qnap/Projects/P055.Ian/1.work/spatial/grid_lst_1km/extracts/2005/grid_lst_1km_sim_2005-12.fst
2018-02-06 20:53:14: Processing 2006
2018-02-06 20:53:14:   Extracting data
2018-02-06 20:53:59:   Combining data for January
2018-02-06 20:54:19:     Saving to /media/qnap/Projects/P055.Ian/1.work/spatial/grid_lst_1km/extracts/2006/grid_lst_1km_sim_2006-01.fst
2018-02-06 20:54:58:   Combining data for February
2018-02-06 20:55:16:     Saving to /media/qnap/Projects/P055.Ian/1.work/spatial/grid_lst_1km/extracts/2006/grid_lst_1km_sim_2006-02.fst
2018-02-06 20:55:52:   Combining data for March
2018-02-06 20:56:13:     Saving to /media/qnap/Projects/P055.Ian/1.work/spatial/grid_lst_1km/extracts/2006/grid_lst_1km_sim_2006-03.fst
2018-02-06 20:56:53:   Combining data for April
2018-02-06 20:57:12:     Saving to /media/qnap/Projects/P055.Ian/1.work/spatial/grid_lst_1km/extracts/2006/grid_lst_1km_sim_2006-04.fst
2018-02-06 20:57:51:   Combining data for May
2018-02-06 20:58:11:     Saving to /media/qnap/Projects/P055.Ian/1.work/spatial/grid_lst_1km/extracts/2006/grid_lst_1km_sim_2006-05.fst
2018-02-06 20:58:50:   Combining data for June
2018-02-06 20:59:11:     Saving to /media/qnap/Projects/P055.Ian/1.work/spatial/grid_lst_1km/extracts/2006/grid_lst_1km_sim_2006-06.fst
2018-02-06 20:59:48:   Combining data for July
2018-02-06 21:00:08:     Saving to /media/qnap/Projects/P055.Ian/1.work/spatial/grid_lst_1km/extracts/2006/grid_lst_1km_sim_2006-07.fst
2018-02-06 21:00:47:   Combining data for August
2018-02-06 21:01:06:     Saving to /media/qnap/Projects/P055.Ian/1.work/spatial/grid_lst_1km/extracts/2006/grid_lst_1km_sim_2006-08.fst
2018-02-06 21:01:45:   Combining data for September
2018-02-06 21:02:05:     Saving to /media/qnap/Projects/P055.Ian/1.work/spatial/grid_lst_1km/extracts/2006/grid_lst_1km_sim_2006-09.fst
2018-02-06 21:02:42:   Combining data for October
2018-02-06 21:03:02:     Saving to /media/qnap/Projects/P055.Ian/1.work/spatial/grid_lst_1km/extracts/2006/grid_lst_1km_sim_2006-10.fst
2018-02-06 21:03:41:   Combining data for November
2018-02-06 21:04:00:     Saving to /media/qnap/Projects/P055.Ian/1.work/spatial/grid_lst_1km/extracts/2006/grid_lst_1km_sim_2006-11.fst
2018-02-06 21:04:37:   Combining data for December
2018-02-06 21:04:58:     Saving to /media/qnap/Projects/P055.Ian/1.work/spatial/grid_lst_1km/extracts/2006/grid_lst_1km_sim_2006-12.fst
2018-02-06 21:05:36: Processing 2007
2018-02-06 21:05:36:   Extracting data
2018-02-06 21:06:22:   Combining data for January
2018-02-06 21:06:43:     Saving to /media/qnap/Projects/P055.Ian/1.work/spatial/grid_lst_1km/extracts/2007/grid_lst_1km_sim_2007-01.fst
2018-02-06 21:07:23:   Combining data for February
2018-02-06 21:07:41:     Saving to /media/qnap/Projects/P055.Ian/1.work/spatial/grid_lst_1km/extracts/2007/grid_lst_1km_sim_2007-02.fst
2018-02-06 21:08:17:   Combining data for March
2018-02-06 21:08:38:     Saving to /media/qnap/Projects/P055.Ian/1.work/spatial/grid_lst_1km/extracts/2007/grid_lst_1km_sim_2007-03.fst
2018-02-06 21:09:17:   Combining data for April
2018-02-06 21:09:37:     Saving to /media/qnap/Projects/P055.Ian/1.work/spatial/grid_lst_1km/extracts/2007/grid_lst_1km_sim_2007-04.fst
2018-02-06 21:10:14:   Combining data for May
2018-02-06 21:10:35:     Saving to /media/qnap/Projects/P055.Ian/1.work/spatial/grid_lst_1km/extracts/2007/grid_lst_1km_sim_2007-05.fst
2018-02-06 21:11:14:   Combining data for June
2018-02-06 21:11:34:     Saving to /media/qnap/Projects/P055.Ian/1.work/spatial/grid_lst_1km/extracts/2007/grid_lst_1km_sim_2007-06.fst
2018-02-06 21:12:12:   Combining data for July
2018-02-06 21:12:32:     Saving to /media/qnap/Projects/P055.Ian/1.work/spatial/grid_lst_1km/extracts/2007/grid_lst_1km_sim_2007-07.fst
2018-02-06 21:13:12:   Combining data for August
2018-02-06 21:13:33:     Saving to /media/qnap/Projects/P055.Ian/1.work/spatial/grid_lst_1km/extracts/2007/grid_lst_1km_sim_2007-08.fst
2018-02-06 21:14:11:   Combining data for September
2018-02-06 21:14:32:     Saving to /media/qnap/Projects/P055.Ian/1.work/spatial/grid_lst_1km/extracts/2007/grid_lst_1km_sim_2007-09.fst
2018-02-06 21:15:10:   Combining data for October
2018-02-06 21:15:31:     Saving to /media/qnap/Projects/P055.Ian/1.work/spatial/grid_lst_1km/extracts/2007/grid_lst_1km_sim_2007-10.fst
2018-02-06 21:16:11:   Combining data for November
2018-02-06 21:16:31:     Saving to /media/qnap/Projects/P055.Ian/1.work/spatial/grid_lst_1km/extracts/2007/grid_lst_1km_sim_2007-11.fst
2018-02-06 21:17:09:   Combining data for December
2018-02-06 21:17:30:     Saving to /media/qnap/Projects/P055.Ian/1.work/spatial/grid_lst_1km/extracts/2007/grid_lst_1km_sim_2007-12.fst
2018-02-06 21:18:09: Processing 2008
2018-02-06 21:18:09:   Extracting data
2018-02-06 21:18:54:   Combining data for January
2018-02-06 21:19:14:     Saving to /media/qnap/Projects/P055.Ian/1.work/spatial/grid_lst_1km/extracts/2008/grid_lst_1km_sim_2008-01.fst
2018-02-06 21:19:54:   Combining data for February
2018-02-06 21:20:13:     Saving to /media/qnap/Projects/P055.Ian/1.work/spatial/grid_lst_1km/extracts/2008/grid_lst_1km_sim_2008-02.fst
2018-02-06 21:20:49:   Combining data for March
2018-02-06 21:21:09:     Saving to /media/qnap/Projects/P055.Ian/1.work/spatial/grid_lst_1km/extracts/2008/grid_lst_1km_sim_2008-03.fst
2018-02-06 21:21:49:   Combining data for April
2018-02-06 21:22:09:     Saving to /media/qnap/Projects/P055.Ian/1.work/spatial/grid_lst_1km/extracts/2008/grid_lst_1km_sim_2008-04.fst
2018-02-06 21:22:48:   Combining data for May
2018-02-06 21:23:08:     Saving to /media/qnap/Projects/P055.Ian/1.work/spatial/grid_lst_1km/extracts/2008/grid_lst_1km_sim_2008-05.fst
2018-02-06 21:23:48:   Combining data for June
2018-02-06 21:24:07:     Saving to /media/qnap/Projects/P055.Ian/1.work/spatial/grid_lst_1km/extracts/2008/grid_lst_1km_sim_2008-06.fst
2018-02-06 21:24:44:   Combining data for July
2018-02-06 21:25:04:     Saving to /media/qnap/Projects/P055.Ian/1.work/spatial/grid_lst_1km/extracts/2008/grid_lst_1km_sim_2008-07.fst
2018-02-06 21:25:42:   Combining data for August
2018-02-06 21:26:02:     Saving to /media/qnap/Projects/P055.Ian/1.work/spatial/grid_lst_1km/extracts/2008/grid_lst_1km_sim_2008-08.fst
2018-02-06 21:26:41:   Combining data for September
2018-02-06 21:27:01:     Saving to /media/qnap/Projects/P055.Ian/1.work/spatial/grid_lst_1km/extracts/2008/grid_lst_1km_sim_2008-09.fst
2018-02-06 21:27:38:   Combining data for October
2018-02-06 21:27:58:     Saving to /media/qnap/Projects/P055.Ian/1.work/spatial/grid_lst_1km/extracts/2008/grid_lst_1km_sim_2008-10.fst
2018-02-06 21:28:37:   Combining data for November
2018-02-06 21:28:57:     Saving to /media/qnap/Projects/P055.Ian/1.work/spatial/grid_lst_1km/extracts/2008/grid_lst_1km_sim_2008-11.fst
2018-02-06 21:29:35:   Combining data for December
2018-02-06 21:29:55:     Saving to /media/qnap/Projects/P055.Ian/1.work/spatial/grid_lst_1km/extracts/2008/grid_lst_1km_sim_2008-12.fst
2018-02-06 21:30:35: Processing 2009
2018-02-06 21:30:35:   Extracting data
2018-02-06 21:31:28:   Combining data for January
2018-02-06 21:31:49:     Saving to /media/qnap/Projects/P055.Ian/1.work/spatial/grid_lst_1km/extracts/2009/grid_lst_1km_sim_2009-01.fst
2018-02-06 21:32:29:   Combining data for February
2018-02-06 21:32:47:     Saving to /media/qnap/Projects/P055.Ian/1.work/spatial/grid_lst_1km/extracts/2009/grid_lst_1km_sim_2009-02.fst
2018-02-06 21:33:23:   Combining data for March
2018-02-06 21:33:44:     Saving to /media/qnap/Projects/P055.Ian/1.work/spatial/grid_lst_1km/extracts/2009/grid_lst_1km_sim_2009-03.fst
2018-02-06 21:34:23:   Combining data for April
2018-02-06 21:34:44:     Saving to /media/qnap/Projects/P055.Ian/1.work/spatial/grid_lst_1km/extracts/2009/grid_lst_1km_sim_2009-04.fst
2018-02-06 21:35:21:   Combining data for May
2018-02-06 21:35:42:     Saving to /media/qnap/Projects/P055.Ian/1.work/spatial/grid_lst_1km/extracts/2009/grid_lst_1km_sim_2009-05.fst
2018-02-06 21:36:20:   Combining data for June
2018-02-06 21:36:40:     Saving to /media/qnap/Projects/P055.Ian/1.work/spatial/grid_lst_1km/extracts/2009/grid_lst_1km_sim_2009-06.fst
2018-02-06 21:37:18:   Combining data for July
2018-02-06 21:37:39:     Saving to /media/qnap/Projects/P055.Ian/1.work/spatial/grid_lst_1km/extracts/2009/grid_lst_1km_sim_2009-07.fst
2018-02-06 21:38:18:   Combining data for August
2018-02-06 21:38:38:     Saving to /media/qnap/Projects/P055.Ian/1.work/spatial/grid_lst_1km/extracts/2009/grid_lst_1km_sim_2009-08.fst
2018-02-06 21:39:20:   Combining data for September
2018-02-06 21:39:41:     Saving to /media/qnap/Projects/P055.Ian/1.work/spatial/grid_lst_1km/extracts/2009/grid_lst_1km_sim_2009-09.fst
2018-02-06 21:40:18:   Combining data for October
2018-02-06 21:40:39:     Saving to /media/qnap/Projects/P055.Ian/1.work/spatial/grid_lst_1km/extracts/2009/grid_lst_1km_sim_2009-10.fst
2018-02-06 21:41:18:   Combining data for November
2018-02-06 21:41:38:     Saving to /media/qnap/Projects/P055.Ian/1.work/spatial/grid_lst_1km/extracts/2009/grid_lst_1km_sim_2009-11.fst
2018-02-06 21:42:16:   Combining data for December
2018-02-06 21:42:36:     Saving to /media/qnap/Projects/P055.Ian/1.work/spatial/grid_lst_1km/extracts/2009/grid_lst_1km_sim_2009-12.fst
2018-02-06 21:43:18: Processing 2010
2018-02-06 21:43:18:   Extracting data
2018-02-06 21:44:20:   Combining data for January
2018-02-06 21:44:40:     Saving to /media/qnap/Projects/P055.Ian/1.work/spatial/grid_lst_1km/extracts/2010/grid_lst_1km_sim_2010-01.fst
2018-02-06 21:45:23:   Combining data for February
2018-02-06 21:45:41:     Saving to /media/qnap/Projects/P055.Ian/1.work/spatial/grid_lst_1km/extracts/2010/grid_lst_1km_sim_2010-02.fst
2018-02-06 21:46:18:   Combining data for March
2018-02-06 21:46:38:     Saving to /media/qnap/Projects/P055.Ian/1.work/spatial/grid_lst_1km/extracts/2010/grid_lst_1km_sim_2010-03.fst
2018-02-06 21:47:17:   Combining data for April
2018-02-06 21:47:37:     Saving to /media/qnap/Projects/P055.Ian/1.work/spatial/grid_lst_1km/extracts/2010/grid_lst_1km_sim_2010-04.fst
2018-02-06 21:48:14:   Combining data for May
2018-02-06 21:48:34:     Saving to /media/qnap/Projects/P055.Ian/1.work/spatial/grid_lst_1km/extracts/2010/grid_lst_1km_sim_2010-05.fst
2018-02-06 21:49:14:   Combining data for June
2018-02-06 21:49:33:     Saving to /media/qnap/Projects/P055.Ian/1.work/spatial/grid_lst_1km/extracts/2010/grid_lst_1km_sim_2010-06.fst
2018-02-06 21:50:11:   Combining data for July
2018-02-06 21:50:31:     Saving to /media/qnap/Projects/P055.Ian/1.work/spatial/grid_lst_1km/extracts/2010/grid_lst_1km_sim_2010-07.fst
2018-02-06 21:51:09:   Combining data for August
2018-02-06 21:51:29:     Saving to /media/qnap/Projects/P055.Ian/1.work/spatial/grid_lst_1km/extracts/2010/grid_lst_1km_sim_2010-08.fst
2018-02-06 21:52:07:   Combining data for September
2018-02-06 21:52:27:     Saving to /media/qnap/Projects/P055.Ian/1.work/spatial/grid_lst_1km/extracts/2010/grid_lst_1km_sim_2010-09.fst
2018-02-06 21:53:04:   Combining data for October
2018-02-06 21:53:24:     Saving to /media/qnap/Projects/P055.Ian/1.work/spatial/grid_lst_1km/extracts/2010/grid_lst_1km_sim_2010-10.fst
2018-02-06 21:54:03:   Combining data for November
2018-02-06 21:54:22:     Saving to /media/qnap/Projects/P055.Ian/1.work/spatial/grid_lst_1km/extracts/2010/grid_lst_1km_sim_2010-11.fst
2018-02-06 21:55:01:   Combining data for December
2018-02-06 21:55:21:     Saving to /media/qnap/Projects/P055.Ian/1.work/spatial/grid_lst_1km/extracts/2010/grid_lst_1km_sim_2010-12.fst
2018-02-06 21:56:01: Processing 2011
2018-02-06 21:56:02:   Extracting data
2018-02-06 21:58:30:   Combining data for January
2018-02-06 21:58:51:     Saving to /media/qnap/Projects/P055.Ian/1.work/spatial/grid_lst_1km/extracts/2011/grid_lst_1km_sim_2011-01.fst
2018-02-06 21:59:31:   Combining data for February
2018-02-06 21:59:49:     Saving to /media/qnap/Projects/P055.Ian/1.work/spatial/grid_lst_1km/extracts/2011/grid_lst_1km_sim_2011-02.fst
2018-02-06 22:00:25:   Combining data for March
2018-02-06 22:00:46:     Saving to /media/qnap/Projects/P055.Ian/1.work/spatial/grid_lst_1km/extracts/2011/grid_lst_1km_sim_2011-03.fst
2018-02-06 22:01:24:   Combining data for April
2018-02-06 22:01:44:     Saving to /media/qnap/Projects/P055.Ian/1.work/spatial/grid_lst_1km/extracts/2011/grid_lst_1km_sim_2011-04.fst
2018-02-06 22:02:21:   Combining data for May
2018-02-06 22:02:42:     Saving to /media/qnap/Projects/P055.Ian/1.work/spatial/grid_lst_1km/extracts/2011/grid_lst_1km_sim_2011-05.fst
2018-02-06 22:03:20:   Combining data for June
2018-02-06 22:03:41:     Saving to /media/qnap/Projects/P055.Ian/1.work/spatial/grid_lst_1km/extracts/2011/grid_lst_1km_sim_2011-06.fst
2018-02-06 22:04:19:   Combining data for July
2018-02-06 22:04:40:     Saving to /media/qnap/Projects/P055.Ian/1.work/spatial/grid_lst_1km/extracts/2011/grid_lst_1km_sim_2011-07.fst
2018-02-06 22:05:18:   Combining data for August
2018-02-06 22:05:39:     Saving to /media/qnap/Projects/P055.Ian/1.work/spatial/grid_lst_1km/extracts/2011/grid_lst_1km_sim_2011-08.fst
2018-02-06 22:06:17:   Combining data for September
2018-02-06 22:06:37:     Saving to /media/qnap/Projects/P055.Ian/1.work/spatial/grid_lst_1km/extracts/2011/grid_lst_1km_sim_2011-09.fst
2018-02-06 22:07:14:   Combining data for October
2018-02-06 22:07:35:     Saving to /media/qnap/Projects/P055.Ian/1.work/spatial/grid_lst_1km/extracts/2011/grid_lst_1km_sim_2011-10.fst
2018-02-06 22:08:15:   Combining data for November
2018-02-06 22:08:35:     Saving to /media/qnap/Projects/P055.Ian/1.work/spatial/grid_lst_1km/extracts/2011/grid_lst_1km_sim_2011-11.fst
2018-02-06 22:09:12:   Combining data for December
2018-02-06 22:09:32:     Saving to /media/qnap/Projects/P055.Ian/1.work/spatial/grid_lst_1km/extracts/2011/grid_lst_1km_sim_2011-12.fst
2018-02-06 22:10:15: Processing 2012
2018-02-06 22:10:15:   Extracting data
2018-02-06 22:12:20:   Combining data for January
2018-02-06 22:12:41:     Saving to /media/qnap/Projects/P055.Ian/1.work/spatial/grid_lst_1km/extracts/2012/grid_lst_1km_sim_2012-01.fst
2018-02-06 22:13:20:   Combining data for February
2018-02-06 22:13:39:     Saving to /media/qnap/Projects/P055.Ian/1.work/spatial/grid_lst_1km/extracts/2012/grid_lst_1km_sim_2012-02.fst
2018-02-06 22:14:15:   Combining data for March
2018-02-06 22:14:35:     Saving to /media/qnap/Projects/P055.Ian/1.work/spatial/grid_lst_1km/extracts/2012/grid_lst_1km_sim_2012-03.fst
2018-02-06 22:15:14:   Combining data for April
2018-02-06 22:15:34:     Saving to /media/qnap/Projects/P055.Ian/1.work/spatial/grid_lst_1km/extracts/2012/grid_lst_1km_sim_2012-04.fst
2018-02-06 22:16:12:   Combining data for May
2018-02-06 22:16:32:     Saving to /media/qnap/Projects/P055.Ian/1.work/spatial/grid_lst_1km/extracts/2012/grid_lst_1km_sim_2012-05.fst
2018-02-06 22:17:10:   Combining data for June
2018-02-06 22:17:30:     Saving to /media/qnap/Projects/P055.Ian/1.work/spatial/grid_lst_1km/extracts/2012/grid_lst_1km_sim_2012-06.fst
2018-02-06 22:18:08:   Combining data for July
2018-02-06 22:18:28:     Saving to /media/qnap/Projects/P055.Ian/1.work/spatial/grid_lst_1km/extracts/2012/grid_lst_1km_sim_2012-07.fst
2018-02-06 22:19:06:   Combining data for August
2018-02-06 22:19:26:     Saving to /media/qnap/Projects/P055.Ian/1.work/spatial/grid_lst_1km/extracts/2012/grid_lst_1km_sim_2012-08.fst
2018-02-06 22:20:04:   Combining data for September
2018-02-06 22:20:23:     Saving to /media/qnap/Projects/P055.Ian/1.work/spatial/grid_lst_1km/extracts/2012/grid_lst_1km_sim_2012-09.fst
2018-02-06 22:21:01:   Combining data for October
2018-02-06 22:21:21:     Saving to /media/qnap/Projects/P055.Ian/1.work/spatial/grid_lst_1km/extracts/2012/grid_lst_1km_sim_2012-10.fst
2018-02-06 22:21:59:   Combining data for November
2018-02-06 22:22:19:     Saving to /media/qnap/Projects/P055.Ian/1.work/spatial/grid_lst_1km/extracts/2012/grid_lst_1km_sim_2012-11.fst
2018-02-06 22:22:57:   Combining data for December
2018-02-06 22:23:17:     Saving to /media/qnap/Projects/P055.Ian/1.work/spatial/grid_lst_1km/extracts/2012/grid_lst_1km_sim_2012-12.fst
2018-02-06 22:23:57: Processing 2013
2018-02-06 22:23:57:   Extracting data
2018-02-06 22:26:31:   Combining data for January
2018-02-06 22:26:52:     Saving to /media/qnap/Projects/P055.Ian/1.work/spatial/grid_lst_1km/extracts/2013/grid_lst_1km_sim_2013-01.fst
2018-02-06 22:27:32:   Combining data for February
2018-02-06 22:27:50:     Saving to /media/qnap/Projects/P055.Ian/1.work/spatial/grid_lst_1km/extracts/2013/grid_lst_1km_sim_2013-02.fst
2018-02-06 22:28:27:   Combining data for March
2018-02-06 22:28:47:     Saving to /media/qnap/Projects/P055.Ian/1.work/spatial/grid_lst_1km/extracts/2013/grid_lst_1km_sim_2013-03.fst
2018-02-06 22:29:26:   Combining data for April
2018-02-06 22:29:47:     Saving to /media/qnap/Projects/P055.Ian/1.work/spatial/grid_lst_1km/extracts/2013/grid_lst_1km_sim_2013-04.fst
2018-02-06 22:30:24:   Combining data for May
2018-02-06 22:30:45:     Saving to /media/qnap/Projects/P055.Ian/1.work/spatial/grid_lst_1km/extracts/2013/grid_lst_1km_sim_2013-05.fst
2018-02-06 22:31:24:   Combining data for June
2018-02-06 22:31:44:     Saving to /media/qnap/Projects/P055.Ian/1.work/spatial/grid_lst_1km/extracts/2013/grid_lst_1km_sim_2013-06.fst
2018-02-06 22:32:21:   Combining data for July
2018-02-06 22:32:42:     Saving to /media/qnap/Projects/P055.Ian/1.work/spatial/grid_lst_1km/extracts/2013/grid_lst_1km_sim_2013-07.fst
2018-02-06 22:33:20:   Combining data for August
2018-02-06 22:33:40:     Saving to /media/qnap/Projects/P055.Ian/1.work/spatial/grid_lst_1km/extracts/2013/grid_lst_1km_sim_2013-08.fst
2018-02-06 22:34:18:   Combining data for September
2018-02-06 22:34:38:     Saving to /media/qnap/Projects/P055.Ian/1.work/spatial/grid_lst_1km/extracts/2013/grid_lst_1km_sim_2013-09.fst
2018-02-06 22:35:15:   Combining data for October
2018-02-06 22:35:36:     Saving to /media/qnap/Projects/P055.Ian/1.work/spatial/grid_lst_1km/extracts/2013/grid_lst_1km_sim_2013-10.fst
2018-02-06 22:36:14:   Combining data for November
2018-02-06 22:36:35:     Saving to /media/qnap/Projects/P055.Ian/1.work/spatial/grid_lst_1km/extracts/2013/grid_lst_1km_sim_2013-11.fst
2018-02-06 22:37:13:   Combining data for December
2018-02-06 22:37:33:     Saving to /media/qnap/Projects/P055.Ian/1.work/spatial/grid_lst_1km/extracts/2013/grid_lst_1km_sim_2013-12.fst
2018-02-06 22:38:16: Processing 2014
2018-02-06 22:38:16:   Extracting data
2018-02-06 22:39:18:   Combining data for January
2018-02-06 22:39:38:     Saving to /media/qnap/Projects/P055.Ian/1.work/spatial/grid_lst_1km/extracts/2014/grid_lst_1km_sim_2014-01.fst
2018-02-06 22:40:20:   Combining data for February
2018-02-06 22:40:37:     Saving to /media/qnap/Projects/P055.Ian/1.work/spatial/grid_lst_1km/extracts/2014/grid_lst_1km_sim_2014-02.fst
2018-02-06 22:41:14:   Combining data for March
2018-02-06 22:41:34:     Saving to /media/qnap/Projects/P055.Ian/1.work/spatial/grid_lst_1km/extracts/2014/grid_lst_1km_sim_2014-03.fst
2018-02-06 22:42:13:   Combining data for April
2018-02-06 22:42:32:     Saving to /media/qnap/Projects/P055.Ian/1.work/spatial/grid_lst_1km/extracts/2014/grid_lst_1km_sim_2014-04.fst
2018-02-06 22:43:10:   Combining data for May
2018-02-06 22:43:30:     Saving to /media/qnap/Projects/P055.Ian/1.work/spatial/grid_lst_1km/extracts/2014/grid_lst_1km_sim_2014-05.fst
2018-02-06 22:44:09:   Combining data for June
2018-02-06 22:44:29:     Saving to /media/qnap/Projects/P055.Ian/1.work/spatial/grid_lst_1km/extracts/2014/grid_lst_1km_sim_2014-06.fst
2018-02-06 22:45:06:   Combining data for July
2018-02-06 22:45:26:     Saving to /media/qnap/Projects/P055.Ian/1.work/spatial/grid_lst_1km/extracts/2014/grid_lst_1km_sim_2014-07.fst
2018-02-06 22:46:05:   Combining data for August
2018-02-06 22:46:25:     Saving to /media/qnap/Projects/P055.Ian/1.work/spatial/grid_lst_1km/extracts/2014/grid_lst_1km_sim_2014-08.fst
2018-02-06 22:47:04:   Combining data for September
2018-02-06 22:47:24:     Saving to /media/qnap/Projects/P055.Ian/1.work/spatial/grid_lst_1km/extracts/2014/grid_lst_1km_sim_2014-09.fst
2018-02-06 22:48:00:   Combining data for October
2018-02-06 22:48:21:     Saving to /media/qnap/Projects/P055.Ian/1.work/spatial/grid_lst_1km/extracts/2014/grid_lst_1km_sim_2014-10.fst
2018-02-06 22:48:59:   Combining data for November
2018-02-06 22:49:19:     Saving to /media/qnap/Projects/P055.Ian/1.work/spatial/grid_lst_1km/extracts/2014/grid_lst_1km_sim_2014-11.fst
2018-02-06 22:49:57:   Combining data for December
2018-02-06 22:50:17:     Saving to /media/qnap/Projects/P055.Ian/1.work/spatial/grid_lst_1km/extracts/2014/grid_lst_1km_sim_2014-12.fst
2018-02-06 22:51:02: Processing 2015
2018-02-06 22:51:02:   Extracting data
2018-02-06 22:53:46:   Combining data for January
2018-02-06 22:54:07:     Saving to /media/qnap/Projects/P055.Ian/1.work/spatial/grid_lst_1km/extracts/2015/grid_lst_1km_sim_2015-01.fst
2018-02-06 22:54:47:   Combining data for February
2018-02-06 22:55:05:     Saving to /media/qnap/Projects/P055.Ian/1.work/spatial/grid_lst_1km/extracts/2015/grid_lst_1km_sim_2015-02.fst
2018-02-06 22:55:42:   Combining data for March
2018-02-06 22:56:03:     Saving to /media/qnap/Projects/P055.Ian/1.work/spatial/grid_lst_1km/extracts/2015/grid_lst_1km_sim_2015-03.fst
2018-02-06 22:56:42:   Combining data for April
2018-02-06 22:57:02:     Saving to /media/qnap/Projects/P055.Ian/1.work/spatial/grid_lst_1km/extracts/2015/grid_lst_1km_sim_2015-04.fst
2018-02-06 22:57:39:   Combining data for May
2018-02-06 22:58:00:     Saving to /media/qnap/Projects/P055.Ian/1.work/spatial/grid_lst_1km/extracts/2015/grid_lst_1km_sim_2015-05.fst
2018-02-06 22:58:38:   Combining data for June
2018-02-06 22:58:58:     Saving to /media/qnap/Projects/P055.Ian/1.work/spatial/grid_lst_1km/extracts/2015/grid_lst_1km_sim_2015-06.fst
2018-02-06 22:59:35:   Combining data for July
2018-02-06 22:59:56:     Saving to /media/qnap/Projects/P055.Ian/1.work/spatial/grid_lst_1km/extracts/2015/grid_lst_1km_sim_2015-07.fst
2018-02-06 23:00:34:   Combining data for August
2018-02-06 23:00:54:     Saving to /media/qnap/Projects/P055.Ian/1.work/spatial/grid_lst_1km/extracts/2015/grid_lst_1km_sim_2015-08.fst
2018-02-06 23:01:33:   Combining data for September
2018-02-06 23:01:53:     Saving to /media/qnap/Projects/P055.Ian/1.work/spatial/grid_lst_1km/extracts/2015/grid_lst_1km_sim_2015-09.fst
2018-02-06 23:02:30:   Combining data for October
2018-02-06 23:02:50:     Saving to /media/qnap/Projects/P055.Ian/1.work/spatial/grid_lst_1km/extracts/2015/grid_lst_1km_sim_2015-10.fst
2018-02-06 23:03:30:   Combining data for November
2018-02-06 23:03:50:     Saving to /media/qnap/Projects/P055.Ian/1.work/spatial/grid_lst_1km/extracts/2015/grid_lst_1km_sim_2015-11.fst
2018-02-06 23:04:28:   Combining data for December
2018-02-06 23:04:49:     Saving to /media/qnap/Projects/P055.Ian/1.work/spatial/grid_lst_1km/extracts/2015/grid_lst_1km_sim_2015-12.fst
2018-02-06 23:05:27: Processing 2016
2018-02-06 23:05:27:   Extracting data
2018-02-06 23:08:13:   Combining data for January
2018-02-06 23:08:33:     Saving to /media/qnap/Projects/P055.Ian/1.work/spatial/grid_lst_1km/extracts/2016/grid_lst_1km_sim_2016-01.fst
2018-02-06 23:09:14:   Combining data for February
2018-02-06 23:09:33:     Saving to /media/qnap/Projects/P055.Ian/1.work/spatial/grid_lst_1km/extracts/2016/grid_lst_1km_sim_2016-02.fst
2018-02-06 23:10:10:   Combining data for March
2018-02-06 23:10:30:     Saving to /media/qnap/Projects/P055.Ian/1.work/spatial/grid_lst_1km/extracts/2016/grid_lst_1km_sim_2016-03.fst
2018-02-06 23:11:11:   Combining data for April
2018-02-06 23:11:31:     Saving to /media/qnap/Projects/P055.Ian/1.work/spatial/grid_lst_1km/extracts/2016/grid_lst_1km_sim_2016-04.fst
2018-02-06 23:12:08:   Combining data for May
2018-02-06 23:12:28:     Saving to /media/qnap/Projects/P055.Ian/1.work/spatial/grid_lst_1km/extracts/2016/grid_lst_1km_sim_2016-05.fst
2018-02-06 23:13:10:   Combining data for June
2018-02-06 23:13:30:     Saving to /media/qnap/Projects/P055.Ian/1.work/spatial/grid_lst_1km/extracts/2016/grid_lst_1km_sim_2016-06.fst
2018-02-06 23:14:07:   Combining data for July
2018-02-06 23:14:27:     Saving to /media/qnap/Projects/P055.Ian/1.work/spatial/grid_lst_1km/extracts/2016/grid_lst_1km_sim_2016-07.fst
2018-02-06 23:15:08:   Combining data for August
2018-02-06 23:15:28:     Saving to /media/qnap/Projects/P055.Ian/1.work/spatial/grid_lst_1km/extracts/2016/grid_lst_1km_sim_2016-08.fst
2018-02-06 23:16:07:   Combining data for September
2018-02-06 23:16:26:     Saving to /media/qnap/Projects/P055.Ian/1.work/spatial/grid_lst_1km/extracts/2016/grid_lst_1km_sim_2016-09.fst
2018-02-06 23:17:06:   Combining data for October
2018-02-06 23:17:26:     Saving to /media/qnap/Projects/P055.Ian/1.work/spatial/grid_lst_1km/extracts/2016/grid_lst_1km_sim_2016-10.fst
2018-02-06 23:18:04:   Combining data for November
2018-02-06 23:18:24:     Saving to /media/qnap/Projects/P055.Ian/1.work/spatial/grid_lst_1km/extracts/2016/grid_lst_1km_sim_2016-11.fst
2018-02-06 23:19:06:   Combining data for December
2018-02-06 23:19:26:     Saving to /media/qnap/Projects/P055.Ian/1.work/spatial/grid_lst_1km/extracts/2016/grid_lst_1km_sim_2016-12.fst
2018-02-06 23:20:05: Done
2018-02-06 23:20:08:
2018-02-06 23:20:08: Extracting MODIS NDVI data
2018-02-06 23:20:08: ---
2018-02-06 23:20:08: Loading 1 km reference grid
2018-02-06 23:20:15: Loading QA code table
2018-02-06 23:20:24:   Extracting 2000 data to /media/qnap/Projects/P055.Ian/1.work/spatial/grid_lst_1km/extracts/2000
2018-02-06 23:21:05:   Extracting 2001 data to /media/qnap/Projects/P055.Ian/1.work/spatial/grid_lst_1km/extracts/2001
2018-02-06 23:21:40:   Extracting 2002 data to /media/qnap/Projects/P055.Ian/1.work/spatial/grid_lst_1km/extracts/2002
2018-02-06 23:22:44:   Extracting 2003 data to /media/qnap/Projects/P055.Ian/1.work/spatial/grid_lst_1km/extracts/2003
2018-02-06 23:23:49:   Extracting 2004 data to /media/qnap/Projects/P055.Ian/1.work/spatial/grid_lst_1km/extracts/2004
2018-02-06 23:25:06:   Extracting 2005 data to /media/qnap/Projects/P055.Ian/1.work/spatial/grid_lst_1km/extracts/2005
2018-02-06 23:26:08:   Extracting 2006 data to /media/qnap/Projects/P055.Ian/1.work/spatial/grid_lst_1km/extracts/2006
2018-02-06 23:27:29:   Extracting 2007 data to /media/qnap/Projects/P055.Ian/1.work/spatial/grid_lst_1km/extracts/2007
2018-02-06 23:28:45:   Extracting 2008 data to /media/qnap/Projects/P055.Ian/1.work/spatial/grid_lst_1km/extracts/2008
2018-02-06 23:29:51:   Extracting 2009 data to /media/qnap/Projects/P055.Ian/1.work/spatial/grid_lst_1km/extracts/2009
2018-02-06 23:31:09:   Extracting 2010 data to /media/qnap/Projects/P055.Ian/1.work/spatial/grid_lst_1km/extracts/2010
2018-02-06 23:32:23:   Extracting 2011 data to /media/qnap/Projects/P055.Ian/1.work/spatial/grid_lst_1km/extracts/2011
2018-02-06 23:33:31:   Extracting 2012 data to /media/qnap/Projects/P055.Ian/1.work/spatial/grid_lst_1km/extracts/2012
2018-02-06 23:34:47:   Extracting 2013 data to /media/qnap/Projects/P055.Ian/1.work/spatial/grid_lst_1km/extracts/2013
2018-02-06 23:35:52:   Extracting 2014 data to /media/qnap/Projects/P055.Ian/1.work/spatial/grid_lst_1km/extracts/2014
2018-02-06 23:37:07:   Extracting 2015 data to /media/qnap/Projects/P055.Ian/1.work/spatial/grid_lst_1km/extracts/2015
2018-02-06 23:38:20:   Extracting 2016 data to /media/qnap/Projects/P055.Ian/1.work/spatial/grid_lst_1km/extracts/2016
2018-02-06 23:39:25: Done
