2018-02-06 21:26:58: Extracting MODIS land surface temperature data
2018-02-06 21:26:58: ---
2018-02-06 21:26:58: Loading 1 km reference grid
2018-02-06 21:27:04: 2000-01
2018-02-06 21:27:04:   Skipping aqua LST (no data)
2018-02-06 21:27:04:   Skipping terra LST (no data)
2018-02-06 21:27:04: 2000-02
2018-02-06 21:27:04:   Skipping aqua LST (no data)
2018-02-06 21:27:04:   Extracting terra LST
2018-02-06 21:27:37:     Saving to /media/qnap/Projects/P055.Ian/1.work/spatial/grid_lst_1km/extracts/2000/grid_lst_1km_terra_lst_2000-02.rds
2018-02-06 21:28:21: 2000-03
2018-02-06 21:28:22:   Skipping aqua LST (no data)
2018-02-06 21:28:22:   Extracting terra LST
2018-02-06 21:29:17:     Saving to /media/qnap/Projects/P055.Ian/1.work/spatial/grid_lst_1km/extracts/2000/grid_lst_1km_terra_lst_2000-03.rds
2018-02-06 21:30:18: 2000-04
2018-02-06 21:30:18:   Skipping aqua LST (no data)
2018-02-06 21:30:18:   Extracting terra LST
2018-02-06 21:31:09:     Saving to /media/qnap/Projects/P055.Ian/1.work/spatial/grid_lst_1km/extracts/2000/grid_lst_1km_terra_lst_2000-04.rds
2018-02-06 21:32:02: 2000-05
2018-02-06 21:32:02:   Skipping aqua LST (no data)
2018-02-06 21:32:02:   Extracting terra LST
2018-02-06 21:33:00:     Saving to /media/qnap/Projects/P055.Ian/1.work/spatial/grid_lst_1km/extracts/2000/grid_lst_1km_terra_lst_2000-05.rds
2018-02-06 21:33:56: 2000-06
2018-02-06 21:33:56:   Skipping aqua LST (no data)
2018-02-06 21:33:57:   Extracting terra LST
2018-02-06 21:34:52:     Saving to /media/qnap/Projects/P055.Ian/1.work/spatial/grid_lst_1km/extracts/2000/grid_lst_1km_terra_lst_2000-06.rds
2018-02-06 21:35:52: 2000-07
2018-02-06 21:35:52:   Skipping aqua LST (no data)
2018-02-06 21:35:52:   Extracting terra LST
2018-02-06 21:36:52:     Saving to /media/qnap/Projects/P055.Ian/1.work/spatial/grid_lst_1km/extracts/2000/grid_lst_1km_terra_lst_2000-07.rds
2018-02-06 21:38:16: 2000-08
2018-02-06 21:38:16:   Skipping aqua LST (no data)
2018-02-06 21:38:17:   Extracting terra LST
2018-02-06 21:38:57:     Saving to /media/qnap/Projects/P055.Ian/1.work/spatial/grid_lst_1km/extracts/2000/grid_lst_1km_terra_lst_2000-08.rds
2018-02-06 21:40:16: 2000-09
2018-02-06 21:40:16:   Skipping aqua LST (no data)
2018-02-06 21:40:16:   Extracting terra LST
2018-02-06 21:41:11:     Saving to /media/qnap/Projects/P055.Ian/1.work/spatial/grid_lst_1km/extracts/2000/grid_lst_1km_terra_lst_2000-09.rds
2018-02-06 21:42:26: 2000-10
2018-02-06 21:42:26:   Skipping aqua LST (no data)
2018-02-06 21:42:26:   Extracting terra LST
2018-02-06 21:43:23:     Saving to /media/qnap/Projects/P055.Ian/1.work/spatial/grid_lst_1km/extracts/2000/grid_lst_1km_terra_lst_2000-10.rds
2018-02-06 21:44:22: 2000-11
2018-02-06 21:44:22:   Skipping aqua LST (no data)
2018-02-06 21:44:22:   Extracting terra LST
2018-02-06 21:45:14:     Saving to /media/qnap/Projects/P055.Ian/1.work/spatial/grid_lst_1km/extracts/2000/grid_lst_1km_terra_lst_2000-11.rds
2018-02-06 21:46:05: 2000-12
2018-02-06 21:46:05:   Skipping aqua LST (no data)
2018-02-06 21:46:05:   Extracting terra LST
2018-02-06 21:46:58:     Saving to /media/qnap/Projects/P055.Ian/1.work/spatial/grid_lst_1km/extracts/2000/grid_lst_1km_terra_lst_2000-12.rds
2018-02-06 21:47:52: 2001-01
2018-02-06 21:47:52:   Skipping aqua LST (no data)
2018-02-06 21:47:52:   Extracting terra LST
2018-02-06 21:48:47:     Saving to /media/qnap/Projects/P055.Ian/1.work/spatial/grid_lst_1km/extracts/2001/grid_lst_1km_terra_lst_2001-01.rds
2018-02-06 21:49:56: 2001-02
2018-02-06 21:49:56:   Skipping aqua LST (no data)
2018-02-06 21:49:56:   Extracting terra LST
2018-02-06 21:50:45:     Saving to /media/qnap/Projects/P055.Ian/1.work/spatial/grid_lst_1km/extracts/2001/grid_lst_1km_terra_lst_2001-02.rds
2018-02-06 21:51:35: 2001-03
2018-02-06 21:51:35:   Skipping aqua LST (no data)
2018-02-06 21:51:36:   Extracting terra LST
2018-02-06 21:52:29:     Saving to /media/qnap/Projects/P055.Ian/1.work/spatial/grid_lst_1km/extracts/2001/grid_lst_1km_terra_lst_2001-03.rds
2018-02-06 21:53:21: 2001-04
2018-02-06 21:53:21:   Skipping aqua LST (no data)
2018-02-06 21:53:22:   Extracting terra LST
2018-02-06 21:54:13:     Saving to /media/qnap/Projects/P055.Ian/1.work/spatial/grid_lst_1km/extracts/2001/grid_lst_1km_terra_lst_2001-04.rds
2018-02-06 21:55:19: 2001-05
2018-02-06 21:55:19:   Skipping aqua LST (no data)
2018-02-06 21:55:19:   Extracting terra LST
2018-02-06 21:56:16:     Saving to /media/qnap/Projects/P055.Ian/1.work/spatial/grid_lst_1km/extracts/2001/grid_lst_1km_terra_lst_2001-05.rds
2018-02-06 21:57:30: 2001-06
2018-02-06 21:57:30:   Skipping aqua LST (no data)
2018-02-06 21:57:30:   Extracting terra LST
2018-02-06 21:58:07:     Saving to /media/qnap/Projects/P055.Ian/1.work/spatial/grid_lst_1km/extracts/2001/grid_lst_1km_terra_lst_2001-06.rds
2018-02-06 21:59:22: 2001-07
2018-02-06 21:59:22:   Skipping aqua LST (no data)
2018-02-06 21:59:22:   Extracting terra LST
2018-02-06 22:00:15:     Saving to /media/qnap/Projects/P055.Ian/1.work/spatial/grid_lst_1km/extracts/2001/grid_lst_1km_terra_lst_2001-07.rds
2018-02-06 22:01:34: 2001-08
2018-02-06 22:01:34:   Skipping aqua LST (no data)
2018-02-06 22:01:35:   Extracting terra LST
2018-02-06 22:02:31:     Saving to /media/qnap/Projects/P055.Ian/1.work/spatial/grid_lst_1km/extracts/2001/grid_lst_1km_terra_lst_2001-08.rds
2018-02-06 22:03:35: 2001-09
2018-02-06 22:03:35:   Skipping aqua LST (no data)
2018-02-06 22:03:35:   Extracting terra LST
2018-02-06 22:04:29:     Saving to /media/qnap/Projects/P055.Ian/1.work/spatial/grid_lst_1km/extracts/2001/grid_lst_1km_terra_lst_2001-09.rds
2018-02-06 22:05:25: 2001-10
2018-02-06 22:05:25:   Skipping aqua LST (no data)
2018-02-06 22:05:25:   Extracting terra LST
2018-02-06 22:06:22:     Saving to /media/qnap/Projects/P055.Ian/1.work/spatial/grid_lst_1km/extracts/2001/grid_lst_1km_terra_lst_2001-10.rds
2018-02-06 22:07:26: 2001-11
2018-02-06 22:07:26:   Skipping aqua LST (no data)
2018-02-06 22:07:26:   Extracting terra LST
2018-02-06 22:08:21:     Saving to /media/qnap/Projects/P055.Ian/1.work/spatial/grid_lst_1km/extracts/2001/grid_lst_1km_terra_lst_2001-11.rds
2018-02-06 22:09:15: 2001-12
2018-02-06 22:09:15:   Skipping aqua LST (no data)
2018-02-06 22:09:15:   Extracting terra LST
2018-02-06 22:10:13:     Saving to /media/qnap/Projects/P055.Ian/1.work/spatial/grid_lst_1km/extracts/2001/grid_lst_1km_terra_lst_2001-12.rds
2018-02-06 22:11:14: 2002-01
2018-02-06 22:11:14:   Skipping aqua LST (no data)
2018-02-06 22:11:14:   Extracting terra LST
2018-02-06 22:12:12:     Saving to /media/qnap/Projects/P055.Ian/1.work/spatial/grid_lst_1km/extracts/2002/grid_lst_1km_terra_lst_2002-01.rds
2018-02-06 22:13:10: 2002-02
2018-02-06 22:13:10:   Skipping aqua LST (no data)
2018-02-06 22:13:10:   Extracting terra LST
2018-02-06 22:14:02:     Saving to /media/qnap/Projects/P055.Ian/1.work/spatial/grid_lst_1km/extracts/2002/grid_lst_1km_terra_lst_2002-02.rds
2018-02-06 22:14:54: 2002-03
2018-02-06 22:14:54:   Skipping aqua LST (no data)
2018-02-06 22:14:54:   Extracting terra LST
2018-02-06 22:15:41:     Saving to /media/qnap/Projects/P055.Ian/1.work/spatial/grid_lst_1km/extracts/2002/grid_lst_1km_terra_lst_2002-03.rds
2018-02-06 22:16:36: 2002-04
2018-02-06 22:16:36:   Skipping aqua LST (no data)
2018-02-06 22:16:36:   Extracting terra LST
2018-02-06 22:17:28:     Saving to /media/qnap/Projects/P055.Ian/1.work/spatial/grid_lst_1km/extracts/2002/grid_lst_1km_terra_lst_2002-04.rds
2018-02-06 22:18:27: 2002-05
2018-02-06 22:18:27:   Skipping aqua LST (no data)
2018-02-06 22:18:27:   Extracting terra LST
2018-02-06 22:19:23:     Saving to /media/qnap/Projects/P055.Ian/1.work/spatial/grid_lst_1km/extracts/2002/grid_lst_1km_terra_lst_2002-05.rds
2018-02-06 22:20:22: 2002-06
2018-02-06 22:20:22:   Skipping aqua LST (no data)
2018-02-06 22:20:23:   Extracting terra LST
2018-02-06 22:21:19:     Saving to /media/qnap/Projects/P055.Ian/1.work/spatial/grid_lst_1km/extracts/2002/grid_lst_1km_terra_lst_2002-06.rds
2018-02-06 22:22:17: 2002-07
2018-02-06 22:22:18:   Extracting aqua LST
2018-02-06 22:23:08:     Saving to /media/qnap/Projects/P055.Ian/1.work/spatial/grid_lst_1km/extracts/2002/grid_lst_1km_aqua_lst_2002-07.rds
2018-02-06 22:24:08:   Extracting terra LST
2018-02-06 22:25:03:     Saving to /media/qnap/Projects/P055.Ian/1.work/spatial/grid_lst_1km/extracts/2002/grid_lst_1km_terra_lst_2002-07.rds
2018-02-06 22:26:04: 2002-08
2018-02-06 22:26:04:   Extracting aqua LST
2018-02-06 22:26:51:     Saving to /media/qnap/Projects/P055.Ian/1.work/spatial/grid_lst_1km/extracts/2002/grid_lst_1km_aqua_lst_2002-08.rds
2018-02-06 22:27:50:   Extracting terra LST
2018-02-06 22:28:47:     Saving to /media/qnap/Projects/P055.Ian/1.work/spatial/grid_lst_1km/extracts/2002/grid_lst_1km_terra_lst_2002-08.rds
2018-02-06 22:29:45: 2002-09
2018-02-06 22:29:46:   Extracting aqua LST
2018-02-06 22:30:41:     Saving to /media/qnap/Projects/P055.Ian/1.work/spatial/grid_lst_1km/extracts/2002/grid_lst_1km_aqua_lst_2002-09.rds
2018-02-06 22:31:41:   Extracting terra LST
2018-02-06 22:32:37:     Saving to /media/qnap/Projects/P055.Ian/1.work/spatial/grid_lst_1km/extracts/2002/grid_lst_1km_terra_lst_2002-09.rds
2018-02-06 22:33:38: 2002-10
2018-02-06 22:33:38:   Extracting aqua LST
2018-02-06 22:34:35:     Saving to /media/qnap/Projects/P055.Ian/1.work/spatial/grid_lst_1km/extracts/2002/grid_lst_1km_aqua_lst_2002-10.rds
2018-02-06 22:35:31:   Extracting terra LST
2018-02-06 22:36:27:     Saving to /media/qnap/Projects/P055.Ian/1.work/spatial/grid_lst_1km/extracts/2002/grid_lst_1km_terra_lst_2002-10.rds
2018-02-06 22:37:23: 2002-11
2018-02-06 22:37:24:   Extracting aqua LST
2018-02-06 22:38:17:     Saving to /media/qnap/Projects/P055.Ian/1.work/spatial/grid_lst_1km/extracts/2002/grid_lst_1km_aqua_lst_2002-11.rds
2018-02-06 22:39:11:   Extracting terra LST
2018-02-06 22:40:06:     Saving to /media/qnap/Projects/P055.Ian/1.work/spatial/grid_lst_1km/extracts/2002/grid_lst_1km_terra_lst_2002-11.rds
2018-02-06 22:41:01: 2002-12
2018-02-06 22:41:01:   Extracting aqua LST
2018-02-06 22:41:56:     Saving to /media/qnap/Projects/P055.Ian/1.work/spatial/grid_lst_1km/extracts/2002/grid_lst_1km_aqua_lst_2002-12.rds
2018-02-06 22:42:48:   Extracting terra LST
2018-02-06 22:43:43:     Saving to /media/qnap/Projects/P055.Ian/1.work/spatial/grid_lst_1km/extracts/2002/grid_lst_1km_terra_lst_2002-12.rds
2018-02-06 22:44:35: 2003-01
2018-02-06 22:44:35:   Extracting aqua LST
2018-02-06 22:45:31:     Saving to /media/qnap/Projects/P055.Ian/1.work/spatial/grid_lst_1km/extracts/2003/grid_lst_1km_aqua_lst_2003-01.rds
2018-02-06 22:46:30:   Extracting terra LST
2018-02-06 22:47:24:     Saving to /media/qnap/Projects/P055.Ian/1.work/spatial/grid_lst_1km/extracts/2003/grid_lst_1km_terra_lst_2003-01.rds
2018-02-06 22:48:22: 2003-02
2018-02-06 22:48:22:   Extracting aqua LST
2018-02-06 22:49:14:     Saving to /media/qnap/Projects/P055.Ian/1.work/spatial/grid_lst_1km/extracts/2003/grid_lst_1km_aqua_lst_2003-02.rds
2018-02-06 22:50:08:   Extracting terra LST
2018-02-06 22:50:59:     Saving to /media/qnap/Projects/P055.Ian/1.work/spatial/grid_lst_1km/extracts/2003/grid_lst_1km_terra_lst_2003-02.rds
2018-02-06 22:51:52: 2003-03
2018-02-06 22:51:52:   Extracting aqua LST
2018-02-06 22:52:49:     Saving to /media/qnap/Projects/P055.Ian/1.work/spatial/grid_lst_1km/extracts/2003/grid_lst_1km_aqua_lst_2003-03.rds
2018-02-06 22:54:26:   Extracting terra LST
2018-02-06 22:55:20:     Saving to /media/qnap/Projects/P055.Ian/1.work/spatial/grid_lst_1km/extracts/2003/grid_lst_1km_terra_lst_2003-03.rds
2018-02-06 22:56:27: 2003-04
2018-02-06 22:56:27:   Extracting aqua LST
2018-02-06 22:57:21:     Saving to /media/qnap/Projects/P055.Ian/1.work/spatial/grid_lst_1km/extracts/2003/grid_lst_1km_aqua_lst_2003-04.rds
2018-02-06 22:58:19:   Extracting terra LST
2018-02-06 22:59:12:     Saving to /media/qnap/Projects/P055.Ian/1.work/spatial/grid_lst_1km/extracts/2003/grid_lst_1km_terra_lst_2003-04.rds
2018-02-06 23:00:10: 2003-05
2018-02-06 23:00:10:   Extracting aqua LST
2018-02-06 23:01:05:     Saving to /media/qnap/Projects/P055.Ian/1.work/spatial/grid_lst_1km/extracts/2003/grid_lst_1km_aqua_lst_2003-05.rds
2018-02-06 23:02:03:   Extracting terra LST
2018-02-06 23:02:54:     Saving to /media/qnap/Projects/P055.Ian/1.work/spatial/grid_lst_1km/extracts/2003/grid_lst_1km_terra_lst_2003-05.rds
2018-02-06 23:03:53: 2003-06
2018-02-06 23:03:53:   Extracting aqua LST
2018-02-06 23:04:46:     Saving to /media/qnap/Projects/P055.Ian/1.work/spatial/grid_lst_1km/extracts/2003/grid_lst_1km_aqua_lst_2003-06.rds
2018-02-06 23:05:46:   Extracting terra LST
2018-02-06 23:06:42:     Saving to /media/qnap/Projects/P055.Ian/1.work/spatial/grid_lst_1km/extracts/2003/grid_lst_1km_terra_lst_2003-06.rds
2018-02-06 23:07:46: 2003-07
2018-02-06 23:07:46:   Extracting aqua LST
2018-02-06 23:08:46:     Saving to /media/qnap/Projects/P055.Ian/1.work/spatial/grid_lst_1km/extracts/2003/grid_lst_1km_aqua_lst_2003-07.rds
2018-02-06 23:09:51:   Extracting terra LST
2018-02-06 23:10:44:     Saving to /media/qnap/Projects/P055.Ian/1.work/spatial/grid_lst_1km/extracts/2003/grid_lst_1km_terra_lst_2003-07.rds
2018-02-06 23:11:48: 2003-08
2018-02-06 23:11:49:   Extracting aqua LST
2018-02-06 23:12:46:     Saving to /media/qnap/Projects/P055.Ian/1.work/spatial/grid_lst_1km/extracts/2003/grid_lst_1km_aqua_lst_2003-08.rds
2018-02-06 23:13:53:   Extracting terra LST
2018-02-06 23:14:51:     Saving to /media/qnap/Projects/P055.Ian/1.work/spatial/grid_lst_1km/extracts/2003/grid_lst_1km_terra_lst_2003-08.rds
2018-02-06 23:15:58: 2003-09
2018-02-06 23:15:58:   Extracting aqua LST
2018-02-06 23:16:51:     Saving to /media/qnap/Projects/P055.Ian/1.work/spatial/grid_lst_1km/extracts/2003/grid_lst_1km_aqua_lst_2003-09.rds
2018-02-06 23:17:56:   Extracting terra LST
2018-02-06 23:18:51:     Saving to /media/qnap/Projects/P055.Ian/1.work/spatial/grid_lst_1km/extracts/2003/grid_lst_1km_terra_lst_2003-09.rds
2018-02-06 23:19:54: 2003-10
2018-02-06 23:19:54:   Extracting aqua LST
2018-02-06 23:20:51:     Saving to /media/qnap/Projects/P055.Ian/1.work/spatial/grid_lst_1km/extracts/2003/grid_lst_1km_aqua_lst_2003-10.rds
2018-02-06 23:21:48:   Extracting terra LST
2018-02-06 23:22:46:     Saving to /media/qnap/Projects/P055.Ian/1.work/spatial/grid_lst_1km/extracts/2003/grid_lst_1km_terra_lst_2003-10.rds
2018-02-06 23:23:46: 2003-11
2018-02-06 23:23:46:   Extracting aqua LST
2018-02-06 23:24:44:     Saving to /media/qnap/Projects/P055.Ian/1.work/spatial/grid_lst_1km/extracts/2003/grid_lst_1km_aqua_lst_2003-11.rds
2018-02-06 23:25:40:   Extracting terra LST
2018-02-06 23:26:44:     Saving to /media/qnap/Projects/P055.Ian/1.work/spatial/grid_lst_1km/extracts/2003/grid_lst_1km_terra_lst_2003-11.rds
2018-02-06 23:27:40: 2003-12
2018-02-06 23:27:40:   Extracting aqua LST
2018-02-06 23:28:42:     Saving to /media/qnap/Projects/P055.Ian/1.work/spatial/grid_lst_1km/extracts/2003/grid_lst_1km_aqua_lst_2003-12.rds
2018-02-06 23:29:42:   Extracting terra LST
2018-02-06 23:30:34:     Saving to /media/qnap/Projects/P055.Ian/1.work/spatial/grid_lst_1km/extracts/2003/grid_lst_1km_terra_lst_2003-12.rds
2018-02-06 23:31:30: 2004-01
2018-02-06 23:31:31:   Extracting aqua LST
2018-02-06 23:32:37:     Saving to /media/qnap/Projects/P055.Ian/1.work/spatial/grid_lst_1km/extracts/2004/grid_lst_1km_aqua_lst_2004-01.rds
2018-02-06 23:33:29:   Extracting terra LST
2018-02-06 23:34:30:     Saving to /media/qnap/Projects/P055.Ian/1.work/spatial/grid_lst_1km/extracts/2004/grid_lst_1km_terra_lst_2004-01.rds
2018-02-06 23:35:21: 2004-02
2018-02-06 23:35:22:   Extracting aqua LST
2018-02-06 23:36:26:     Saving to /media/qnap/Projects/P055.Ian/1.work/spatial/grid_lst_1km/extracts/2004/grid_lst_1km_aqua_lst_2004-02.rds
2018-02-06 23:37:20:   Extracting terra LST
2018-02-06 23:38:20:     Saving to /media/qnap/Projects/P055.Ian/1.work/spatial/grid_lst_1km/extracts/2004/grid_lst_1km_terra_lst_2004-02.rds
2018-02-06 23:39:15: 2004-03
2018-02-06 23:39:15:   Extracting aqua LST
2018-02-06 23:40:18:     Saving to /media/qnap/Projects/P055.Ian/1.work/spatial/grid_lst_1km/extracts/2004/grid_lst_1km_aqua_lst_2004-03.rds
2018-02-06 23:41:17:   Extracting terra LST
2018-02-06 23:42:09:     Saving to /media/qnap/Projects/P055.Ian/1.work/spatial/grid_lst_1km/extracts/2004/grid_lst_1km_terra_lst_2004-03.rds
2018-02-06 23:43:08: 2004-04
2018-02-06 23:43:09:   Extracting aqua LST
2018-02-06 23:44:04:     Saving to /media/qnap/Projects/P055.Ian/1.work/spatial/grid_lst_1km/extracts/2004/grid_lst_1km_aqua_lst_2004-04.rds
2018-02-06 23:44:59:   Extracting terra LST
2018-02-06 23:45:55:     Saving to /media/qnap/Projects/P055.Ian/1.work/spatial/grid_lst_1km/extracts/2004/grid_lst_1km_terra_lst_2004-04.rds
2018-02-06 23:46:51: 2004-05
2018-02-06 23:46:51:   Extracting aqua LST
2018-02-06 23:47:49:     Saving to /media/qnap/Projects/P055.Ian/1.work/spatial/grid_lst_1km/extracts/2004/grid_lst_1km_aqua_lst_2004-05.rds
2018-02-06 23:48:52:   Extracting terra LST
2018-02-06 23:49:48:     Saving to /media/qnap/Projects/P055.Ian/1.work/spatial/grid_lst_1km/extracts/2004/grid_lst_1km_terra_lst_2004-05.rds
2018-02-06 23:50:50: 2004-06
2018-02-06 23:50:50:   Extracting aqua LST
2018-02-06 23:51:43:     Saving to /media/qnap/Projects/P055.Ian/1.work/spatial/grid_lst_1km/extracts/2004/grid_lst_1km_aqua_lst_2004-06.rds
2018-02-06 23:52:43:   Extracting terra LST
2018-02-06 23:53:35:     Saving to /media/qnap/Projects/P055.Ian/1.work/spatial/grid_lst_1km/extracts/2004/grid_lst_1km_terra_lst_2004-06.rds
2018-02-06 23:54:35: 2004-07
2018-02-06 23:54:35:   Extracting aqua LST
2018-02-06 23:55:31:     Saving to /media/qnap/Projects/P055.Ian/1.work/spatial/grid_lst_1km/extracts/2004/grid_lst_1km_aqua_lst_2004-07.rds
2018-02-06 23:56:32:   Extracting terra LST
2018-02-06 23:57:28:     Saving to /media/qnap/Projects/P055.Ian/1.work/spatial/grid_lst_1km/extracts/2004/grid_lst_1km_terra_lst_2004-07.rds
2018-02-06 23:58:31: 2004-08
2018-02-06 23:58:31:   Extracting aqua LST
2018-02-06 23:59:24:     Saving to /media/qnap/Projects/P055.Ian/1.work/spatial/grid_lst_1km/extracts/2004/grid_lst_1km_aqua_lst_2004-08.rds
2018-02-07 00:00:22:   Extracting terra LST
2018-02-07 00:01:16:     Saving to /media/qnap/Projects/P055.Ian/1.work/spatial/grid_lst_1km/extracts/2004/grid_lst_1km_terra_lst_2004-08.rds
2018-02-07 00:02:16: 2004-09
2018-02-07 00:02:16:   Extracting aqua LST
2018-02-07 00:03:10:     Saving to /media/qnap/Projects/P055.Ian/1.work/spatial/grid_lst_1km/extracts/2004/grid_lst_1km_aqua_lst_2004-09.rds
2018-02-07 00:04:15:   Extracting terra LST
2018-02-07 00:05:12:     Saving to /media/qnap/Projects/P055.Ian/1.work/spatial/grid_lst_1km/extracts/2004/grid_lst_1km_terra_lst_2004-09.rds
2018-02-07 00:06:11: 2004-10
2018-02-07 00:06:11:   Extracting aqua LST
2018-02-07 00:07:05:     Saving to /media/qnap/Projects/P055.Ian/1.work/spatial/grid_lst_1km/extracts/2004/grid_lst_1km_aqua_lst_2004-10.rds
2018-02-07 00:08:02:   Extracting terra LST
2018-02-07 00:08:55:     Saving to /media/qnap/Projects/P055.Ian/1.work/spatial/grid_lst_1km/extracts/2004/grid_lst_1km_terra_lst_2004-10.rds
2018-02-07 00:09:53: 2004-11
2018-02-07 00:09:53:   Extracting aqua LST
2018-02-07 00:10:47:     Saving to /media/qnap/Projects/P055.Ian/1.work/spatial/grid_lst_1km/extracts/2004/grid_lst_1km_aqua_lst_2004-11.rds
2018-02-07 00:11:40:   Extracting terra LST
2018-02-07 00:12:33:     Saving to /media/qnap/Projects/P055.Ian/1.work/spatial/grid_lst_1km/extracts/2004/grid_lst_1km_terra_lst_2004-11.rds
2018-02-07 00:13:30: 2004-12
2018-02-07 00:13:30:   Extracting aqua LST
2018-02-07 00:14:24:     Saving to /media/qnap/Projects/P055.Ian/1.work/spatial/grid_lst_1km/extracts/2004/grid_lst_1km_aqua_lst_2004-12.rds
2018-02-07 00:15:20:   Extracting terra LST
2018-02-07 00:16:12:     Saving to /media/qnap/Projects/P055.Ian/1.work/spatial/grid_lst_1km/extracts/2004/grid_lst_1km_terra_lst_2004-12.rds
2018-02-07 00:17:08: 2005-01
2018-02-07 00:17:08:   Extracting aqua LST
2018-02-07 00:18:03:     Saving to /media/qnap/Projects/P055.Ian/1.work/spatial/grid_lst_1km/extracts/2005/grid_lst_1km_aqua_lst_2005-01.rds
2018-02-07 00:19:03:   Extracting terra LST
2018-02-07 00:20:00:     Saving to /media/qnap/Projects/P055.Ian/1.work/spatial/grid_lst_1km/extracts/2005/grid_lst_1km_terra_lst_2005-01.rds
2018-02-07 00:20:59: 2005-02
2018-02-07 00:21:00:   Extracting aqua LST
2018-02-07 00:21:49:     Saving to /media/qnap/Projects/P055.Ian/1.work/spatial/grid_lst_1km/extracts/2005/grid_lst_1km_aqua_lst_2005-02.rds
2018-02-07 00:22:41:   Extracting terra LST
2018-02-07 00:23:30:     Saving to /media/qnap/Projects/P055.Ian/1.work/spatial/grid_lst_1km/extracts/2005/grid_lst_1km_terra_lst_2005-02.rds
2018-02-07 00:24:22: 2005-03
2018-02-07 00:24:22:   Extracting aqua LST
2018-02-07 00:25:14:     Saving to /media/qnap/Projects/P055.Ian/1.work/spatial/grid_lst_1km/extracts/2005/grid_lst_1km_aqua_lst_2005-03.rds
2018-02-07 00:26:15:   Extracting terra LST
2018-02-07 00:27:09:     Saving to /media/qnap/Projects/P055.Ian/1.work/spatial/grid_lst_1km/extracts/2005/grid_lst_1km_terra_lst_2005-03.rds
2018-02-07 00:28:10: 2005-04
2018-02-07 00:28:10:   Extracting aqua LST
2018-02-07 00:29:01:     Saving to /media/qnap/Projects/P055.Ian/1.work/spatial/grid_lst_1km/extracts/2005/grid_lst_1km_aqua_lst_2005-04.rds
2018-02-07 00:29:56:   Extracting terra LST
2018-02-07 00:30:49:     Saving to /media/qnap/Projects/P055.Ian/1.work/spatial/grid_lst_1km/extracts/2005/grid_lst_1km_terra_lst_2005-04.rds
2018-02-07 00:31:42: 2005-05
2018-02-07 00:31:43:   Extracting aqua LST
2018-02-07 00:32:37:     Saving to /media/qnap/Projects/P055.Ian/1.work/spatial/grid_lst_1km/extracts/2005/grid_lst_1km_aqua_lst_2005-05.rds
2018-02-07 00:33:38:   Extracting terra LST
2018-02-07 00:34:34:     Saving to /media/qnap/Projects/P055.Ian/1.work/spatial/grid_lst_1km/extracts/2005/grid_lst_1km_terra_lst_2005-05.rds
2018-02-07 00:35:33: 2005-06
2018-02-07 00:35:33:   Extracting aqua LST
2018-02-07 00:36:29:     Saving to /media/qnap/Projects/P055.Ian/1.work/spatial/grid_lst_1km/extracts/2005/grid_lst_1km_aqua_lst_2005-06.rds
2018-02-07 00:37:30:   Extracting terra LST
2018-02-07 00:38:24:     Saving to /media/qnap/Projects/P055.Ian/1.work/spatial/grid_lst_1km/extracts/2005/grid_lst_1km_terra_lst_2005-06.rds
2018-02-07 00:39:23: 2005-07
2018-02-07 00:39:24:   Extracting aqua LST
2018-02-07 00:40:18:     Saving to /media/qnap/Projects/P055.Ian/1.work/spatial/grid_lst_1km/extracts/2005/grid_lst_1km_aqua_lst_2005-07.rds
2018-02-07 00:41:21:   Extracting terra LST
2018-02-07 00:42:15:     Saving to /media/qnap/Projects/P055.Ian/1.work/spatial/grid_lst_1km/extracts/2005/grid_lst_1km_terra_lst_2005-07.rds
2018-02-07 00:43:16: 2005-08
2018-02-07 00:43:16:   Extracting aqua LST
2018-02-07 00:44:12:     Saving to /media/qnap/Projects/P055.Ian/1.work/spatial/grid_lst_1km/extracts/2005/grid_lst_1km_aqua_lst_2005-08.rds
2018-02-07 00:45:16:   Extracting terra LST
2018-02-07 00:46:12:     Saving to /media/qnap/Projects/P055.Ian/1.work/spatial/grid_lst_1km/extracts/2005/grid_lst_1km_terra_lst_2005-08.rds
2018-02-07 00:47:18: 2005-09
2018-02-07 00:47:18:   Extracting aqua LST
2018-02-07 00:48:12:     Saving to /media/qnap/Projects/P055.Ian/1.work/spatial/grid_lst_1km/extracts/2005/grid_lst_1km_aqua_lst_2005-09.rds
2018-02-07 00:49:15:   Extracting terra LST
2018-02-07 00:50:12:     Saving to /media/qnap/Projects/P055.Ian/1.work/spatial/grid_lst_1km/extracts/2005/grid_lst_1km_terra_lst_2005-09.rds
2018-02-07 00:51:13: 2005-10
2018-02-07 00:51:13:   Extracting aqua LST
2018-02-07 00:52:10:     Saving to /media/qnap/Projects/P055.Ian/1.work/spatial/grid_lst_1km/extracts/2005/grid_lst_1km_aqua_lst_2005-10.rds
2018-02-07 00:53:11:   Extracting terra LST
2018-02-07 00:54:07:     Saving to /media/qnap/Projects/P055.Ian/1.work/spatial/grid_lst_1km/extracts/2005/grid_lst_1km_terra_lst_2005-10.rds
2018-02-07 00:55:05: 2005-11
2018-02-07 00:55:05:   Extracting aqua LST
2018-02-07 00:55:56:     Saving to /media/qnap/Projects/P055.Ian/1.work/spatial/grid_lst_1km/extracts/2005/grid_lst_1km_aqua_lst_2005-11.rds
2018-02-07 00:56:55:   Extracting terra LST
2018-02-07 00:57:47:     Saving to /media/qnap/Projects/P055.Ian/1.work/spatial/grid_lst_1km/extracts/2005/grid_lst_1km_terra_lst_2005-11.rds
2018-02-07 00:58:44: 2005-12
2018-02-07 00:58:44:   Extracting aqua LST
2018-02-07 00:59:38:     Saving to /media/qnap/Projects/P055.Ian/1.work/spatial/grid_lst_1km/extracts/2005/grid_lst_1km_aqua_lst_2005-12.rds
2018-02-07 01:00:38:   Extracting terra LST
2018-02-07 01:01:32:     Saving to /media/qnap/Projects/P055.Ian/1.work/spatial/grid_lst_1km/extracts/2005/grid_lst_1km_terra_lst_2005-12.rds
2018-02-07 01:02:31: 2006-01
2018-02-07 01:02:31:   Extracting aqua LST
2018-02-07 01:03:24:     Saving to /media/qnap/Projects/P055.Ian/1.work/spatial/grid_lst_1km/extracts/2006/grid_lst_1km_aqua_lst_2006-01.rds
2018-02-07 01:04:20:   Extracting terra LST
2018-02-07 01:05:12:     Saving to /media/qnap/Projects/P055.Ian/1.work/spatial/grid_lst_1km/extracts/2006/grid_lst_1km_terra_lst_2006-01.rds
2018-02-07 01:06:11: 2006-02
2018-02-07 01:06:11:   Extracting aqua LST
2018-02-07 01:07:01:     Saving to /media/qnap/Projects/P055.Ian/1.work/spatial/grid_lst_1km/extracts/2006/grid_lst_1km_aqua_lst_2006-02.rds
2018-02-07 01:07:51:   Extracting terra LST
2018-02-07 01:08:40:     Saving to /media/qnap/Projects/P055.Ian/1.work/spatial/grid_lst_1km/extracts/2006/grid_lst_1km_terra_lst_2006-02.rds
2018-02-07 01:09:30: 2006-03
2018-02-07 01:09:30:   Extracting aqua LST
2018-02-07 01:10:25:     Saving to /media/qnap/Projects/P055.Ian/1.work/spatial/grid_lst_1km/extracts/2006/grid_lst_1km_aqua_lst_2006-03.rds
2018-02-07 01:11:23:   Extracting terra LST
2018-02-07 01:12:16:     Saving to /media/qnap/Projects/P055.Ian/1.work/spatial/grid_lst_1km/extracts/2006/grid_lst_1km_terra_lst_2006-03.rds
2018-02-07 01:13:14: 2006-04
2018-02-07 01:13:14:   Extracting aqua LST
2018-02-07 01:14:07:     Saving to /media/qnap/Projects/P055.Ian/1.work/spatial/grid_lst_1km/extracts/2006/grid_lst_1km_aqua_lst_2006-04.rds
2018-02-07 01:15:05:   Extracting terra LST
2018-02-07 01:15:58:     Saving to /media/qnap/Projects/P055.Ian/1.work/spatial/grid_lst_1km/extracts/2006/grid_lst_1km_terra_lst_2006-04.rds
2018-02-07 01:16:55: 2006-05
2018-02-07 01:16:55:   Extracting aqua LST
2018-02-07 01:17:49:     Saving to /media/qnap/Projects/P055.Ian/1.work/spatial/grid_lst_1km/extracts/2006/grid_lst_1km_aqua_lst_2006-05.rds
2018-02-07 01:18:43:   Extracting terra LST
2018-02-07 01:19:33:     Saving to /media/qnap/Projects/P055.Ian/1.work/spatial/grid_lst_1km/extracts/2006/grid_lst_1km_terra_lst_2006-05.rds
2018-02-07 01:20:55: 2006-06
2018-02-07 01:20:55:   Extracting aqua LST
2018-02-07 01:21:48:     Saving to /media/qnap/Projects/P055.Ian/1.work/spatial/grid_lst_1km/extracts/2006/grid_lst_1km_aqua_lst_2006-06.rds
2018-02-07 01:22:53:   Extracting terra LST
2018-02-07 01:23:47:     Saving to /media/qnap/Projects/P055.Ian/1.work/spatial/grid_lst_1km/extracts/2006/grid_lst_1km_terra_lst_2006-06.rds
2018-02-07 01:24:49: 2006-07
2018-02-07 01:24:49:   Extracting aqua LST
2018-02-07 01:25:47:     Saving to /media/qnap/Projects/P055.Ian/1.work/spatial/grid_lst_1km/extracts/2006/grid_lst_1km_aqua_lst_2006-07.rds
2018-02-07 01:26:56:   Extracting terra LST
2018-02-07 01:27:55:     Saving to /media/qnap/Projects/P055.Ian/1.work/spatial/grid_lst_1km/extracts/2006/grid_lst_1km_terra_lst_2006-07.rds
2018-02-07 01:29:01: 2006-08
2018-02-07 01:29:01:   Extracting aqua LST
2018-02-07 01:29:56:     Saving to /media/qnap/Projects/P055.Ian/1.work/spatial/grid_lst_1km/extracts/2006/grid_lst_1km_aqua_lst_2006-08.rds
2018-02-07 01:30:55:   Extracting terra LST
2018-02-07 01:31:49:     Saving to /media/qnap/Projects/P055.Ian/1.work/spatial/grid_lst_1km/extracts/2006/grid_lst_1km_terra_lst_2006-08.rds
2018-02-07 01:32:47: 2006-09
2018-02-07 01:32:47:   Extracting aqua LST
2018-02-07 01:33:42:     Saving to /media/qnap/Projects/P055.Ian/1.work/spatial/grid_lst_1km/extracts/2006/grid_lst_1km_aqua_lst_2006-09.rds
2018-02-07 01:34:43:   Extracting terra LST
2018-02-07 01:35:37:     Saving to /media/qnap/Projects/P055.Ian/1.work/spatial/grid_lst_1km/extracts/2006/grid_lst_1km_terra_lst_2006-09.rds
2018-02-07 01:36:35: 2006-10
2018-02-07 01:36:35:   Extracting aqua LST
2018-02-07 01:37:29:     Saving to /media/qnap/Projects/P055.Ian/1.work/spatial/grid_lst_1km/extracts/2006/grid_lst_1km_aqua_lst_2006-10.rds
2018-02-07 01:38:27:   Extracting terra LST
2018-02-07 01:39:22:     Saving to /media/qnap/Projects/P055.Ian/1.work/spatial/grid_lst_1km/extracts/2006/grid_lst_1km_terra_lst_2006-10.rds
2018-02-07 01:40:20: 2006-11
2018-02-07 01:40:20:   Extracting aqua LST
2018-02-07 01:41:12:     Saving to /media/qnap/Projects/P055.Ian/1.work/spatial/grid_lst_1km/extracts/2006/grid_lst_1km_aqua_lst_2006-11.rds
2018-02-07 01:42:08:   Extracting terra LST
2018-02-07 01:42:58:     Saving to /media/qnap/Projects/P055.Ian/1.work/spatial/grid_lst_1km/extracts/2006/grid_lst_1km_terra_lst_2006-11.rds
2018-02-07 01:43:55: 2006-12
2018-02-07 01:43:55:   Extracting aqua LST
2018-02-07 01:44:49:     Saving to /media/qnap/Projects/P055.Ian/1.work/spatial/grid_lst_1km/extracts/2006/grid_lst_1km_aqua_lst_2006-12.rds
2018-02-07 01:45:49:   Extracting terra LST
2018-02-07 01:46:43:     Saving to /media/qnap/Projects/P055.Ian/1.work/spatial/grid_lst_1km/extracts/2006/grid_lst_1km_terra_lst_2006-12.rds
2018-02-07 01:47:45: 2007-01
2018-02-07 01:47:45:   Extracting aqua LST
2018-02-07 01:48:38:     Saving to /media/qnap/Projects/P055.Ian/1.work/spatial/grid_lst_1km/extracts/2007/grid_lst_1km_aqua_lst_2007-01.rds
2018-02-07 01:49:55:   Extracting terra LST
2018-02-07 01:50:46:     Saving to /media/qnap/Projects/P055.Ian/1.work/spatial/grid_lst_1km/extracts/2007/grid_lst_1km_terra_lst_2007-01.rds
2018-02-07 01:52:04: 2007-02
2018-02-07 01:52:04:   Extracting aqua LST
2018-02-07 01:52:52:     Saving to /media/qnap/Projects/P055.Ian/1.work/spatial/grid_lst_1km/extracts/2007/grid_lst_1km_aqua_lst_2007-02.rds
2018-02-07 01:53:44:   Extracting terra LST
2018-02-07 01:54:33:     Saving to /media/qnap/Projects/P055.Ian/1.work/spatial/grid_lst_1km/extracts/2007/grid_lst_1km_terra_lst_2007-02.rds
2018-02-07 01:55:25: 2007-03
2018-02-07 01:55:26:   Extracting aqua LST
2018-02-07 01:56:21:     Saving to /media/qnap/Projects/P055.Ian/1.work/spatial/grid_lst_1km/extracts/2007/grid_lst_1km_aqua_lst_2007-03.rds
2018-02-07 01:57:21:   Extracting terra LST
2018-02-07 01:58:14:     Saving to /media/qnap/Projects/P055.Ian/1.work/spatial/grid_lst_1km/extracts/2007/grid_lst_1km_terra_lst_2007-03.rds
2018-02-07 01:59:12: 2007-04
2018-02-07 01:59:12:   Extracting aqua LST
2018-02-07 02:00:07:     Saving to /media/qnap/Projects/P055.Ian/1.work/spatial/grid_lst_1km/extracts/2007/grid_lst_1km_aqua_lst_2007-04.rds
2018-02-07 02:01:14:   Extracting terra LST
2018-02-07 02:02:08:     Saving to /media/qnap/Projects/P055.Ian/1.work/spatial/grid_lst_1km/extracts/2007/grid_lst_1km_terra_lst_2007-04.rds
2018-02-07 02:03:13: 2007-05
2018-02-07 02:03:14:   Extracting aqua LST
2018-02-07 02:04:05:     Saving to /media/qnap/Projects/P055.Ian/1.work/spatial/grid_lst_1km/extracts/2007/grid_lst_1km_aqua_lst_2007-05.rds
2018-02-07 02:05:01:   Extracting terra LST
2018-02-07 02:05:54:     Saving to /media/qnap/Projects/P055.Ian/1.work/spatial/grid_lst_1km/extracts/2007/grid_lst_1km_terra_lst_2007-05.rds
2018-02-07 02:06:49: 2007-06
2018-02-07 02:06:49:   Extracting aqua LST
2018-02-07 02:07:41:     Saving to /media/qnap/Projects/P055.Ian/1.work/spatial/grid_lst_1km/extracts/2007/grid_lst_1km_aqua_lst_2007-06.rds
2018-02-07 02:08:38:   Extracting terra LST
2018-02-07 02:09:30:     Saving to /media/qnap/Projects/P055.Ian/1.work/spatial/grid_lst_1km/extracts/2007/grid_lst_1km_terra_lst_2007-06.rds
2018-02-07 02:10:26: 2007-07
2018-02-07 02:10:26:   Extracting aqua LST
2018-02-07 02:11:20:     Saving to /media/qnap/Projects/P055.Ian/1.work/spatial/grid_lst_1km/extracts/2007/grid_lst_1km_aqua_lst_2007-07.rds
2018-02-07 02:12:20:   Extracting terra LST
2018-02-07 02:13:17:     Saving to /media/qnap/Projects/P055.Ian/1.work/spatial/grid_lst_1km/extracts/2007/grid_lst_1km_terra_lst_2007-07.rds
2018-02-07 02:14:17: 2007-08
2018-02-07 02:14:17:   Extracting aqua LST
2018-02-07 02:15:13:     Saving to /media/qnap/Projects/P055.Ian/1.work/spatial/grid_lst_1km/extracts/2007/grid_lst_1km_aqua_lst_2007-08.rds
2018-02-07 02:16:14:   Extracting terra LST
2018-02-07 02:17:06:     Saving to /media/qnap/Projects/P055.Ian/1.work/spatial/grid_lst_1km/extracts/2007/grid_lst_1km_terra_lst_2007-08.rds
2018-02-07 02:18:09: 2007-09
2018-02-07 02:18:09:   Extracting aqua LST
2018-02-07 02:19:04:     Saving to /media/qnap/Projects/P055.Ian/1.work/spatial/grid_lst_1km/extracts/2007/grid_lst_1km_aqua_lst_2007-09.rds
2018-02-07 02:20:04:   Extracting terra LST
2018-02-07 02:20:58:     Saving to /media/qnap/Projects/P055.Ian/1.work/spatial/grid_lst_1km/extracts/2007/grid_lst_1km_terra_lst_2007-09.rds
2018-02-07 02:22:02: 2007-10
2018-02-07 02:22:03:   Extracting aqua LST
2018-02-07 02:22:57:     Saving to /media/qnap/Projects/P055.Ian/1.work/spatial/grid_lst_1km/extracts/2007/grid_lst_1km_aqua_lst_2007-10.rds
2018-02-07 02:23:58:   Extracting terra LST
2018-02-07 02:24:51:     Saving to /media/qnap/Projects/P055.Ian/1.work/spatial/grid_lst_1km/extracts/2007/grid_lst_1km_terra_lst_2007-10.rds
2018-02-07 02:25:56: 2007-11
2018-02-07 02:25:56:   Extracting aqua LST
2018-02-07 02:26:53:     Saving to /media/qnap/Projects/P055.Ian/1.work/spatial/grid_lst_1km/extracts/2007/grid_lst_1km_aqua_lst_2007-11.rds
2018-02-07 02:27:49:   Extracting terra LST
2018-02-07 02:28:43:     Saving to /media/qnap/Projects/P055.Ian/1.work/spatial/grid_lst_1km/extracts/2007/grid_lst_1km_terra_lst_2007-11.rds
2018-02-07 02:29:40: 2007-12
2018-02-07 02:29:40:   Extracting aqua LST
2018-02-07 02:30:40:     Saving to /media/qnap/Projects/P055.Ian/1.work/spatial/grid_lst_1km/extracts/2007/grid_lst_1km_aqua_lst_2007-12.rds
2018-02-07 02:31:42:   Extracting terra LST
2018-02-07 02:32:38:     Saving to /media/qnap/Projects/P055.Ian/1.work/spatial/grid_lst_1km/extracts/2007/grid_lst_1km_terra_lst_2007-12.rds
2018-02-07 02:33:37: 2008-01
2018-02-07 02:33:37:   Extracting aqua LST
2018-02-07 02:34:31:     Saving to /media/qnap/Projects/P055.Ian/1.work/spatial/grid_lst_1km/extracts/2008/grid_lst_1km_aqua_lst_2008-01.rds
2018-02-07 02:35:26:   Extracting terra LST
2018-02-07 02:36:19:     Saving to /media/qnap/Projects/P055.Ian/1.work/spatial/grid_lst_1km/extracts/2008/grid_lst_1km_terra_lst_2008-01.rds
2018-02-07 02:37:17: 2008-02
2018-02-07 02:37:17:   Extracting aqua LST
2018-02-07 02:38:12:     Saving to /media/qnap/Projects/P055.Ian/1.work/spatial/grid_lst_1km/extracts/2008/grid_lst_1km_aqua_lst_2008-02.rds
2018-02-07 02:39:11:   Extracting terra LST
2018-02-07 02:40:03:     Saving to /media/qnap/Projects/P055.Ian/1.work/spatial/grid_lst_1km/extracts/2008/grid_lst_1km_terra_lst_2008-02.rds
2018-02-07 02:41:01: 2008-03
2018-02-07 02:41:01:   Extracting aqua LST
2018-02-07 02:41:56:     Saving to /media/qnap/Projects/P055.Ian/1.work/spatial/grid_lst_1km/extracts/2008/grid_lst_1km_aqua_lst_2008-03.rds
2018-02-07 02:43:19:   Extracting terra LST
2018-02-07 02:44:11:     Saving to /media/qnap/Projects/P055.Ian/1.work/spatial/grid_lst_1km/extracts/2008/grid_lst_1km_terra_lst_2008-03.rds
2018-02-07 02:45:09: 2008-04
2018-02-07 02:45:09:   Extracting aqua LST
2018-02-07 02:46:02:     Saving to /media/qnap/Projects/P055.Ian/1.work/spatial/grid_lst_1km/extracts/2008/grid_lst_1km_aqua_lst_2008-04.rds
2018-02-07 02:46:58:   Extracting terra LST
2018-02-07 02:47:51:     Saving to /media/qnap/Projects/P055.Ian/1.work/spatial/grid_lst_1km/extracts/2008/grid_lst_1km_terra_lst_2008-04.rds
2018-02-07 02:48:45: 2008-05
2018-02-07 02:48:45:   Extracting aqua LST
2018-02-07 02:49:40:     Saving to /media/qnap/Projects/P055.Ian/1.work/spatial/grid_lst_1km/extracts/2008/grid_lst_1km_aqua_lst_2008-05.rds
2018-02-07 02:50:39:   Extracting terra LST
2018-02-07 02:51:33:     Saving to /media/qnap/Projects/P055.Ian/1.work/spatial/grid_lst_1km/extracts/2008/grid_lst_1km_terra_lst_2008-05.rds
2018-02-07 02:52:29: 2008-06
2018-02-07 02:52:29:   Extracting aqua LST
2018-02-07 02:53:23:     Saving to /media/qnap/Projects/P055.Ian/1.work/spatial/grid_lst_1km/extracts/2008/grid_lst_1km_aqua_lst_2008-06.rds
2018-02-07 02:54:21:   Extracting terra LST
2018-02-07 02:55:14:     Saving to /media/qnap/Projects/P055.Ian/1.work/spatial/grid_lst_1km/extracts/2008/grid_lst_1km_terra_lst_2008-06.rds
2018-02-07 02:56:17: 2008-07
2018-02-07 02:56:17:   Extracting aqua LST
2018-02-07 02:57:11:     Saving to /media/qnap/Projects/P055.Ian/1.work/spatial/grid_lst_1km/extracts/2008/grid_lst_1km_aqua_lst_2008-07.rds
2018-02-07 02:58:14:   Extracting terra LST
2018-02-07 02:59:08:     Saving to /media/qnap/Projects/P055.Ian/1.work/spatial/grid_lst_1km/extracts/2008/grid_lst_1km_terra_lst_2008-07.rds
2018-02-07 03:00:08: 2008-08
2018-02-07 03:00:09:   Extracting aqua LST
2018-02-07 03:01:19:     Saving to /media/qnap/Projects/P055.Ian/1.work/spatial/grid_lst_1km/extracts/2008/grid_lst_1km_aqua_lst_2008-08.rds
2018-02-07 03:02:52:   Extracting terra LST
2018-02-07 03:03:59:     Saving to /media/qnap/Projects/P055.Ian/1.work/spatial/grid_lst_1km/extracts/2008/grid_lst_1km_terra_lst_2008-08.rds
2018-02-07 03:05:23: 2008-09
2018-02-07 03:05:24:   Extracting aqua LST
2018-02-07 03:06:23:     Saving to /media/qnap/Projects/P055.Ian/1.work/spatial/grid_lst_1km/extracts/2008/grid_lst_1km_aqua_lst_2008-09.rds
2018-02-07 03:07:54:   Extracting terra LST
2018-02-07 03:08:59:     Saving to /media/qnap/Projects/P055.Ian/1.work/spatial/grid_lst_1km/extracts/2008/grid_lst_1km_terra_lst_2008-09.rds
2018-02-07 03:10:06: 2008-10
2018-02-07 03:10:10:   Extracting aqua LST
2018-02-07 03:11:33:     Saving to /media/qnap/Projects/P055.Ian/1.work/spatial/grid_lst_1km/extracts/2008/grid_lst_1km_aqua_lst_2008-10.rds
2018-02-07 03:12:34:   Extracting terra LST
2018-02-07 03:13:27:     Saving to /media/qnap/Projects/P055.Ian/1.work/spatial/grid_lst_1km/extracts/2008/grid_lst_1km_terra_lst_2008-10.rds
2018-02-07 03:14:25: 2008-11
2018-02-07 03:14:25:   Extracting aqua LST
2018-02-07 03:15:18:     Saving to /media/qnap/Projects/P055.Ian/1.work/spatial/grid_lst_1km/extracts/2008/grid_lst_1km_aqua_lst_2008-11.rds
2018-02-07 03:16:09:   Extracting terra LST
2018-02-07 03:16:59:     Saving to /media/qnap/Projects/P055.Ian/1.work/spatial/grid_lst_1km/extracts/2008/grid_lst_1km_terra_lst_2008-11.rds
2018-02-07 03:17:49: 2008-12
2018-02-07 03:17:50:   Extracting aqua LST
2018-02-07 03:18:44:     Saving to /media/qnap/Projects/P055.Ian/1.work/spatial/grid_lst_1km/extracts/2008/grid_lst_1km_aqua_lst_2008-12.rds
2018-02-07 03:19:40:   Extracting terra LST
2018-02-07 03:20:29:     Saving to /media/qnap/Projects/P055.Ian/1.work/spatial/grid_lst_1km/extracts/2008/grid_lst_1km_terra_lst_2008-12.rds
2018-02-07 03:21:24: 2009-01
2018-02-07 03:21:24:   Extracting aqua LST
2018-02-07 03:22:17:     Saving to /media/qnap/Projects/P055.Ian/1.work/spatial/grid_lst_1km/extracts/2009/grid_lst_1km_aqua_lst_2009-01.rds
2018-02-07 03:23:15:   Extracting terra LST
2018-02-07 03:24:07:     Saving to /media/qnap/Projects/P055.Ian/1.work/spatial/grid_lst_1km/extracts/2009/grid_lst_1km_terra_lst_2009-01.rds
2018-02-07 03:25:05: 2009-02
2018-02-07 03:25:05:   Extracting aqua LST
2018-02-07 03:25:54:     Saving to /media/qnap/Projects/P055.Ian/1.work/spatial/grid_lst_1km/extracts/2009/grid_lst_1km_aqua_lst_2009-02.rds
2018-02-07 03:26:46:   Extracting terra LST
2018-02-07 03:27:33:     Saving to /media/qnap/Projects/P055.Ian/1.work/spatial/grid_lst_1km/extracts/2009/grid_lst_1km_terra_lst_2009-02.rds
2018-02-07 03:28:25: 2009-03
2018-02-07 03:28:26:   Extracting aqua LST
2018-02-07 03:29:20:     Saving to /media/qnap/Projects/P055.Ian/1.work/spatial/grid_lst_1km/extracts/2009/grid_lst_1km_aqua_lst_2009-03.rds
2018-02-07 03:30:20:   Extracting terra LST
2018-02-07 03:31:13:     Saving to /media/qnap/Projects/P055.Ian/1.work/spatial/grid_lst_1km/extracts/2009/grid_lst_1km_terra_lst_2009-03.rds
2018-02-07 03:32:13: 2009-04
2018-02-07 03:32:13:   Extracting aqua LST
2018-02-07 03:33:06:     Saving to /media/qnap/Projects/P055.Ian/1.work/spatial/grid_lst_1km/extracts/2009/grid_lst_1km_aqua_lst_2009-04.rds
2018-02-07 03:34:00:   Extracting terra LST
2018-02-07 03:34:56:     Saving to /media/qnap/Projects/P055.Ian/1.work/spatial/grid_lst_1km/extracts/2009/grid_lst_1km_terra_lst_2009-04.rds
2018-02-07 03:35:54: 2009-05
2018-02-07 03:35:54:   Extracting aqua LST
2018-02-07 03:36:48:     Saving to /media/qnap/Projects/P055.Ian/1.work/spatial/grid_lst_1km/extracts/2009/grid_lst_1km_aqua_lst_2009-05.rds
2018-02-07 03:37:46:   Extracting terra LST
2018-02-07 03:38:41:     Saving to /media/qnap/Projects/P055.Ian/1.work/spatial/grid_lst_1km/extracts/2009/grid_lst_1km_terra_lst_2009-05.rds
2018-02-07 03:39:38: 2009-06
2018-02-07 03:39:39:   Extracting aqua LST
2018-02-07 03:40:30:     Saving to /media/qnap/Projects/P055.Ian/1.work/spatial/grid_lst_1km/extracts/2009/grid_lst_1km_aqua_lst_2009-06.rds
2018-02-07 03:41:33:   Extracting terra LST
2018-02-07 03:42:26:     Saving to /media/qnap/Projects/P055.Ian/1.work/spatial/grid_lst_1km/extracts/2009/grid_lst_1km_terra_lst_2009-06.rds
2018-02-07 03:43:26: 2009-07
2018-02-07 03:43:27:   Extracting aqua LST
2018-02-07 03:44:21:     Saving to /media/qnap/Projects/P055.Ian/1.work/spatial/grid_lst_1km/extracts/2009/grid_lst_1km_aqua_lst_2009-07.rds
2018-02-07 03:45:22:   Extracting terra LST
2018-02-07 03:46:16:     Saving to /media/qnap/Projects/P055.Ian/1.work/spatial/grid_lst_1km/extracts/2009/grid_lst_1km_terra_lst_2009-07.rds
2018-02-07 03:47:18: 2009-08
2018-02-07 03:47:18:   Extracting aqua LST
2018-02-07 03:48:13:     Saving to /media/qnap/Projects/P055.Ian/1.work/spatial/grid_lst_1km/extracts/2009/grid_lst_1km_aqua_lst_2009-08.rds
2018-02-07 03:49:20:   Extracting terra LST
2018-02-07 03:50:18:     Saving to /media/qnap/Projects/P055.Ian/1.work/spatial/grid_lst_1km/extracts/2009/grid_lst_1km_terra_lst_2009-08.rds
2018-02-07 03:51:23: 2009-09
2018-02-07 03:51:23:   Extracting aqua LST
2018-02-07 03:52:17:     Saving to /media/qnap/Projects/P055.Ian/1.work/spatial/grid_lst_1km/extracts/2009/grid_lst_1km_aqua_lst_2009-09.rds
2018-02-07 03:53:19:   Extracting terra LST
2018-02-07 03:54:12:     Saving to /media/qnap/Projects/P055.Ian/1.work/spatial/grid_lst_1km/extracts/2009/grid_lst_1km_terra_lst_2009-09.rds
2018-02-07 03:55:14: 2009-10
2018-02-07 03:55:15:   Extracting aqua LST
2018-02-07 03:56:10:     Saving to /media/qnap/Projects/P055.Ian/1.work/spatial/grid_lst_1km/extracts/2009/grid_lst_1km_aqua_lst_2009-10.rds
2018-02-07 03:57:11:   Extracting terra LST
2018-02-07 03:58:04:     Saving to /media/qnap/Projects/P055.Ian/1.work/spatial/grid_lst_1km/extracts/2009/grid_lst_1km_terra_lst_2009-10.rds
2018-02-07 03:59:03: 2009-11
2018-02-07 03:59:03:   Extracting aqua LST
2018-02-07 03:59:57:     Saving to /media/qnap/Projects/P055.Ian/1.work/spatial/grid_lst_1km/extracts/2009/grid_lst_1km_aqua_lst_2009-11.rds
2018-02-07 04:00:51:   Extracting terra LST
2018-02-07 04:01:42:     Saving to /media/qnap/Projects/P055.Ian/1.work/spatial/grid_lst_1km/extracts/2009/grid_lst_1km_terra_lst_2009-11.rds
2018-02-07 04:02:33: 2009-12
2018-02-07 04:02:33:   Extracting aqua LST
2018-02-07 04:03:29:     Saving to /media/qnap/Projects/P055.Ian/1.work/spatial/grid_lst_1km/extracts/2009/grid_lst_1km_aqua_lst_2009-12.rds
2018-02-07 04:04:23:   Extracting terra LST
2018-02-07 04:05:14:     Saving to /media/qnap/Projects/P055.Ian/1.work/spatial/grid_lst_1km/extracts/2009/grid_lst_1km_terra_lst_2009-12.rds
2018-02-07 04:06:11: 2010-01
2018-02-07 04:06:11:   Extracting aqua LST
2018-02-07 04:07:04:     Saving to /media/qnap/Projects/P055.Ian/1.work/spatial/grid_lst_1km/extracts/2010/grid_lst_1km_aqua_lst_2010-01.rds
2018-02-07 04:07:59:   Extracting terra LST
2018-02-07 04:08:51:     Saving to /media/qnap/Projects/P055.Ian/1.work/spatial/grid_lst_1km/extracts/2010/grid_lst_1km_terra_lst_2010-01.rds
2018-02-07 04:09:47: 2010-02
2018-02-07 04:09:47:   Extracting aqua LST
2018-02-07 04:10:36:     Saving to /media/qnap/Projects/P055.Ian/1.work/spatial/grid_lst_1km/extracts/2010/grid_lst_1km_aqua_lst_2010-02.rds
2018-02-07 04:11:25:   Extracting terra LST
2018-02-07 04:12:15:     Saving to /media/qnap/Projects/P055.Ian/1.work/spatial/grid_lst_1km/extracts/2010/grid_lst_1km_terra_lst_2010-02.rds
2018-02-07 04:13:05: 2010-03
2018-02-07 04:13:06:   Extracting aqua LST
2018-02-07 04:14:00:     Saving to /media/qnap/Projects/P055.Ian/1.work/spatial/grid_lst_1km/extracts/2010/grid_lst_1km_aqua_lst_2010-03.rds
2018-02-07 04:14:58:   Extracting terra LST
2018-02-07 04:15:50:     Saving to /media/qnap/Projects/P055.Ian/1.work/spatial/grid_lst_1km/extracts/2010/grid_lst_1km_terra_lst_2010-03.rds
2018-02-07 04:16:51: 2010-04
2018-02-07 04:16:51:   Extracting aqua LST
2018-02-07 04:17:45:     Saving to /media/qnap/Projects/P055.Ian/1.work/spatial/grid_lst_1km/extracts/2010/grid_lst_1km_aqua_lst_2010-04.rds
2018-02-07 04:18:49:   Extracting terra LST
2018-02-07 04:19:42:     Saving to /media/qnap/Projects/P055.Ian/1.work/spatial/grid_lst_1km/extracts/2010/grid_lst_1km_terra_lst_2010-04.rds
2018-02-07 04:20:42: 2010-05
2018-02-07 04:20:42:   Extracting aqua LST
2018-02-07 04:21:34:     Saving to /media/qnap/Projects/P055.Ian/1.work/spatial/grid_lst_1km/extracts/2010/grid_lst_1km_aqua_lst_2010-05.rds
2018-02-07 04:22:32:   Extracting terra LST
2018-02-07 04:23:24:     Saving to /media/qnap/Projects/P055.Ian/1.work/spatial/grid_lst_1km/extracts/2010/grid_lst_1km_terra_lst_2010-05.rds
2018-02-07 04:24:22: 2010-06
2018-02-07 04:24:22:   Extracting aqua LST
2018-02-07 04:25:12:     Saving to /media/qnap/Projects/P055.Ian/1.work/spatial/grid_lst_1km/extracts/2010/grid_lst_1km_aqua_lst_2010-06.rds
2018-02-07 04:26:10:   Extracting terra LST
2018-02-07 04:27:05:     Saving to /media/qnap/Projects/P055.Ian/1.work/spatial/grid_lst_1km/extracts/2010/grid_lst_1km_terra_lst_2010-06.rds
2018-02-07 04:28:06: 2010-07
2018-02-07 04:28:06:   Extracting aqua LST
2018-02-07 04:29:02:     Saving to /media/qnap/Projects/P055.Ian/1.work/spatial/grid_lst_1km/extracts/2010/grid_lst_1km_aqua_lst_2010-07.rds
2018-02-07 04:30:07:   Extracting terra LST
2018-02-07 04:31:03:     Saving to /media/qnap/Projects/P055.Ian/1.work/spatial/grid_lst_1km/extracts/2010/grid_lst_1km_terra_lst_2010-07.rds
2018-02-07 04:32:09: 2010-08
2018-02-07 04:32:09:   Extracting aqua LST
2018-02-07 04:33:04:     Saving to /media/qnap/Projects/P055.Ian/1.work/spatial/grid_lst_1km/extracts/2010/grid_lst_1km_aqua_lst_2010-08.rds
2018-02-07 04:34:06:   Extracting terra LST
2018-02-07 04:35:03:     Saving to /media/qnap/Projects/P055.Ian/1.work/spatial/grid_lst_1km/extracts/2010/grid_lst_1km_terra_lst_2010-08.rds
2018-02-07 04:36:07: 2010-09
2018-02-07 04:36:07:   Extracting aqua LST
2018-02-07 04:37:00:     Saving to /media/qnap/Projects/P055.Ian/1.work/spatial/grid_lst_1km/extracts/2010/grid_lst_1km_aqua_lst_2010-09.rds
2018-02-07 04:38:01:   Extracting terra LST
2018-02-07 04:38:56:     Saving to /media/qnap/Projects/P055.Ian/1.work/spatial/grid_lst_1km/extracts/2010/grid_lst_1km_terra_lst_2010-09.rds
2018-02-07 04:39:58: 2010-10
2018-02-07 04:39:58:   Extracting aqua LST
2018-02-07 04:40:53:     Saving to /media/qnap/Projects/P055.Ian/1.work/spatial/grid_lst_1km/extracts/2010/grid_lst_1km_aqua_lst_2010-10.rds
2018-02-07 04:41:54:   Extracting terra LST
2018-02-07 04:42:49:     Saving to /media/qnap/Projects/P055.Ian/1.work/spatial/grid_lst_1km/extracts/2010/grid_lst_1km_terra_lst_2010-10.rds
2018-02-07 04:43:49: 2010-11
2018-02-07 04:43:49:   Extracting aqua LST
2018-02-07 04:44:44:     Saving to /media/qnap/Projects/P055.Ian/1.work/spatial/grid_lst_1km/extracts/2010/grid_lst_1km_aqua_lst_2010-11.rds
2018-02-07 04:45:36:   Extracting terra LST
2018-02-07 04:46:27:     Saving to /media/qnap/Projects/P055.Ian/1.work/spatial/grid_lst_1km/extracts/2010/grid_lst_1km_terra_lst_2010-11.rds
2018-02-07 04:47:19: 2010-12
2018-02-07 04:47:19:   Extracting aqua LST
2018-02-07 04:48:12:     Saving to /media/qnap/Projects/P055.Ian/1.work/spatial/grid_lst_1km/extracts/2010/grid_lst_1km_aqua_lst_2010-12.rds
2018-02-07 04:49:06:   Extracting terra LST
2018-02-07 04:49:58:     Saving to /media/qnap/Projects/P055.Ian/1.work/spatial/grid_lst_1km/extracts/2010/grid_lst_1km_terra_lst_2010-12.rds
2018-02-07 04:50:54: 2011-01
2018-02-07 04:50:55:   Extracting aqua LST
2018-02-07 04:51:49:     Saving to /media/qnap/Projects/P055.Ian/1.work/spatial/grid_lst_1km/extracts/2011/grid_lst_1km_aqua_lst_2011-01.rds
2018-02-07 04:52:47:   Extracting terra LST
2018-02-07 04:53:40:     Saving to /media/qnap/Projects/P055.Ian/1.work/spatial/grid_lst_1km/extracts/2011/grid_lst_1km_terra_lst_2011-01.rds
2018-02-07 04:55:01: 2011-02
2018-02-07 04:55:01:   Extracting aqua LST
2018-02-07 04:55:50:     Saving to /media/qnap/Projects/P055.Ian/1.work/spatial/grid_lst_1km/extracts/2011/grid_lst_1km_aqua_lst_2011-02.rds
2018-02-07 04:56:45:   Extracting terra LST
2018-02-07 04:57:34:     Saving to /media/qnap/Projects/P055.Ian/1.work/spatial/grid_lst_1km/extracts/2011/grid_lst_1km_terra_lst_2011-02.rds
2018-02-07 04:58:27: 2011-03
2018-02-07 04:58:27:   Extracting aqua LST
2018-02-07 04:59:21:     Saving to /media/qnap/Projects/P055.Ian/1.work/spatial/grid_lst_1km/extracts/2011/grid_lst_1km_aqua_lst_2011-03.rds
2018-02-07 05:00:27:   Extracting terra LST
2018-02-07 05:01:21:     Saving to /media/qnap/Projects/P055.Ian/1.work/spatial/grid_lst_1km/extracts/2011/grid_lst_1km_terra_lst_2011-03.rds
2018-02-07 05:02:22: 2011-04
2018-02-07 05:02:22:   Extracting aqua LST
2018-02-07 05:03:19:     Saving to /media/qnap/Projects/P055.Ian/1.work/spatial/grid_lst_1km/extracts/2011/grid_lst_1km_aqua_lst_2011-04.rds
2018-02-07 05:04:23:   Extracting terra LST
2018-02-07 05:05:15:     Saving to /media/qnap/Projects/P055.Ian/1.work/spatial/grid_lst_1km/extracts/2011/grid_lst_1km_terra_lst_2011-04.rds
2018-02-07 05:06:19: 2011-05
2018-02-07 05:06:19:   Extracting aqua LST
2018-02-07 05:07:17:     Saving to /media/qnap/Projects/P055.Ian/1.work/spatial/grid_lst_1km/extracts/2011/grid_lst_1km_aqua_lst_2011-05.rds
2018-02-07 05:08:19:   Extracting terra LST
2018-02-07 05:09:13:     Saving to /media/qnap/Projects/P055.Ian/1.work/spatial/grid_lst_1km/extracts/2011/grid_lst_1km_terra_lst_2011-05.rds
2018-02-07 05:10:14: 2011-06
2018-02-07 05:10:15:   Extracting aqua LST
2018-02-07 05:11:07:     Saving to /media/qnap/Projects/P055.Ian/1.work/spatial/grid_lst_1km/extracts/2011/grid_lst_1km_aqua_lst_2011-06.rds
2018-02-07 05:12:03:   Extracting terra LST
2018-02-07 05:12:56:     Saving to /media/qnap/Projects/P055.Ian/1.work/spatial/grid_lst_1km/extracts/2011/grid_lst_1km_terra_lst_2011-06.rds
2018-02-07 05:13:54: 2011-07
2018-02-07 05:13:54:   Extracting aqua LST
2018-02-07 05:14:49:     Saving to /media/qnap/Projects/P055.Ian/1.work/spatial/grid_lst_1km/extracts/2011/grid_lst_1km_aqua_lst_2011-07.rds
2018-02-07 05:15:53:   Extracting terra LST
2018-02-07 05:16:47:     Saving to /media/qnap/Projects/P055.Ian/1.work/spatial/grid_lst_1km/extracts/2011/grid_lst_1km_terra_lst_2011-07.rds
2018-02-07 05:17:47: 2011-08
2018-02-07 05:17:47:   Extracting aqua LST
2018-02-07 05:18:41:     Saving to /media/qnap/Projects/P055.Ian/1.work/spatial/grid_lst_1km/extracts/2011/grid_lst_1km_aqua_lst_2011-08.rds
2018-02-07 05:19:44:   Extracting terra LST
2018-02-07 05:20:40:     Saving to /media/qnap/Projects/P055.Ian/1.work/spatial/grid_lst_1km/extracts/2011/grid_lst_1km_terra_lst_2011-08.rds
2018-02-07 05:21:41: 2011-09
2018-02-07 05:21:41:   Extracting aqua LST
2018-02-07 05:22:34:     Saving to /media/qnap/Projects/P055.Ian/1.work/spatial/grid_lst_1km/extracts/2011/grid_lst_1km_aqua_lst_2011-09.rds
2018-02-07 05:23:38:   Extracting terra LST
2018-02-07 05:24:33:     Saving to /media/qnap/Projects/P055.Ian/1.work/spatial/grid_lst_1km/extracts/2011/grid_lst_1km_terra_lst_2011-09.rds
2018-02-07 05:25:34: 2011-10
2018-02-07 05:25:35:   Extracting aqua LST
2018-02-07 05:26:29:     Saving to /media/qnap/Projects/P055.Ian/1.work/spatial/grid_lst_1km/extracts/2011/grid_lst_1km_aqua_lst_2011-10.rds
2018-02-07 05:27:33:   Extracting terra LST
2018-02-07 05:28:31:     Saving to /media/qnap/Projects/P055.Ian/1.work/spatial/grid_lst_1km/extracts/2011/grid_lst_1km_terra_lst_2011-10.rds
2018-02-07 05:29:37: 2011-11
2018-02-07 05:29:38:   Extracting aqua LST
2018-02-07 05:30:31:     Saving to /media/qnap/Projects/P055.Ian/1.work/spatial/grid_lst_1km/extracts/2011/grid_lst_1km_aqua_lst_2011-11.rds
2018-02-07 05:31:26:   Extracting terra LST
2018-02-07 05:32:17:     Saving to /media/qnap/Projects/P055.Ian/1.work/spatial/grid_lst_1km/extracts/2011/grid_lst_1km_terra_lst_2011-11.rds
2018-02-07 05:33:12: 2011-12
2018-02-07 05:33:12:   Extracting aqua LST
2018-02-07 05:34:06:     Saving to /media/qnap/Projects/P055.Ian/1.work/spatial/grid_lst_1km/extracts/2011/grid_lst_1km_aqua_lst_2011-12.rds
2018-02-07 05:35:34:   Extracting terra LST
2018-02-07 05:36:25:     Saving to /media/qnap/Projects/P055.Ian/1.work/spatial/grid_lst_1km/extracts/2011/grid_lst_1km_terra_lst_2011-12.rds
2018-02-07 05:37:23: 2012-01
2018-02-07 05:37:23:   Extracting aqua LST
2018-02-07 05:38:17:     Saving to /media/qnap/Projects/P055.Ian/1.work/spatial/grid_lst_1km/extracts/2012/grid_lst_1km_aqua_lst_2012-01.rds
2018-02-07 05:39:18:   Extracting terra LST
2018-02-07 05:40:12:     Saving to /media/qnap/Projects/P055.Ian/1.work/spatial/grid_lst_1km/extracts/2012/grid_lst_1km_terra_lst_2012-01.rds
2018-02-07 05:41:09: 2012-02
2018-02-07 05:41:09:   Extracting aqua LST
2018-02-07 05:42:00:     Saving to /media/qnap/Projects/P055.Ian/1.work/spatial/grid_lst_1km/extracts/2012/grid_lst_1km_aqua_lst_2012-02.rds
2018-02-07 05:43:00:   Extracting terra LST
2018-02-07 05:43:52:     Saving to /media/qnap/Projects/P055.Ian/1.work/spatial/grid_lst_1km/extracts/2012/grid_lst_1km_terra_lst_2012-02.rds
2018-02-07 05:44:50: 2012-03
2018-02-07 05:44:50:   Extracting aqua LST
2018-02-07 05:45:47:     Saving to /media/qnap/Projects/P055.Ian/1.work/spatial/grid_lst_1km/extracts/2012/grid_lst_1km_aqua_lst_2012-03.rds
2018-02-07 05:46:54:   Extracting terra LST
2018-02-07 05:47:48:     Saving to /media/qnap/Projects/P055.Ian/1.work/spatial/grid_lst_1km/extracts/2012/grid_lst_1km_terra_lst_2012-03.rds
2018-02-07 05:48:53: 2012-04
2018-02-07 05:48:53:   Extracting aqua LST
2018-02-07 05:49:47:     Saving to /media/qnap/Projects/P055.Ian/1.work/spatial/grid_lst_1km/extracts/2012/grid_lst_1km_aqua_lst_2012-04.rds
2018-02-07 05:50:45:   Extracting terra LST
2018-02-07 05:51:35:     Saving to /media/qnap/Projects/P055.Ian/1.work/spatial/grid_lst_1km/extracts/2012/grid_lst_1km_terra_lst_2012-04.rds
2018-02-07 05:52:29: 2012-05
2018-02-07 05:52:29:   Extracting aqua LST
2018-02-07 05:53:23:     Saving to /media/qnap/Projects/P055.Ian/1.work/spatial/grid_lst_1km/extracts/2012/grid_lst_1km_aqua_lst_2012-05.rds
2018-02-07 05:54:23:   Extracting terra LST
2018-02-07 05:55:16:     Saving to /media/qnap/Projects/P055.Ian/1.work/spatial/grid_lst_1km/extracts/2012/grid_lst_1km_terra_lst_2012-05.rds
2018-02-07 05:56:15: 2012-06
2018-02-07 05:56:15:   Extracting aqua LST
2018-02-07 05:57:06:     Saving to /media/qnap/Projects/P055.Ian/1.work/spatial/grid_lst_1km/extracts/2012/grid_lst_1km_aqua_lst_2012-06.rds
2018-02-07 05:58:03:   Extracting terra LST
2018-02-07 05:58:58:     Saving to /media/qnap/Projects/P055.Ian/1.work/spatial/grid_lst_1km/extracts/2012/grid_lst_1km_terra_lst_2012-06.rds
2018-02-07 05:59:54: 2012-07
2018-02-07 05:59:55:   Extracting aqua LST
2018-02-07 06:00:51:     Saving to /media/qnap/Projects/P055.Ian/1.work/spatial/grid_lst_1km/extracts/2012/grid_lst_1km_aqua_lst_2012-07.rds
2018-02-07 06:01:53:   Extracting terra LST
2018-02-07 06:02:47:     Saving to /media/qnap/Projects/P055.Ian/1.work/spatial/grid_lst_1km/extracts/2012/grid_lst_1km_terra_lst_2012-07.rds
2018-02-07 06:03:48: 2012-08
2018-02-07 06:03:48:   Extracting aqua LST
2018-02-07 06:04:43:     Saving to /media/qnap/Projects/P055.Ian/1.work/spatial/grid_lst_1km/extracts/2012/grid_lst_1km_aqua_lst_2012-08.rds
2018-02-07 06:05:48:   Extracting terra LST
2018-02-07 06:06:42:     Saving to /media/qnap/Projects/P055.Ian/1.work/spatial/grid_lst_1km/extracts/2012/grid_lst_1km_terra_lst_2012-08.rds
2018-02-07 06:08:09: 2012-09
2018-02-07 06:08:09:   Extracting aqua LST
2018-02-07 06:09:06:     Saving to /media/qnap/Projects/P055.Ian/1.work/spatial/grid_lst_1km/extracts/2012/grid_lst_1km_aqua_lst_2012-09.rds
2018-02-07 06:10:23:   Extracting terra LST
2018-02-07 06:11:17:     Saving to /media/qnap/Projects/P055.Ian/1.work/spatial/grid_lst_1km/extracts/2012/grid_lst_1km_terra_lst_2012-09.rds
2018-02-07 06:12:18: 2012-10
2018-02-07 06:12:19:   Extracting aqua LST
2018-02-07 06:13:16:     Saving to /media/qnap/Projects/P055.Ian/1.work/spatial/grid_lst_1km/extracts/2012/grid_lst_1km_aqua_lst_2012-10.rds
2018-02-07 06:14:14:   Extracting terra LST
2018-02-07 06:15:06:     Saving to /media/qnap/Projects/P055.Ian/1.work/spatial/grid_lst_1km/extracts/2012/grid_lst_1km_terra_lst_2012-10.rds
2018-02-07 06:16:03: 2012-11
2018-02-07 06:16:03:   Extracting aqua LST
2018-02-07 06:16:54:     Saving to /media/qnap/Projects/P055.Ian/1.work/spatial/grid_lst_1km/extracts/2012/grid_lst_1km_aqua_lst_2012-11.rds
2018-02-07 06:17:50:   Extracting terra LST
2018-02-07 06:18:43:     Saving to /media/qnap/Projects/P055.Ian/1.work/spatial/grid_lst_1km/extracts/2012/grid_lst_1km_terra_lst_2012-11.rds
2018-02-07 06:19:39: 2012-12
2018-02-07 06:19:39:   Extracting aqua LST
2018-02-07 06:20:30:     Saving to /media/qnap/Projects/P055.Ian/1.work/spatial/grid_lst_1km/extracts/2012/grid_lst_1km_aqua_lst_2012-12.rds
2018-02-07 06:21:27:   Extracting terra LST
2018-02-07 06:22:21:     Saving to /media/qnap/Projects/P055.Ian/1.work/spatial/grid_lst_1km/extracts/2012/grid_lst_1km_terra_lst_2012-12.rds
2018-02-07 06:23:16: 2013-01
2018-02-07 06:23:16:   Extracting aqua LST
2018-02-07 06:24:08:     Saving to /media/qnap/Projects/P055.Ian/1.work/spatial/grid_lst_1km/extracts/2013/grid_lst_1km_aqua_lst_2013-01.rds
2018-02-07 06:25:01:   Extracting terra LST
2018-02-07 06:25:56:     Saving to /media/qnap/Projects/P055.Ian/1.work/spatial/grid_lst_1km/extracts/2013/grid_lst_1km_terra_lst_2013-01.rds
2018-02-07 06:26:50: 2013-02
2018-02-07 06:26:50:   Extracting aqua LST
2018-02-07 06:27:39:     Saving to /media/qnap/Projects/P055.Ian/1.work/spatial/grid_lst_1km/extracts/2013/grid_lst_1km_aqua_lst_2013-02.rds
2018-02-07 06:28:29:   Extracting terra LST
2018-02-07 06:29:17:     Saving to /media/qnap/Projects/P055.Ian/1.work/spatial/grid_lst_1km/extracts/2013/grid_lst_1km_terra_lst_2013-02.rds
2018-02-07 06:30:08: 2013-03
2018-02-07 06:30:08:   Extracting aqua LST
2018-02-07 06:31:02:     Saving to /media/qnap/Projects/P055.Ian/1.work/spatial/grid_lst_1km/extracts/2013/grid_lst_1km_aqua_lst_2013-03.rds
2018-02-07 06:32:01:   Extracting terra LST
2018-02-07 06:32:55:     Saving to /media/qnap/Projects/P055.Ian/1.work/spatial/grid_lst_1km/extracts/2013/grid_lst_1km_terra_lst_2013-03.rds
2018-02-07 06:33:51: 2013-04
2018-02-07 06:33:52:   Extracting aqua LST
2018-02-07 06:34:46:     Saving to /media/qnap/Projects/P055.Ian/1.work/spatial/grid_lst_1km/extracts/2013/grid_lst_1km_aqua_lst_2013-04.rds
2018-02-07 06:35:43:   Extracting terra LST
2018-02-07 06:36:35:     Saving to /media/qnap/Projects/P055.Ian/1.work/spatial/grid_lst_1km/extracts/2013/grid_lst_1km_terra_lst_2013-04.rds
2018-02-07 06:37:33: 2013-05
2018-02-07 06:37:33:   Extracting aqua LST
2018-02-07 06:38:26:     Saving to /media/qnap/Projects/P055.Ian/1.work/spatial/grid_lst_1km/extracts/2013/grid_lst_1km_aqua_lst_2013-05.rds
2018-02-07 06:39:20:   Extracting terra LST
2018-02-07 06:40:11:     Saving to /media/qnap/Projects/P055.Ian/1.work/spatial/grid_lst_1km/extracts/2013/grid_lst_1km_terra_lst_2013-05.rds
2018-02-07 06:41:06: 2013-06
2018-02-07 06:41:07:   Extracting aqua LST
2018-02-07 06:41:59:     Saving to /media/qnap/Projects/P055.Ian/1.work/spatial/grid_lst_1km/extracts/2013/grid_lst_1km_aqua_lst_2013-06.rds
2018-02-07 06:42:57:   Extracting terra LST
2018-02-07 06:43:48:     Saving to /media/qnap/Projects/P055.Ian/1.work/spatial/grid_lst_1km/extracts/2013/grid_lst_1km_terra_lst_2013-06.rds
2018-02-07 06:44:45: 2013-07
2018-02-07 06:44:45:   Extracting aqua LST
2018-02-07 06:45:39:     Saving to /media/qnap/Projects/P055.Ian/1.work/spatial/grid_lst_1km/extracts/2013/grid_lst_1km_aqua_lst_2013-07.rds
2018-02-07 06:46:45:   Extracting terra LST
2018-02-07 06:47:41:     Saving to /media/qnap/Projects/P055.Ian/1.work/spatial/grid_lst_1km/extracts/2013/grid_lst_1km_terra_lst_2013-07.rds
2018-02-07 06:48:45: 2013-08
2018-02-07 06:48:45:   Extracting aqua LST
2018-02-07 06:49:42:     Saving to /media/qnap/Projects/P055.Ian/1.work/spatial/grid_lst_1km/extracts/2013/grid_lst_1km_aqua_lst_2013-08.rds
2018-02-07 06:50:47:   Extracting terra LST
2018-02-07 06:51:45:     Saving to /media/qnap/Projects/P055.Ian/1.work/spatial/grid_lst_1km/extracts/2013/grid_lst_1km_terra_lst_2013-08.rds
2018-02-07 06:52:53: 2013-09
2018-02-07 06:52:53:   Extracting aqua LST
2018-02-07 06:53:47:     Saving to /media/qnap/Projects/P055.Ian/1.work/spatial/grid_lst_1km/extracts/2013/grid_lst_1km_aqua_lst_2013-09.rds
2018-02-07 06:54:45:   Extracting terra LST
2018-02-07 06:55:37:     Saving to /media/qnap/Projects/P055.Ian/1.work/spatial/grid_lst_1km/extracts/2013/grid_lst_1km_terra_lst_2013-09.rds
2018-02-07 06:56:38: 2013-10
2018-02-07 06:56:39:   Extracting aqua LST
2018-02-07 06:57:33:     Saving to /media/qnap/Projects/P055.Ian/1.work/spatial/grid_lst_1km/extracts/2013/grid_lst_1km_aqua_lst_2013-10.rds
2018-02-07 06:58:28:   Extracting terra LST
2018-02-07 06:59:20:     Saving to /media/qnap/Projects/P055.Ian/1.work/spatial/grid_lst_1km/extracts/2013/grid_lst_1km_terra_lst_2013-10.rds
2018-02-07 07:00:19: 2013-11
2018-02-07 07:00:20:   Extracting aqua LST
2018-02-07 07:01:11:     Saving to /media/qnap/Projects/P055.Ian/1.work/spatial/grid_lst_1km/extracts/2013/grid_lst_1km_aqua_lst_2013-11.rds
2018-02-07 07:02:04:   Extracting terra LST
2018-02-07 07:02:55:     Saving to /media/qnap/Projects/P055.Ian/1.work/spatial/grid_lst_1km/extracts/2013/grid_lst_1km_terra_lst_2013-11.rds
2018-02-07 07:03:47: 2013-12
2018-02-07 07:03:48:   Extracting aqua LST
2018-02-07 07:04:41:     Saving to /media/qnap/Projects/P055.Ian/1.work/spatial/grid_lst_1km/extracts/2013/grid_lst_1km_aqua_lst_2013-12.rds
2018-02-07 07:05:41:   Extracting terra LST
2018-02-07 07:06:37:     Saving to /media/qnap/Projects/P055.Ian/1.work/spatial/grid_lst_1km/extracts/2013/grid_lst_1km_terra_lst_2013-12.rds
2018-02-07 07:07:37: 2014-01
2018-02-07 07:07:37:   Extracting aqua LST
2018-02-07 07:08:30:     Saving to /media/qnap/Projects/P055.Ian/1.work/spatial/grid_lst_1km/extracts/2014/grid_lst_1km_aqua_lst_2014-01.rds
2018-02-07 07:09:26:   Extracting terra LST
2018-02-07 07:10:16:     Saving to /media/qnap/Projects/P055.Ian/1.work/spatial/grid_lst_1km/extracts/2014/grid_lst_1km_terra_lst_2014-01.rds
2018-02-07 07:11:14: 2014-02
2018-02-07 07:11:14:   Extracting aqua LST
2018-02-07 07:12:02:     Saving to /media/qnap/Projects/P055.Ian/1.work/spatial/grid_lst_1km/extracts/2014/grid_lst_1km_aqua_lst_2014-02.rds
2018-02-07 07:12:54:   Extracting terra LST
2018-02-07 07:13:42:     Saving to /media/qnap/Projects/P055.Ian/1.work/spatial/grid_lst_1km/extracts/2014/grid_lst_1km_terra_lst_2014-02.rds
2018-02-07 07:14:33: 2014-03
2018-02-07 07:14:34:   Extracting aqua LST
2018-02-07 07:15:32:     Saving to /media/qnap/Projects/P055.Ian/1.work/spatial/grid_lst_1km/extracts/2014/grid_lst_1km_aqua_lst_2014-03.rds
2018-02-07 07:16:35:   Extracting terra LST
2018-02-07 07:17:30:     Saving to /media/qnap/Projects/P055.Ian/1.work/spatial/grid_lst_1km/extracts/2014/grid_lst_1km_terra_lst_2014-03.rds
2018-02-07 07:18:36: 2014-04
2018-02-07 07:18:36:   Extracting aqua LST
2018-02-07 07:19:30:     Saving to /media/qnap/Projects/P055.Ian/1.work/spatial/grid_lst_1km/extracts/2014/grid_lst_1km_aqua_lst_2014-04.rds
2018-02-07 07:20:30:   Extracting terra LST
2018-02-07 07:21:26:     Saving to /media/qnap/Projects/P055.Ian/1.work/spatial/grid_lst_1km/extracts/2014/grid_lst_1km_terra_lst_2014-04.rds
2018-02-07 07:22:25: 2014-05
2018-02-07 07:22:26:   Extracting aqua LST
2018-02-07 07:23:20:     Saving to /media/qnap/Projects/P055.Ian/1.work/spatial/grid_lst_1km/extracts/2014/grid_lst_1km_aqua_lst_2014-05.rds
2018-02-07 07:24:18:   Extracting terra LST
2018-02-07 07:25:10:     Saving to /media/qnap/Projects/P055.Ian/1.work/spatial/grid_lst_1km/extracts/2014/grid_lst_1km_terra_lst_2014-05.rds
2018-02-07 07:26:09: 2014-06
2018-02-07 07:26:09:   Extracting aqua LST
2018-02-07 07:27:01:     Saving to /media/qnap/Projects/P055.Ian/1.work/spatial/grid_lst_1km/extracts/2014/grid_lst_1km_aqua_lst_2014-06.rds
2018-02-07 07:28:01:   Extracting terra LST
2018-02-07 07:28:54:     Saving to /media/qnap/Projects/P055.Ian/1.work/spatial/grid_lst_1km/extracts/2014/grid_lst_1km_terra_lst_2014-06.rds
2018-02-07 07:29:54: 2014-07
2018-02-07 07:29:54:   Extracting aqua LST
2018-02-07 07:30:49:     Saving to /media/qnap/Projects/P055.Ian/1.work/spatial/grid_lst_1km/extracts/2014/grid_lst_1km_aqua_lst_2014-07.rds
2018-02-07 07:31:51:   Extracting terra LST
2018-02-07 07:32:44:     Saving to /media/qnap/Projects/P055.Ian/1.work/spatial/grid_lst_1km/extracts/2014/grid_lst_1km_terra_lst_2014-07.rds
2018-02-07 07:33:42: 2014-08
2018-02-07 07:33:42:   Extracting aqua LST
2018-02-07 07:34:36:     Saving to /media/qnap/Projects/P055.Ian/1.work/spatial/grid_lst_1km/extracts/2014/grid_lst_1km_aqua_lst_2014-08.rds
2018-02-07 07:35:34:   Extracting terra LST
2018-02-07 07:36:27:     Saving to /media/qnap/Projects/P055.Ian/1.work/spatial/grid_lst_1km/extracts/2014/grid_lst_1km_terra_lst_2014-08.rds
2018-02-07 07:37:24: 2014-09
2018-02-07 07:37:25:   Extracting aqua LST
2018-02-07 07:38:16:     Saving to /media/qnap/Projects/P055.Ian/1.work/spatial/grid_lst_1km/extracts/2014/grid_lst_1km_aqua_lst_2014-09.rds
2018-02-07 07:39:17:   Extracting terra LST
2018-02-07 07:40:10:     Saving to /media/qnap/Projects/P055.Ian/1.work/spatial/grid_lst_1km/extracts/2014/grid_lst_1km_terra_lst_2014-09.rds
2018-02-07 07:41:12: 2014-10
2018-02-07 07:41:12:   Extracting aqua LST
2018-02-07 07:42:08:     Saving to /media/qnap/Projects/P055.Ian/1.work/spatial/grid_lst_1km/extracts/2014/grid_lst_1km_aqua_lst_2014-10.rds
2018-02-07 07:43:10:   Extracting terra LST
2018-02-07 07:44:03:     Saving to /media/qnap/Projects/P055.Ian/1.work/spatial/grid_lst_1km/extracts/2014/grid_lst_1km_terra_lst_2014-10.rds
2018-02-07 07:45:03: 2014-11
2018-02-07 07:45:03:   Extracting aqua LST
2018-02-07 07:45:54:     Saving to /media/qnap/Projects/P055.Ian/1.work/spatial/grid_lst_1km/extracts/2014/grid_lst_1km_aqua_lst_2014-11.rds
2018-02-07 07:46:49:   Extracting terra LST
2018-02-07 07:47:41:     Saving to /media/qnap/Projects/P055.Ian/1.work/spatial/grid_lst_1km/extracts/2014/grid_lst_1km_terra_lst_2014-11.rds
2018-02-07 07:48:36: 2014-12
2018-02-07 07:48:36:   Extracting aqua LST
2018-02-07 07:49:30:     Saving to /media/qnap/Projects/P055.Ian/1.work/spatial/grid_lst_1km/extracts/2014/grid_lst_1km_aqua_lst_2014-12.rds
2018-02-07 07:50:25:   Extracting terra LST
2018-02-07 07:51:18:     Saving to /media/qnap/Projects/P055.Ian/1.work/spatial/grid_lst_1km/extracts/2014/grid_lst_1km_terra_lst_2014-12.rds
2018-02-07 07:52:13: 2015-01
2018-02-07 07:52:13:   Extracting aqua LST
2018-02-07 07:53:07:     Saving to /media/qnap/Projects/P055.Ian/1.work/spatial/grid_lst_1km/extracts/2015/grid_lst_1km_aqua_lst_2015-01.rds
2018-02-07 07:53:59:   Extracting terra LST
2018-02-07 07:54:53:     Saving to /media/qnap/Projects/P055.Ian/1.work/spatial/grid_lst_1km/extracts/2015/grid_lst_1km_terra_lst_2015-01.rds
2018-02-07 07:55:47: 2015-02
2018-02-07 07:55:47:   Extracting aqua LST
2018-02-07 07:56:34:     Saving to /media/qnap/Projects/P055.Ian/1.work/spatial/grid_lst_1km/extracts/2015/grid_lst_1km_aqua_lst_2015-02.rds
2018-02-07 07:57:26:   Extracting terra LST
2018-02-07 07:58:18:     Saving to /media/qnap/Projects/P055.Ian/1.work/spatial/grid_lst_1km/extracts/2015/grid_lst_1km_terra_lst_2015-02.rds
2018-02-07 07:59:10: 2015-03
2018-02-07 07:59:11:   Extracting aqua LST
2018-02-07 08:00:06:     Saving to /media/qnap/Projects/P055.Ian/1.work/spatial/grid_lst_1km/extracts/2015/grid_lst_1km_aqua_lst_2015-03.rds
2018-02-07 08:01:03:   Extracting terra LST
2018-02-07 08:01:58:     Saving to /media/qnap/Projects/P055.Ian/1.work/spatial/grid_lst_1km/extracts/2015/grid_lst_1km_terra_lst_2015-03.rds
2018-02-07 08:03:04: 2015-04
2018-02-07 08:03:04:   Extracting aqua LST
2018-02-07 08:04:00:     Saving to /media/qnap/Projects/P055.Ian/1.work/spatial/grid_lst_1km/extracts/2015/grid_lst_1km_aqua_lst_2015-04.rds
2018-02-07 08:05:12:   Extracting terra LST
2018-02-07 08:06:05:     Saving to /media/qnap/Projects/P055.Ian/1.work/spatial/grid_lst_1km/extracts/2015/grid_lst_1km_terra_lst_2015-04.rds
2018-02-07 08:07:10: 2015-05
2018-02-07 08:07:10:   Extracting aqua LST
2018-02-07 08:08:05:     Saving to /media/qnap/Projects/P055.Ian/1.work/spatial/grid_lst_1km/extracts/2015/grid_lst_1km_aqua_lst_2015-05.rds
2018-02-07 08:09:11:   Extracting terra LST
2018-02-07 08:10:07:     Saving to /media/qnap/Projects/P055.Ian/1.work/spatial/grid_lst_1km/extracts/2015/grid_lst_1km_terra_lst_2015-05.rds
2018-02-07 08:11:10: 2015-06
2018-02-07 08:11:10:   Extracting aqua LST
2018-02-07 08:12:05:     Saving to /media/qnap/Projects/P055.Ian/1.work/spatial/grid_lst_1km/extracts/2015/grid_lst_1km_aqua_lst_2015-06.rds
2018-02-07 08:13:14:   Extracting terra LST
2018-02-07 08:14:10:     Saving to /media/qnap/Projects/P055.Ian/1.work/spatial/grid_lst_1km/extracts/2015/grid_lst_1km_terra_lst_2015-06.rds
2018-02-07 08:15:12: 2015-07
2018-02-07 08:15:13:   Extracting aqua LST
2018-02-07 08:16:13:     Saving to /media/qnap/Projects/P055.Ian/1.work/spatial/grid_lst_1km/extracts/2015/grid_lst_1km_aqua_lst_2015-07.rds
2018-02-07 08:17:19:   Extracting terra LST
2018-02-07 08:18:17:     Saving to /media/qnap/Projects/P055.Ian/1.work/spatial/grid_lst_1km/extracts/2015/grid_lst_1km_terra_lst_2015-07.rds
2018-02-07 08:19:23: 2015-08
2018-02-07 08:19:24:   Extracting aqua LST
2018-02-07 08:20:18:     Saving to /media/qnap/Projects/P055.Ian/1.work/spatial/grid_lst_1km/extracts/2015/grid_lst_1km_aqua_lst_2015-08.rds
2018-02-07 08:21:27:   Extracting terra LST
2018-02-07 08:22:26:     Saving to /media/qnap/Projects/P055.Ian/1.work/spatial/grid_lst_1km/extracts/2015/grid_lst_1km_terra_lst_2015-08.rds
2018-02-07 08:23:28: 2015-09
2018-02-07 08:23:28:   Extracting aqua LST
2018-02-07 08:24:22:     Saving to /media/qnap/Projects/P055.Ian/1.work/spatial/grid_lst_1km/extracts/2015/grid_lst_1km_aqua_lst_2015-09.rds
2018-02-07 08:25:30:   Extracting terra LST
2018-02-07 08:26:23:     Saving to /media/qnap/Projects/P055.Ian/1.work/spatial/grid_lst_1km/extracts/2015/grid_lst_1km_terra_lst_2015-09.rds
2018-02-07 08:27:22: 2015-10
2018-02-07 08:27:22:   Extracting aqua LST
2018-02-07 08:28:17:     Saving to /media/qnap/Projects/P055.Ian/1.work/spatial/grid_lst_1km/extracts/2015/grid_lst_1km_aqua_lst_2015-10.rds
2018-02-07 08:29:40:   Extracting terra LST
2018-02-07 08:30:30:     Saving to /media/qnap/Projects/P055.Ian/1.work/spatial/grid_lst_1km/extracts/2015/grid_lst_1km_terra_lst_2015-10.rds
2018-02-07 08:31:32: 2015-11
2018-02-07 08:31:32:   Extracting aqua LST
2018-02-07 08:32:27:     Saving to /media/qnap/Projects/P055.Ian/1.work/spatial/grid_lst_1km/extracts/2015/grid_lst_1km_aqua_lst_2015-11.rds
2018-02-07 08:33:49:   Extracting terra LST
2018-02-07 08:34:41:     Saving to /media/qnap/Projects/P055.Ian/1.work/spatial/grid_lst_1km/extracts/2015/grid_lst_1km_terra_lst_2015-11.rds
2018-02-07 08:35:55: 2015-12
2018-02-07 08:35:56:   Extracting aqua LST
2018-02-07 08:36:49:     Saving to /media/qnap/Projects/P055.Ian/1.work/spatial/grid_lst_1km/extracts/2015/grid_lst_1km_aqua_lst_2015-12.rds
2018-02-07 08:38:06:   Extracting terra LST
2018-02-07 08:39:01:     Saving to /media/qnap/Projects/P055.Ian/1.work/spatial/grid_lst_1km/extracts/2015/grid_lst_1km_terra_lst_2015-12.rds
2018-02-07 08:40:22: 2016-01
2018-02-07 08:40:23:   Extracting aqua LST
2018-02-07 08:41:14:     Saving to /media/qnap/Projects/P055.Ian/1.work/spatial/grid_lst_1km/extracts/2016/grid_lst_1km_aqua_lst_2016-01.rds
2018-02-07 08:42:11:   Extracting terra LST
2018-02-07 08:43:04:     Saving to /media/qnap/Projects/P055.Ian/1.work/spatial/grid_lst_1km/extracts/2016/grid_lst_1km_terra_lst_2016-01.rds
2018-02-07 08:44:08: 2016-02
2018-02-07 08:44:08:   Extracting aqua LST
2018-02-07 08:44:58:     Saving to /media/qnap/Projects/P055.Ian/1.work/spatial/grid_lst_1km/extracts/2016/grid_lst_1km_aqua_lst_2016-02.rds
2018-02-07 08:45:55:   Extracting terra LST
2018-02-07 08:46:35:     Saving to /media/qnap/Projects/P055.Ian/1.work/spatial/grid_lst_1km/extracts/2016/grid_lst_1km_terra_lst_2016-02.rds
2018-02-07 08:47:28: 2016-03
2018-02-07 08:47:28:   Extracting aqua LST
2018-02-07 08:48:25:     Saving to /media/qnap/Projects/P055.Ian/1.work/spatial/grid_lst_1km/extracts/2016/grid_lst_1km_aqua_lst_2016-03.rds
2018-02-07 08:49:25:   Extracting terra LST
2018-02-07 08:50:17:     Saving to /media/qnap/Projects/P055.Ian/1.work/spatial/grid_lst_1km/extracts/2016/grid_lst_1km_terra_lst_2016-03.rds
2018-02-07 08:51:14: 2016-04
2018-02-07 08:51:14:   Extracting aqua LST
2018-02-07 08:52:09:     Saving to /media/qnap/Projects/P055.Ian/1.work/spatial/grid_lst_1km/extracts/2016/grid_lst_1km_aqua_lst_2016-04.rds
2018-02-07 08:53:07:   Extracting terra LST
2018-02-07 08:54:01:     Saving to /media/qnap/Projects/P055.Ian/1.work/spatial/grid_lst_1km/extracts/2016/grid_lst_1km_terra_lst_2016-04.rds
2018-02-07 08:55:00: 2016-05
2018-02-07 08:55:00:   Extracting aqua LST
2018-02-07 08:55:57:     Saving to /media/qnap/Projects/P055.Ian/1.work/spatial/grid_lst_1km/extracts/2016/grid_lst_1km_aqua_lst_2016-05.rds
2018-02-07 08:56:59:   Extracting terra LST
2018-02-07 08:57:54:     Saving to /media/qnap/Projects/P055.Ian/1.work/spatial/grid_lst_1km/extracts/2016/grid_lst_1km_terra_lst_2016-05.rds
2018-02-07 08:59:01: 2016-06
2018-02-07 08:59:01:   Extracting aqua LST
2018-02-07 08:59:54:     Saving to /media/qnap/Projects/P055.Ian/1.work/spatial/grid_lst_1km/extracts/2016/grid_lst_1km_aqua_lst_2016-06.rds
2018-02-07 09:00:59:   Extracting terra LST
2018-02-07 09:01:53:     Saving to /media/qnap/Projects/P055.Ian/1.work/spatial/grid_lst_1km/extracts/2016/grid_lst_1km_terra_lst_2016-06.rds
2018-02-07 09:02:53: 2016-07
2018-02-07 09:02:53:   Extracting aqua LST
2018-02-07 09:03:53:     Saving to /media/qnap/Projects/P055.Ian/1.work/spatial/grid_lst_1km/extracts/2016/grid_lst_1km_aqua_lst_2016-07.rds
2018-02-07 09:05:07:   Extracting terra LST
2018-02-07 09:06:06:     Saving to /media/qnap/Projects/P055.Ian/1.work/spatial/grid_lst_1km/extracts/2016/grid_lst_1km_terra_lst_2016-07.rds
2018-02-07 09:07:17: 2016-08
2018-02-07 09:07:17:   Extracting aqua LST
2018-02-07 09:08:19:     Saving to /media/qnap/Projects/P055.Ian/1.work/spatial/grid_lst_1km/extracts/2016/grid_lst_1km_aqua_lst_2016-08.rds
2018-02-07 09:09:38:   Extracting terra LST
2018-02-07 09:10:37:     Saving to /media/qnap/Projects/P055.Ian/1.work/spatial/grid_lst_1km/extracts/2016/grid_lst_1km_terra_lst_2016-08.rds
2018-02-07 09:11:53: 2016-09
2018-02-07 09:11:53:   Extracting aqua LST
2018-02-07 09:12:52:     Saving to /media/qnap/Projects/P055.Ian/1.work/spatial/grid_lst_1km/extracts/2016/grid_lst_1km_aqua_lst_2016-09.rds
2018-02-07 09:13:57:   Extracting terra LST
2018-02-07 09:14:49:     Saving to /media/qnap/Projects/P055.Ian/1.work/spatial/grid_lst_1km/extracts/2016/grid_lst_1km_terra_lst_2016-09.rds
2018-02-07 09:15:50: 2016-10
2018-02-07 09:15:50:   Extracting aqua LST
2018-02-07 09:16:45:     Saving to /media/qnap/Projects/P055.Ian/1.work/spatial/grid_lst_1km/extracts/2016/grid_lst_1km_aqua_lst_2016-10.rds
2018-02-07 09:17:57:   Extracting terra LST
2018-02-07 09:18:57:     Saving to /media/qnap/Projects/P055.Ian/1.work/spatial/grid_lst_1km/extracts/2016/grid_lst_1km_terra_lst_2016-10.rds
2018-02-07 09:20:08: 2016-11
2018-02-07 09:20:08:   Extracting aqua LST
2018-02-07 09:21:05:     Saving to /media/qnap/Projects/P055.Ian/1.work/spatial/grid_lst_1km/extracts/2016/grid_lst_1km_aqua_lst_2016-11.rds
2018-02-07 09:22:04:   Extracting terra LST
2018-02-07 09:23:04:     Saving to /media/qnap/Projects/P055.Ian/1.work/spatial/grid_lst_1km/extracts/2016/grid_lst_1km_terra_lst_2016-11.rds
2018-02-07 09:24:11: 2016-12
2018-02-07 09:24:11:   Extracting aqua LST
2018-02-07 09:25:12:     Saving to /media/qnap/Projects/P055.Ian/1.work/spatial/grid_lst_1km/extracts/2016/grid_lst_1km_aqua_lst_2016-12.rds
2018-02-07 09:26:20:   Extracting terra LST
2018-02-07 09:27:16:     Saving to /media/qnap/Projects/P055.Ian/1.work/spatial/grid_lst_1km/extracts/2016/grid_lst_1km_terra_lst_2016-12.rds
2018-02-07 09:28:27: Done
