2018-06-19 09:51:34: ---
2018-06-19 09:51:34: Fitting stage 3 models
2018-06-19 09:51:34: ---
2018-06-19 09:51:34: 2000
2018-06-19 09:51:34: 2000 : exists m2_tmin_2000.rds
2018-06-19 09:51:34: 2000 : exists m2_tmean_2000.rds
2018-06-19 09:51:34: 2000 : exists m2_tmax_2000.rds
2018-06-19 09:51:34: 2001
2018-06-19 09:51:34: 2001 : exists m2_tmin_2001.rds
2018-06-19 09:51:34: 2001 : exists m2_tmean_2001.rds
2018-06-19 09:51:34: 2001 : exists m2_tmax_2001.rds
2018-06-19 09:51:34: 2002
2018-06-19 09:51:34: 2002 : exists m2_tmin_2002.rds
2018-06-19 09:51:34: 2002 : exists m2_tmean_2002.rds
2018-06-19 09:51:34: 2002 : exists m2_tmax_2002.rds
2018-06-19 09:51:34: 2003
2018-06-19 09:51:34: 2003 : exists m2_tmin_2003.rds
2018-06-19 09:51:34: 2003 : exists m2_tmean_2003.rds
2018-06-19 09:51:34: 2003 : exists m2_tmax_2003.rds
2018-06-19 09:51:34: 2004
2018-06-19 09:51:34: 2004 : exists m2_tmin_2004.rds
2018-06-19 09:51:34: 2004 : exists m2_tmean_2004.rds
2018-06-19 09:51:34: 2004 : exists m2_tmax_2004.rds
2018-06-19 09:51:34: 2005
2018-06-19 09:51:34: 2005 : loading mod3_2005_pred_m1.fst
2018-06-19 09:55:40: 2005 : fitting stage 3 models in parallel
2018-06-19 09:55:42: 2005 tmin : selecting rows with m1_tmin
2018-06-19 09:55:43: 2005 tmean : selecting rows with m1_tmean
2018-06-19 09:55:44: 2005 tmax : selecting rows with m1_tmax
2018-06-19 09:56:01: 2005 tmax : fitting m2: m1_tmax ~ idw_tmax + (1 + idw_tmax | grd_1km_id)
2018-06-19 09:56:01: 2005 tmin : fitting m2: m1_tmin ~ idw_tmin + (1 + idw_tmin | grd_1km_id)
2018-06-19 09:56:03: 2005 tmean : fitting m2: m1_tmean ~ idw_tmean + (1 + idw_tmean | grd_1km_id)
2018-06-19 10:29:11: 2005 tmax : saving m2
2018-06-19 10:34:34: 2005 tmin : saving m2
2018-06-19 10:36:12: 2005 tmean : saving m2
2018-06-19 10:43:41: 2005 tmax : -> m2_tmax_2005.rds
2018-06-19 10:49:29: 2005 tmin : -> m2_tmin_2005.rds
2018-06-19 10:51:10: 2005 tmean : -> m2_tmean_2005.rds
2018-06-19 10:51:12: 2006
2018-06-19 10:51:12: 2006 : loading mod3_2006_pred_m1.fst
2018-06-19 10:54:56: 2006 : fitting stage 3 models in parallel
2018-06-19 10:54:57: 2006 tmin : selecting rows with m1_tmin
2018-06-19 10:54:58: 2006 tmean : selecting rows with m1_tmean
2018-06-19 10:54:58: 2006 tmax : selecting rows with m1_tmax
2018-06-19 10:55:11: 2006 tmax : fitting m2: m1_tmax ~ idw_tmax + (1 + idw_tmax | grd_1km_id)
2018-06-19 10:55:12: 2006 tmean : fitting m2: m1_tmean ~ idw_tmean + (1 + idw_tmean | grd_1km_id)
2018-06-19 10:55:15: 2006 tmin : fitting m2: m1_tmin ~ idw_tmin + (1 + idw_tmin | grd_1km_id)
2018-06-19 11:28:38: 2006 tmax : saving m2
2018-06-19 11:32:38: 2006 tmean : saving m2
2018-06-19 11:33:22: 2006 tmin : saving m2
2018-06-19 11:42:09: 2006 tmax : -> m2_tmax_2006.rds
2018-06-19 11:46:55: 2006 tmean : -> m2_tmean_2006.rds
2018-06-19 11:47:14: 2006 tmin : -> m2_tmin_2006.rds
2018-06-19 11:47:15: 2007
2018-06-19 11:47:15: 2007 : loading mod3_2007_pred_m1.fst
2018-06-19 11:50:59: 2007 : fitting stage 3 models in parallel
2018-06-19 11:50:59: 2007 tmin : selecting rows with m1_tmin
2018-06-19 11:51:00: 2007 tmean : selecting rows with m1_tmean
2018-06-19 11:51:01: 2007 tmax : selecting rows with m1_tmax
2018-06-19 11:51:10: 2007 tmax : fitting m2: m1_tmax ~ idw_tmax + (1 + idw_tmax | grd_1km_id)
2018-06-19 11:51:12: 2007 tmin : fitting m2: m1_tmin ~ idw_tmin + (1 + idw_tmin | grd_1km_id)
2018-06-19 11:51:13: 2007 tmean : fitting m2: m1_tmean ~ idw_tmean + (1 + idw_tmean | grd_1km_id)
2018-06-19 12:25:44: 2007 tmax : saving m2
2018-06-19 12:30:29: 2007 tmean : saving m2
2018-06-19 12:31:01: 2007 tmin : saving m2
2018-06-19 12:40:13: 2007 tmax : -> m2_tmax_2007.rds
2018-06-19 12:45:45: 2007 tmin : -> m2_tmin_2007.rds
2018-06-19 12:46:06: 2007 tmean : -> m2_tmean_2007.rds
2018-06-19 12:46:07: 2008
2018-06-19 12:46:07: 2008 : loading mod3_2008_pred_m1.fst
2018-06-19 12:49:50: 2008 : fitting stage 3 models in parallel
2018-06-19 12:49:51: 2008 tmin : selecting rows with m1_tmin
2018-06-19 12:49:51: 2008 tmean : selecting rows with m1_tmean
2018-06-19 12:49:52: 2008 tmax : selecting rows with m1_tmax
2018-06-19 12:50:14: 2008 tmin : fitting m2: m1_tmin ~ idw_tmin + (1 + idw_tmin | grd_1km_id)
2018-06-19 12:50:17: 2008 tmean : fitting m2: m1_tmean ~ idw_tmean + (1 + idw_tmean | grd_1km_id)
2018-06-19 12:50:20: 2008 tmax : fitting m2: m1_tmax ~ idw_tmax + (1 + idw_tmax | grd_1km_id)
2018-06-19 13:20:32: 2008 tmax : saving m2
2018-06-19 13:26:59: 2008 tmean : saving m2
2018-06-19 13:28:00: 2008 tmin : saving m2
2018-06-19 13:33:22: 2008 tmax : -> m2_tmax_2008.rds
2018-06-19 13:40:50: 2008 tmean : -> m2_tmean_2008.rds
2018-06-19 13:41:16: 2008 tmin : -> m2_tmin_2008.rds
2018-06-19 13:41:17: 2009
2018-06-19 13:41:17: 2009 : loading mod3_2009_pred_m1.fst
2018-06-19 13:45:08: 2009 : fitting stage 3 models in parallel
2018-06-19 13:45:09: 2009 tmin : selecting rows with m1_tmin
2018-06-19 13:45:10: 2009 tmean : selecting rows with m1_tmean
2018-06-19 13:45:10: 2009 tmax : selecting rows with m1_tmax
2018-06-19 13:45:27: 2009 tmax : fitting m2: m1_tmax ~ idw_tmax + (1 + idw_tmax | grd_1km_id)
2018-06-19 13:45:29: 2009 tmean : fitting m2: m1_tmean ~ idw_tmean + (1 + idw_tmean | grd_1km_id)
2018-06-19 13:45:30: 2009 tmin : fitting m2: m1_tmin ~ idw_tmin + (1 + idw_tmin | grd_1km_id)
2018-06-19 14:19:55: 2009 tmax : saving m2
2018-06-19 14:26:16: 2009 tmean : saving m2
2018-06-19 14:27:58: 2009 tmin : saving m2
2018-06-19 14:33:45: 2009 tmax : -> m2_tmax_2009.rds
2018-06-19 14:41:46: 2009 tmean : -> m2_tmean_2009.rds
2018-06-19 14:42:56: 2009 tmin : -> m2_tmin_2009.rds
2018-06-19 14:42:57: 2010
2018-06-19 14:42:58: 2010 : loading mod3_2010_pred_m1.fst
2018-06-19 14:46:47: 2010 : fitting stage 3 models in parallel
2018-06-19 14:46:48: 2010 tmin : selecting rows with m1_tmin
2018-06-19 14:46:48: 2010 tmean : selecting rows with m1_tmean
2018-06-19 14:46:49: 2010 tmax : selecting rows with m1_tmax
2018-06-19 14:47:02: 2010 tmin : fitting m2: m1_tmin ~ idw_tmin + (1 + idw_tmin | grd_1km_id)
2018-06-19 14:47:02: 2010 tmean : fitting m2: m1_tmean ~ idw_tmean + (1 + idw_tmean | grd_1km_id)
2018-06-19 14:47:06: 2010 tmax : fitting m2: m1_tmax ~ idw_tmax + (1 + idw_tmax | grd_1km_id)
2018-06-19 15:17:21: 2010 tmax : saving m2
2018-06-19 15:24:43: 2010 tmin : saving m2
2018-06-19 15:25:08: 2010 tmean : saving m2
2018-06-19 15:31:17: 2010 tmax : -> m2_tmax_2010.rds
2018-06-19 15:38:24: 2010 tmin : -> m2_tmin_2010.rds
2018-06-19 15:39:03: 2010 tmean : -> m2_tmean_2010.rds
2018-06-19 15:39:04: 2011
2018-06-19 15:39:04: 2011 : loading mod3_2011_pred_m1.fst
2018-06-19 15:42:59: 2011 : fitting stage 3 models in parallel
2018-06-19 15:43:00: 2011 tmin : selecting rows with m1_tmin
2018-06-19 15:43:01: 2011 tmean : selecting rows with m1_tmean
2018-06-19 15:43:01: 2011 tmax : selecting rows with m1_tmax
2018-06-19 15:43:16: 2011 tmean : fitting m2: m1_tmean ~ idw_tmean + (1 + idw_tmean | grd_1km_id)
2018-06-19 15:43:20: 2011 tmin : fitting m2: m1_tmin ~ idw_tmin + (1 + idw_tmin | grd_1km_id)
2018-06-19 15:43:21: 2011 tmax : fitting m2: m1_tmax ~ idw_tmax + (1 + idw_tmax | grd_1km_id)
2018-06-19 16:18:45: 2011 tmax : saving m2
2018-06-19 16:26:05: 2011 tmean : saving m2
2018-06-19 16:26:35: 2011 tmin : saving m2
2018-06-19 16:35:25: 2011 tmax : -> m2_tmax_2011.rds
2018-06-19 16:43:20: 2011 tmin : -> m2_tmin_2011.rds
2018-06-19 16:43:22: 2011 tmean : -> m2_tmean_2011.rds
2018-06-19 16:43:23: 2012
2018-06-19 16:43:23: 2012 : loading mod3_2012_pred_m1.fst
2018-06-19 16:47:18: 2012 : fitting stage 3 models in parallel
2018-06-19 16:47:19: 2012 tmin : selecting rows with m1_tmin
2018-06-19 16:47:19: 2012 tmean : selecting rows with m1_tmean
2018-06-19 16:47:20: 2012 tmax : selecting rows with m1_tmax
2018-06-19 16:47:37: 2012 tmean : fitting m2: m1_tmean ~ idw_tmean + (1 + idw_tmean | grd_1km_id)
2018-06-19 16:47:39: 2012 tmin : fitting m2: m1_tmin ~ idw_tmin + (1 + idw_tmin | grd_1km_id)
2018-06-19 16:47:40: 2012 tmax : fitting m2: m1_tmax ~ idw_tmax + (1 + idw_tmax | grd_1km_id)
2018-06-19 17:21:53: 2012 tmax : saving m2
2018-06-19 17:27:44: 2012 tmean : saving m2
2018-06-19 17:28:48: 2012 tmin : saving m2
2018-06-19 17:35:44: 2012 tmax : -> m2_tmax_2012.rds
2018-06-19 17:42:52: 2012 tmean : -> m2_tmean_2012.rds
2018-06-19 17:43:05: 2012 tmin : -> m2_tmin_2012.rds
2018-06-19 17:43:06: 2013
2018-06-19 17:43:06: 2013 : loading mod3_2013_pred_m1.fst
2018-06-19 17:46:57: 2013 : fitting stage 3 models in parallel
2018-06-19 17:46:58: 2013 tmin : selecting rows with m1_tmin
2018-06-19 17:46:58: 2013 tmean : selecting rows with m1_tmean
2018-06-19 17:46:59: 2013 tmax : selecting rows with m1_tmax
2018-06-19 17:47:11: 2013 tmax : fitting m2: m1_tmax ~ idw_tmax + (1 + idw_tmax | grd_1km_id)
2018-06-19 17:47:12: 2013 tmin : fitting m2: m1_tmin ~ idw_tmin + (1 + idw_tmin | grd_1km_id)
2018-06-19 17:47:17: 2013 tmean : fitting m2: m1_tmean ~ idw_tmean + (1 + idw_tmean | grd_1km_id)
2018-06-19 18:16:25: 2013 tmax : saving m2
2018-06-19 18:22:47: 2013 tmean : saving m2
2018-06-19 18:23:52: 2013 tmin : saving m2
2018-06-19 18:30:05: 2013 tmax : -> m2_tmax_2013.rds
2018-06-19 18:36:45: 2013 tmean : -> m2_tmean_2013.rds
2018-06-19 18:37:21: 2013 tmin : -> m2_tmin_2013.rds
2018-06-19 18:37:22: 2014
2018-06-19 18:37:22: 2014 : loading mod3_2014_pred_m1.fst
2018-06-19 18:41:22: 2014 : fitting stage 3 models in parallel
2018-06-19 18:41:23: 2014 tmin : selecting rows with m1_tmin
2018-06-19 18:41:24: 2014 tmean : selecting rows with m1_tmean
2018-06-19 18:41:24: 2014 tmax : selecting rows with m1_tmax
2018-06-19 18:41:40: 2014 tmax : fitting m2: m1_tmax ~ idw_tmax + (1 + idw_tmax | grd_1km_id)
2018-06-19 18:41:46: 2014 tmean : fitting m2: m1_tmean ~ idw_tmean + (1 + idw_tmean | grd_1km_id)
2018-06-19 18:41:50: 2014 tmin : fitting m2: m1_tmin ~ idw_tmin + (1 + idw_tmin | grd_1km_id)
2018-06-19 19:15:12: 2014 tmax : saving m2
2018-06-19 19:18:06: 2014 tmean : saving m2
2018-06-19 19:20:20: 2014 tmin : saving m2
2018-06-19 19:28:55: 2014 tmax : -> m2_tmax_2014.rds
2018-06-19 19:32:41: 2014 tmean : -> m2_tmean_2014.rds
2018-06-19 19:34:12: 2014 tmin : -> m2_tmin_2014.rds
2018-06-19 19:34:13: 2015
2018-06-19 19:34:13: 2015 : loading mod3_2015_pred_m1.fst
2018-06-19 19:42:15: 2015 : fitting stage 3 models in parallel
2018-06-19 19:42:15: 2015 tmin : selecting rows with m1_tmin
2018-06-19 19:42:16: 2015 tmean : selecting rows with m1_tmean
2018-06-19 19:42:17: 2015 tmax : selecting rows with m1_tmax
2018-06-19 19:42:32: 2015 tmax : fitting m2: m1_tmax ~ idw_tmax + (1 + idw_tmax | grd_1km_id)
2018-06-19 19:42:32: 2015 tmean : fitting m2: m1_tmean ~ idw_tmean + (1 + idw_tmean | grd_1km_id)
2018-06-19 19:42:33: 2015 tmin : fitting m2: m1_tmin ~ idw_tmin + (1 + idw_tmin | grd_1km_id)
2018-06-19 20:20:26: 2015 tmax : saving m2
2018-06-19 20:25:12: 2015 tmean : saving m2
2018-06-19 20:26:57: 2015 tmin : saving m2
2018-06-19 20:35:18: 2015 tmax : -> m2_tmax_2015.rds
2018-06-19 20:40:51: 2015 tmean : -> m2_tmean_2015.rds
2018-06-19 20:42:00: 2015 tmin : -> m2_tmin_2015.rds
2018-06-19 20:42:01: 2016
2018-06-19 20:42:01: 2016 : loading mod3_2016_pred_m1.fst
2018-06-19 20:45:57: 2016 : fitting stage 3 models in parallel
2018-06-19 20:45:57: 2016 tmin : selecting rows with m1_tmin
2018-06-19 20:45:58: 2016 tmean : selecting rows with m1_tmean
2018-06-19 20:45:59: 2016 tmax : selecting rows with m1_tmax
2018-06-19 20:46:12: 2016 tmax : fitting m2: m1_tmax ~ idw_tmax + (1 + idw_tmax | grd_1km_id)
2018-06-19 20:46:14: 2016 tmin : fitting m2: m1_tmin ~ idw_tmin + (1 + idw_tmin | grd_1km_id)
2018-06-19 20:46:16: 2016 tmean : fitting m2: m1_tmean ~ idw_tmean + (1 + idw_tmean | grd_1km_id)
2018-06-19 21:20:20: 2016 tmax : saving m2
2018-06-19 21:23:40: 2016 tmean : saving m2
2018-06-19 21:24:27: 2016 tmin : saving m2
2018-06-19 21:34:21: 2016 tmax : -> m2_tmax_2016.rds
2018-06-19 21:38:11: 2016 tmean : -> m2_tmean_2016.rds
2018-06-19 21:38:40: 2016 tmin : -> m2_tmin_2016.rds
2018-06-19 21:38:41: Done
