2020-03-18 22:45:49: OVERWRITE: FALSE
2020-03-18 22:45:50: LOG: log/2020-03-18_224549.log
2020-03-18 22:45:50: ---------------
2020-03-18 22:45:50: Making Ta model
2020-03-18 22:45:50: ---------------
2020-03-18 22:45:50: ---
2020-03-18 22:45:50: Fitting stage 1 models
2020-03-18 22:45:50: Done 2000-2018
2020-03-18 22:45:50: ---
2020-03-18 22:45:50: Generating stage 2 predictions (m1, mod3)
2020-03-18 22:45:50: Done 2000-2018
2020-03-18 22:45:50: ---
2020-03-18 22:45:50: Fitting stage 2 models
2020-03-18 22:45:50: Done 2000-2018
2020-03-18 22:45:51: ---
2020-03-18 22:45:51: Generating stage 3 predictions (m2, mod3)
2020-03-18 22:45:51: Done 2000-2018
2020-03-18 22:45:52: ---
2020-03-18 22:45:52: Generating final stage 3 predictions (m1, m2, mod3)
2020-03-18 22:45:52: Done 2000-2018
2020-03-18 22:45:52: ---
2020-03-18 22:45:52: Create mod5 (db to predict 200 m residual of 1 km Ta)
2020-03-18 22:45:52:   Loading 200 m / 1 km grid crossref
2020-03-18 22:45:52:   Adding 200 m grid x and y coordinates
2020-03-18 22:45:52:   Joining climate type
2020-03-18 22:45:52:   Joining elevation
2020-03-18 22:45:52:   Joining population
2020-03-18 22:45:53:   Joining land cover
2020-03-18 22:45:54:   Joining 1 km predicted temperatures
2020-03-18 22:45:54:     Loading...
2020-03-18 22:47:40:     Joining...
2020-03-18 22:48:03:   Joining Landsat NDVI
2020-03-18 22:48:24:   Joining Landsat at-satellite brightness temperature
2020-03-18 22:48:39:   Ordering columns and setting keys
2020-03-18 22:48:44:   Saving
2020-03-18 22:57:56:   -> 1.work/joined/mod5_2018.fst
2020-03-18 22:57:56: Done 2000-2018
2020-03-18 22:57:59: ---
2020-03-18 22:57:59: Create mod4 (db to fit model that will predict 200 m residual of 1 km Ta)
2020-03-18 22:57:59: Creating mod4 for 2018
2020-03-18 22:57:59:   Loading mod5
2020-03-18 22:58:28:   Loading meteo observations
2020-03-18 22:58:28:   Joining meteo observations to mod5
2020-03-18 22:58:30:   Saving
2020-03-18 22:58:33:   -> 1.work/joined/mod4_2018.fst
2020-03-18 22:58:33: Done 2000-2018
2020-03-18 22:58:33: ---
2020-03-18 22:58:33: Fitting stage 3 models
2020-03-18 22:58:37: 2018 tmin rf: Loading data
2020-03-18 22:58:38: 2018 tmin rf: Cross-validating (with nested tuning)
                                   [Resample] iter 1:    0.5459522   0.9029460   0.5331317   204.5530000
                                   [Resample] iter 2:    0.5431501   0.9026356   0.5324049   213.3740000
                                   [Resample] iter 3:    0.5509972   0.8941252   0.5283496   206.5980000
                                   [Resample] iter 4:    0.5480805   0.8952126   0.5302483   210.9070000
                                   [Resample] iter 5:    0.5435653   0.8994190   0.5321877   197.3140000
                                   Aggregated Result: rsq.test.mean=0.5463491,rmse.test.rmse=0.8988751,mae.test.mean=0.5312644,timetrain.test.mean=206.5492000
2020-03-18 23:16:05: 2018 tmin rf: -> 1.work/models/m3_tmin_2018_rf_cv.rds
2020-03-18 23:16:05: 2018 tmin rf: Generating plots
2020-03-18 23:16:17: 2018 tmin rf: -> 3.outcomes/model_performance/m3_tmin_2018_rf_rsq-mtry.png
2020-03-18 23:16:19: 2018 tmin rf: -> 3.outcomes/model_performance/m3_tmin_2018_rf_tune-rsq.png
2020-03-18 23:16:19: 2018 tmin rf: -> 3.outcomes/model_performance/m3_tmin_2018_rf_tune-rmse.png
2020-03-18 23:16:22: 2018 tmin rf: -> 3.outcomes/model_performance/m3_tmin_2018_rf_features.png
2020-03-18 23:16:22: 2018 tmin rf: Training final model
2020-03-18 23:21:48: 2018 tmin rf: -> 1.work/models/m3_tmin_2018_rf_model.rds
2020-03-18 23:21:50: 2018 tmin xgb: Cross-validating (with nested tuning)
                                    [Resample] iter 1:    0.6091980   0.8347038   0.4977859   277.5250000
                                    [Resample] iter 2:    0.6109845   0.8319068   0.4967236   276.7690000
                                    [Resample] iter 3:    0.6102920   0.8318236   0.4956337   274.3910000
                                    [Resample] iter 4:    0.6068990   0.8383302   0.4977102   265.9450000
                                    [Resample] iter 5:    0.6098883   0.8333202   0.4953539   290.3890000
                                    Aggregated Result: rsq.test.mean=0.6094523,rmse.test.rmse=0.8340204,mae.test.mean=0.4966415,timetrain.test.mean=277.0038000
2020-03-18 23:45:20: 2018 tmin xgb: -> 1.work/models/m3_tmin_2018_xgb_cv.rds
2020-03-18 23:45:20: 2018 tmin xgb: Generating plots
2020-03-18 23:45:23: 2018 tmin xgb: -> 3.outcomes/model_performance/m3_tmin_2018_xgb_rsq-eta.png
2020-03-18 23:45:23: 2018 tmin xgb: -> 3.outcomes/model_performance/m3_tmin_2018_xgb_rsq-max_depth.png
2020-03-18 23:45:24: 2018 tmin xgb: -> 3.outcomes/model_performance/m3_tmin_2018_xgb_rsq-min_child_weight.png
2020-03-18 23:45:24: 2018 tmin xgb: -> 3.outcomes/model_performance/m3_tmin_2018_xgb_rsq-colsample_bytree.png
2020-03-18 23:45:25: 2018 tmin xgb: -> 3.outcomes/model_performance/m3_tmin_2018_xgb_tune-rsq.png
2020-03-18 23:45:25: 2018 tmin xgb: -> 3.outcomes/model_performance/m3_tmin_2018_xgb_tune-rmse.png
2020-03-18 23:45:26: 2018 tmin xgb: -> 3.outcomes/model_performance/m3_tmin_2018_xgb_features.png
2020-03-18 23:45:26: 2018 tmin xgb: Training final model
2020-03-18 23:51:17: 2018 tmin xgb: -> 1.work/models/m3_tmin_2018_xgb_model.rds
2020-03-18 23:51:17: 2018 tmean rf: Cross-validating (with nested tuning)
                                    [Resample] iter 1:    0.4808252   0.6153767   0.3564249   121.2990000
                                    [Resample] iter 2:    0.4797504   0.6114999   0.3544972   114.6220000
                                    [Resample] iter 3:    0.4997596   0.5960432   0.3581673   176.9900000
                                    [Resample] iter 4:    0.4870852   0.6097949   0.3586680   121.9800000
                                    [Resample] iter 5:    0.4788529   0.6133928   0.3554176   113.3250000
                                    Aggregated Result: rsq.test.mean=0.4852546,rmse.test.rmse=0.6092600,mae.test.mean=0.3566350,timetrain.test.mean=129.6432000
2020-03-19 00:02:18: 2018 tmean rf: -> 1.work/models/m3_tmean_2018_rf_cv.rds
2020-03-19 00:02:19: 2018 tmean rf: Generating plots
2020-03-19 00:02:20: 2018 tmean rf: -> 3.outcomes/model_performance/m3_tmean_2018_rf_rsq-mtry.png
2020-03-19 00:02:21: 2018 tmean rf: -> 3.outcomes/model_performance/m3_tmean_2018_rf_tune-rsq.png
2020-03-19 00:02:21: 2018 tmean rf: -> 3.outcomes/model_performance/m3_tmean_2018_rf_tune-rmse.png
2020-03-19 00:02:22: 2018 tmean rf: -> 3.outcomes/model_performance/m3_tmean_2018_rf_features.png
2020-03-19 00:02:22: 2018 tmean rf: Training final model
2020-03-19 00:06:21: 2018 tmean rf: -> 1.work/models/m3_tmean_2018_rf_model.rds
2020-03-19 00:06:23: 2018 tmean xgb: Cross-validating (with nested tuning)
                                     [Resample] iter 1:    0.5773852   0.5524479   0.3271342   199.6070000
                                     [Resample] iter 2:    0.5893833   0.5441306   0.3269507   211.2370000
                                     [Resample] iter 3:    0.5860832   0.5472247   0.3265284   195.8810000
                                     [Resample] iter 4:    0.5896352   0.5423377   0.3255378   192.4660000
                                     [Resample] iter 5:    0.5678312   0.5585404   0.3281434   201.7410000
                                     Aggregated Result: rsq.test.mean=0.5820636,rmse.test.rmse=0.5489680,mae.test.mean=0.3268589,timetrain.test.mean=200.1864000
2020-03-19 00:23:14: 2018 tmean xgb: -> 1.work/models/m3_tmean_2018_xgb_cv.rds
2020-03-19 00:23:14: 2018 tmean xgb: Generating plots
2020-03-19 00:23:15: 2018 tmean xgb: -> 3.outcomes/model_performance/m3_tmean_2018_xgb_rsq-eta.png
2020-03-19 00:23:16: 2018 tmean xgb: -> 3.outcomes/model_performance/m3_tmean_2018_xgb_rsq-max_depth.png
2020-03-19 00:23:17: 2018 tmean xgb: -> 3.outcomes/model_performance/m3_tmean_2018_xgb_rsq-min_child_weight.png
2020-03-19 00:23:17: 2018 tmean xgb: -> 3.outcomes/model_performance/m3_tmean_2018_xgb_rsq-colsample_bytree.png
2020-03-19 00:23:18: 2018 tmean xgb: -> 3.outcomes/model_performance/m3_tmean_2018_xgb_tune-rsq.png
2020-03-19 00:23:18: 2018 tmean xgb: -> 3.outcomes/model_performance/m3_tmean_2018_xgb_tune-rmse.png
2020-03-19 00:23:19: 2018 tmean xgb: -> 3.outcomes/model_performance/m3_tmean_2018_xgb_features.png
2020-03-19 00:23:19: 2018 tmean xgb: Training final model
2020-03-19 00:27:31: 2018 tmean xgb: -> 1.work/models/m3_tmean_2018_xgb_model.rds
2020-03-19 00:27:31: 2018 tmax rf: Cross-validating (with nested tuning)
                                   [Resample] iter 1:    0.6475916   0.7522102   0.4269495   202.6790000
                                   [Resample] iter 2:    0.6429815   0.7591527   0.4315185   182.5060000
                                   [Resample] iter 3:    0.6474922   0.7527988   0.4266784   205.9400000
                                   [Resample] iter 4:    0.6478830   0.7502401   0.4271404   177.9500000
                                   [Resample] iter 5:    0.6412475   0.7590894   0.4300486   181.3230000
                                   Aggregated Result: rsq.test.mean=0.6454391,rmse.test.rmse=0.7547074,mae.test.mean=0.4284671,timetrain.test.mean=190.0796000
2020-03-19 00:43:34: 2018 tmax rf: -> 1.work/models/m3_tmax_2018_rf_cv.rds
2020-03-19 00:43:34: 2018 tmax rf: Generating plots
2020-03-19 00:43:35: 2018 tmax rf: -> 3.outcomes/model_performance/m3_tmax_2018_rf_rsq-mtry.png
2020-03-19 00:43:35: 2018 tmax rf: -> 3.outcomes/model_performance/m3_tmax_2018_rf_tune-rsq.png
2020-03-19 00:43:36: 2018 tmax rf: -> 3.outcomes/model_performance/m3_tmax_2018_rf_tune-rmse.png
2020-03-19 00:43:36: 2018 tmax rf: -> 3.outcomes/model_performance/m3_tmax_2018_rf_features.png
2020-03-19 00:43:36: 2018 tmax rf: Training final model
2020-03-19 00:49:38: 2018 tmax rf: -> 1.work/models/m3_tmax_2018_rf_model.rds
2020-03-19 00:49:41: 2018 tmax xgb: Cross-validating (with nested tuning)
                                    [Resample] iter 1:    0.7198521   0.6717443   0.3865727   288.6970000
                                    [Resample] iter 2:    0.7186037   0.6736435   0.3861301   293.6300000
                                    [Resample] iter 3:    0.7100253   0.6843125   0.3875687   296.3000000
                                    [Resample] iter 4:    0.7219169   0.6659945   0.3819342   297.1990000
                                    [Resample] iter 5:    0.7201845   0.6688762   0.3851514   290.4480000
                                    Aggregated Result: rsq.test.mean=0.7181165,rmse.test.rmse=0.6729433,mae.test.mean=0.3854714,timetrain.test.mean=293.2548000
2020-03-19 01:14:31: 2018 tmax xgb: -> 1.work/models/m3_tmax_2018_xgb_cv.rds
2020-03-19 01:14:31: 2018 tmax xgb: Generating plots
2020-03-19 01:14:33: 2018 tmax xgb: -> 3.outcomes/model_performance/m3_tmax_2018_xgb_rsq-eta.png
2020-03-19 01:14:34: 2018 tmax xgb: -> 3.outcomes/model_performance/m3_tmax_2018_xgb_rsq-max_depth.png
2020-03-19 01:14:34: 2018 tmax xgb: -> 3.outcomes/model_performance/m3_tmax_2018_xgb_rsq-min_child_weight.png
2020-03-19 01:14:35: 2018 tmax xgb: -> 3.outcomes/model_performance/m3_tmax_2018_xgb_rsq-colsample_bytree.png
2020-03-19 01:14:35: 2018 tmax xgb: -> 3.outcomes/model_performance/m3_tmax_2018_xgb_tune-rsq.png
2020-03-19 01:14:36: 2018 tmax xgb: -> 3.outcomes/model_performance/m3_tmax_2018_xgb_tune-rmse.png
2020-03-19 01:14:36: 2018 tmax xgb: -> 3.outcomes/model_performance/m3_tmax_2018_xgb_features.png
2020-03-19 01:14:36: 2018 tmax xgb: Training final model
2020-03-19 01:20:42: 2018 tmax xgb: -> 1.work/models/m3_tmax_2018_xgb_model.rds
2020-03-19 01:20:42: Done 2000-2018
2020-03-19 01:20:43: ---
2020-03-19 01:20:43: Generating stage 4 predictions (m3, mod4)
2020-03-19 01:20:43: 2018 rf: loading data
2020-03-19 01:20:44: 2018 rf tmin: loading model
2020-03-19 01:20:54: 2018 rf tmin: predicting
2020-03-19 01:21:00: 2018 rf tmean: loading model
2020-03-19 01:21:09: 2018 rf tmean: predicting
2020-03-19 01:21:16: 2018 rf tmax: loading model
2020-03-19 01:21:29: 2018 rf tmax: predicting
2020-03-19 01:21:37: 2018 rf: saving predictions
2020-03-19 01:21:37: 2018 rf: -> 1.work/predictions/mod4_2018_pred_m3_rf.fst
2020-03-19 01:21:37: 2018 xgb tmin: loading model
2020-03-19 01:21:41: 2018 xgb tmin: predicting
2020-03-19 01:21:42: 2018 xgb tmean: loading model
2020-03-19 01:21:45: 2018 xgb tmean: predicting
2020-03-19 01:21:47: 2018 xgb tmax: loading model
2020-03-19 01:21:50: 2018 xgb tmax: predicting
2020-03-19 01:21:51: 2018 xgb: saving predictions
2020-03-19 01:21:52: 2018 xgb: -> 1.work/predictions/mod4_2018_pred_m3_xgb.fst
2020-03-19 01:21:52: Done 2000-2018
2020-03-19 01:21:52: ---
2020-03-19 01:21:52: Fitting stage 4 models
2020-03-19 01:21:52: 2018 tmin: loading m3 predictions
2020-03-19 01:21:53: 2018 tmin: cross-validating
2020-03-19 01:22:51: 2018 tmin: assessing performance
2020-03-19 01:22:52: year tvar     r2   rmse    mae r2.space r2.time res.mean res.sd i slope
2020-03-19 01:22:52: 2018 tmin 0.7554 0.6601 0.4141   0.9967  0.5519        0 0.6601 0     1
2020-03-19 01:22:52: 2018 tmin: fitting final ensemble
2020-03-19 01:23:02: 2018 tmin: -> 1.work/models/m4_tmin_2018_model.rds
2020-03-19 01:23:02: 2018 tmean: cross-validating
2020-03-19 01:23:38: 2018 tmean: assessing performance
2020-03-19 01:23:39: year  tvar     r2   rmse    mae r2.space r2.time res.mean res.sd i slope
2020-03-19 01:23:39: 2018 tmean 0.7751 0.4027 0.2618  0.9974   0.7013        0 0.4027 0     1
2020-03-19 01:23:39: 2018 tmean: fitting final ensemble
2020-03-19 01:23:47: 2018 tmean: -> 1.work/models/m4_tmean_2018_model.rds
2020-03-19 01:23:47: 2018 tmax: cross-validating
2020-03-19 01:24:35: 2018 tmax: assessing performance
2020-03-19 01:24:36: year tvar     r2   rmse    mae r2.space r2.time res.mean res.sd i slope
2020-03-19 01:24:36: 2018 tmax 0.8335 0.5173 0.3141   0.9987  0.6938        0 0.5173 0     1
2020-03-19 01:24:36: 2018 tmax: fitting final ensemble
2020-03-19 01:24:45: 2018 tmax: -> 1.work/models/m4_tmax_2018_model.rds
2020-03-19 01:24:45: Done 2000-2018
2020-03-19 01:24:45: ---
2020-03-19 01:24:45: Generating stage 5 predictions, step 1: predict with RF and XGB (m3, mod5)
2020-03-19 01:24:46: 2018: Loading data
2020-03-19 01:26:00: 2018 tmin rf: loading model
2020-03-19 01:26:09: 2018 tmin rf: formatting data
2020-03-19 01:26:24: 2018 tmin rf: predicting for chunk 1 of 4
2020-03-19 01:28:59: 2018 tmin rf: predicting for chunk 2 of 4
2020-03-19 01:31:32: 2018 tmin rf: predicting for chunk 3 of 4
2020-03-19 01:34:03: 2018 tmin rf: predicting for chunk 4 of 4
2020-03-19 01:36:36: 2018 tmin rf: joining predictions to mod5
2020-03-19 01:36:49: 2018 tmin xgb: loading model
2020-03-19 01:36:50: 2018 tmin xgb: formatting data
2020-03-19 01:37:07: 2018 tmin xgb: predicting for chunk 1 of 1
2020-03-19 01:39:45: 2018 tmin xgb: joining predictions to mod5
2020-03-19 01:40:03: 2018 tmean rf: loading model
2020-03-19 01:40:13: 2018 tmean rf: formatting data
2020-03-19 01:40:23: 2018 tmean rf: predicting for chunk 1 of 4
2020-03-19 01:43:08: 2018 tmean rf: predicting for chunk 2 of 4
2020-03-19 01:45:53: 2018 tmean rf: predicting for chunk 3 of 4
2020-03-19 01:48:38: 2018 tmean rf: predicting for chunk 4 of 4
2020-03-19 01:51:22: 2018 tmean rf: joining predictions to mod5
2020-03-19 01:51:40: 2018 tmean xgb: loading model
2020-03-19 01:51:40: 2018 tmean xgb: formatting data
2020-03-19 01:51:57: 2018 tmean xgb: predicting for chunk 1 of 1
2020-03-19 01:54:16: 2018 tmean xgb: joining predictions to mod5
2020-03-19 01:54:36: 2018 tmax rf: loading model
2020-03-19 01:54:49: 2018 tmax rf: formatting data
2020-03-19 01:54:59: 2018 tmax rf: predicting for chunk 1 of 4
2020-03-19 01:57:52: 2018 tmax rf: predicting for chunk 2 of 4
2020-03-19 02:00:47: 2018 tmax rf: predicting for chunk 3 of 4
2020-03-19 02:03:39: 2018 tmax rf: predicting for chunk 4 of 4
2020-03-19 02:06:32: 2018 tmax rf: joining predictions to mod5
2020-03-19 02:06:50: 2018 tmax xgb: loading model
2020-03-19 02:06:51: 2018 tmax xgb: formatting data
2020-03-19 02:07:08: 2018 tmax xgb: predicting for chunk 1 of 1
2020-03-19 02:09:52: 2018 tmax xgb: joining predictions to mod5
2020-03-19 02:10:11: 2018: saving predictions
2020-03-19 02:18:35: 2018: -> 1.work/predictions/mod5_2018_pred_m3.fst
2020-03-19 02:18:35: Done 2000-2018
2020-03-19 02:18:35: --------
2020-03-19 02:18:35: Finished
2020-03-19 02:18:35: --------
